(kicad_symbol_lib (version 20220914) (generator kicad_symbol_editor)
  (symbol "11-14-14" (pin_numbers hide) (pin_names (offset 0) hide) (in_bom no) (on_board no)
    (property "Reference" "#" (at 0.0254 -7.2644 0)
      (effects (font (size 1.27 1.27)) hide)
    )
    (property "Value" "Interrupteur horaire" (at 0.0254 4.4196 0)
      (effects (font (size 1.27 1.27)) hide)
    )
    (property "Footprint" "" (at 0.0254 -9.5504 0)
      (effects (font (size 1.27 1.27)) hide)
    )
    (property "Datasheet" "" (at 0.0254 -9.5504 0)
      (effects (font (size 1.27 1.27)) hide)
    )
    (property "Sim.Enable" "0" (at 0.0254 -7.5184 0)
      (effects (font (size 1.27 1.27)) hide)
    )
    (property "Nr." "11-14-14" (at 0.0254 -5.1054 0)
      (effects (font (size 1.27 1.27) (color 0 0 0 1)))
    )
    (property "de" "Schaltuhr" (at 0.0254 4.4196 0)
      (effects (font (size 1.27 1.27)) hide)
    )
    (property "Hour" "I" (at -2.8956 0.5588 0)
      (effects (font (face "Arial Rounded MT Bold") (size 1.27 1.27) bold italic (color 0 0 0 1)))
    )
    (property "Min" "i" (at -2.203 -0.2109 90)
      (effects (font (size 1.27 1.27) bold italic (color 0 0 0 1)))
    )
    (property "Ausgabe" "${COMMENT2}${REFERENCE}.${Zeile}${Strompfad}" (at 0.6604 6.3246 0)
      (effects (font (size 1.27 1.27)) hide)
    )
    (property "Zeile" "" (at -2.4892 0.1778 0)
      (effects (font (size 1.27 1.27)) hide)
    )
    (property "Strompfad" "" (at -2.4892 0.1778 0)
      (effects (font (size 1.27 1.27)) hide)
    )
    (property "ki_keywords" "Schaltuhr;11-14-14;Interrupteur horaire" (at 0 0 0)
      (effects (font (size 1.27 1.27)) hide)
    )
    (property "ki_description" "Interrupteurs" (at 0 0 0)
      (effects (font (size 1.27 1.27)) hide)
    )
    (symbol "11-14-14_1_1"
      (rectangle (start -5.715 2.54) (end 5.08 -2.54)
        (stroke (width 0.2) (type default) (color 0 0 0 1))
        (fill (type none))
      )
      (circle (center -2.794 0.0508) (radius 1.504)
        (stroke (width 0.2) (type default) (color 0 0 0 1))
        (fill (type color) (color 255 255 255 1))
      )
      (polyline
        (pts
          (xy 0 0)
          (xy 1.27 0)
        )
        (stroke (width 0.2) (type default) (color 0 0 0 1))
        (fill (type none))
      )
      (polyline
        (pts
          (xy 3.175 0)
          (xy 1.27 -0.635)
        )
        (stroke (width 0.2) (type default) (color 0 0 0 1))
        (fill (type none))
      )
      (polyline
        (pts
          (xy 3.175 0)
          (xy 4.445 0)
        )
        (stroke (width 0.2) (type default) (color 0 0 0 1))
        (fill (type none))
      )
      (polyline
        (pts
          (xy -0.127 2.3876)
          (xy -0.0508 0.1524)
          (xy 1.3716 0.1524)
          (xy 1.4224 0.0508)
          (xy 1.4224 -0.1016)
          (xy 1.27 -0.1524)
          (xy -0.0254 -0.1524)
          (xy 0.0254 -2.3876)
          (xy 1.3462 -2.3876)
          (xy 1.27 -0.8128)
          (xy 1.0922 -0.7112)
          (xy 1.1176 -0.635)
          (xy 1.1938 -0.508)
          (xy 1.4478 -0.4064)
          (xy 3.1242 0.1524)
          (xy 4.4958 0.1524)
          (xy 4.572 0.0508)
          (xy 4.5974 -0.0762)
          (xy 4.5212 -0.1524)
          (xy 3.2258 -0.1524)
          (xy 3.048 -0.2032)
          (xy 1.0922 -0.8382)
          (xy 1.2192 -2.3876)
          (xy 4.9276 -2.3876)
          (xy 4.9276 2.3876)
          (xy -0.1524 2.3876)
        )
        (stroke (width 0.0001) (type default) (color 255 255 255 1))
        (fill (type color) (color 255 255 255 1))
      )
      (polyline
        (pts
          (xy -3.1496 2.1844)
          (xy -3.175 1.7018)
          (xy -2.7178 1.7272)
          (xy -2.3114 1.651)
          (xy -2.032 1.5494)
          (xy -1.8034 1.397)
          (xy -1.6002 1.2192)
          (xy -1.397 0.9652)
          (xy -1.2192 0.6096)
          (xy -1.143 0.3048)
          (xy -1.0922 0.0762)
          (xy -1.143 -0.254)
          (xy -1.2192 -0.5588)
          (xy -1.3462 -0.8382)
          (xy -1.4986 -1.0414)
          (xy -1.651 -1.1938)
          (xy -1.8542 -1.3716)
          (xy -2.1082 -1.4986)
          (xy -2.3622 -1.5748)
          (xy -2.6416 -1.8542)
          (xy -2.921 -1.9558)
          (xy -3.048 -2.1336)
          (xy -3.0734 -2.3114)
          (xy -3.0226 -2.3622)
          (xy 0.0254 -2.413)
          (xy 0.0508 2.3622)
          (xy -3.1496 2.3622)
          (xy -3.1242 2.286)
        )
        (stroke (width 0.0001) (type default) (color 255 255 255 1))
        (fill (type color) (color 255 255 255 1))
      )
      (polyline
        (pts
          (xy -2.8702 2.159)
          (xy -2.7432 1.7272)
          (xy -3.2004 1.6764)
          (xy -3.5814 1.5494)
          (xy -3.8862 1.3462)
          (xy -4.0894 1.143)
          (xy -4.2672 0.9144)
          (xy -4.3688 0.6858)
          (xy -4.445 0.4318)
          (xy -4.4958 0.2286)
          (xy -4.4958 0)
          (xy -4.445 -0.2794)
          (xy -4.3688 -0.5588)
          (xy -4.2926 -0.7366)
          (xy -4.1402 -0.9652)
          (xy -3.9878 -1.143)
          (xy -3.81 -1.3208)
          (xy -3.5814 -1.4224)
          (xy -3.3528 -1.524)
          (xy -3.1242 -1.6256)
          (xy -2.794 -1.651)
          (xy -2.4892 -1.6256)
          (xy -2.2606 -1.5494)
          (xy -2.7432 -2.3876)
          (xy -5.5626 -2.3876)
          (xy -5.5626 2.3876)
          (xy -2.667 2.3876)
          (xy -2.8448 2.3114)
        )
        (stroke (width 0.0001) (type default) (color 255 255 255 1))
        (fill (type color) (color 255 255 255 1))
      )
    )
  )
)
