(kicad_symbol_lib (version 20220914) (generator kicad_symbol_editor)
  (symbol "11-14-03" (pin_numbers hide) (pin_names (offset 0) hide) (in_bom no) (on_board no)
    (property "Reference" "#" (at 0.0254 -7.2644 0)
      (effects (font (size 1.27 1.27)) hide)
    )
    (property "Value" "Interrupteur à temps de fermeture limité, unipolaire" (at 0.0254 4.4196 0)
      (effects (font (size 1.27 1.27)) hide)
    )
    (property "Footprint" "" (at 0.0254 -9.5504 0)
      (effects (font (size 1.27 1.27)) hide)
    )
    (property "Datasheet" "" (at 0.0254 -9.5504 0)
      (effects (font (size 1.27 1.27)) hide)
    )
    (property "Sim.Enable" "0" (at 0.0254 -7.5184 0)
      (effects (font (size 1.27 1.27)) hide)
    )
    (property "Nr." "11-14-03" (at 0.0254 -5.1054 0)
      (effects (font (size 1.27 1.27) (color 0 0 0 1)))
    )
    (property "de" "Zeitschalter, einpolig" (at 0.0254 4.4196 0)
      (effects (font (size 1.27 1.27)) hide)
    )
    (property "Ausgabe" "${COMMENT2}${REFERENCE}.${Zeile}${Strompfad}" (at 0.6604 6.3246 0)
      (effects (font (size 1.27 1.27)) hide)
    )
    (property "Zeile" "" (at 0 0 0)
      (effects (font (size 1.27 1.27)) hide)
    )
    (property "Strompfad" "" (at 0 0 0)
      (effects (font (size 1.27 1.27)) hide)
    )
    (property "ki_keywords" "Zeitschalter, einpolig;11-14-03;Interrupteur à temps de fermeture limité, unipolaire" (at 0 0 0)
      (effects (font (size 1.27 1.27)) hide)
    )
    (property "ki_description" "Interrupteurs" (at 0 0 0)
      (effects (font (size 1.27 1.27)) hide)
    )
    (symbol "11-14-03_1_1"
      (polyline
        (pts
          (xy 0.7112 1.143)
          (xy 2.1082 3.1496)
        )
        (stroke (width 0.2) (type default) (color 0 0 0 1))
        (fill (type none))
      )
      (polyline
        (pts
          (xy 2.159 3.2004)
          (xy 3.1242 2.6162)
          (xy 3.0988 2.6162)
        )
        (stroke (width 0.2) (type default) (color 0 0 0 1))
        (fill (type none))
      )
      (circle (center 0.0254 0) (radius 1.2067)
        (stroke (width 0.2) (type default) (color 0 0 0 1))
        (fill (type color) (color 255 255 255 1))
      )
      (text "t" (at 2.159 1.6256 0)
        (effects (font (face "Arial Rounded MT Bold") (size 1.27 1.27) italic (color 0 0 0 1)))
      )
    )
  )
)
