(kicad_symbol_lib (version 20220914) (generator kicad_symbol_editor)
  (symbol "Fuse switch disconnector" (pin_numbers hide) (pin_names (offset 0) hide) (in_bom no) (on_board no)
    (property "Reference" "F" (at -10.16 0 90)
      (effects (font (size 1.27 1.27)))
    )
    (property "Value" "Fuse switch disconnector" (at 7.62 0 90)
      (effects (font (size 1.27 1.27)) hide)
    )
    (property "Footprint" "" (at -3.81 -6.985 0)
      (effects (font (size 1.27 1.27)) hide)
    )
    (property "Datasheet" "" (at -3.81 -6.985 0)
      (effects (font (size 1.27 1.27)) hide)
    )
    (property "Sim.Enable" "0" (at 7.62 0 0)
      (effects (font (size 1.27 1.27)) hide)
    )
    (property "de" "Sicherungslasttrennschalter" (at 7.62 0 90)
      (effects (font (size 1.27 1.27) (color 0 0 0 1)))
    )
    (property "Ausgabe" "${COMMENT2}${REFERENCE}.${Zeile}${Strompfad}" (at -7.62 0 90)
      (effects (font (size 1.27 1.27)))
    )
    (property "Zeile" "" (at -1.27 -0.635 0)
      (effects (font (size 1.27 1.27)) hide)
    )
    (property "Strompfad" "" (at -1.27 -0.635 0)
      (effects (font (size 1.27 1.27)) hide)
    )
    (property "ki_keywords" "Sicherungsschalter" (at 0 0 0)
      (effects (font (size 1.27 1.27)) hide)
    )
    (symbol "Fuse switch disconnector_1_1"
      (rectangle (start -6.35 6.35) (end 6.35 -6.35)
        (stroke (width 0.001) (type dot) (color 255 255 255 1))
        (fill (type background))
      )
      (circle (center -3.81 -6.35) (radius 0.3458)
        (stroke (width 0.2) (type default) (color 0 0 0 1))
        (fill (type none))
      )
      (circle (center -3.81 2.286) (radius 0.3592)
        (stroke (width 0.2) (type default) (color 0 0 0 1))
        (fill (type color) (color 255 255 255 1))
      )
      (circle (center -3.81 6.35) (radius 0.3458)
        (stroke (width 0.2) (type default) (color 0 0 0 1))
        (fill (type none))
      )
      (circle (center -1.27 -6.35) (radius 0.3458)
        (stroke (width 0.2) (type default) (color 0 0 0 1))
        (fill (type none))
      )
      (circle (center -1.27 2.286) (radius 0.3592)
        (stroke (width 0.2) (type default) (color 0 0 0 1))
        (fill (type color) (color 255 255 255 1))
      )
      (circle (center -1.27 6.35) (radius 0.3458)
        (stroke (width 0.2) (type default) (color 0 0 0 1))
        (fill (type none))
      )
      (polyline
        (pts
          (xy -4.191 2.794)
          (xy -3.429 2.794)
        )
        (stroke (width 0.2) (type default) (color 0 0 0 1))
        (fill (type color) (color 255 255 255 1))
      )
      (polyline
        (pts
          (xy -3.81 6.35)
          (xy -3.81 2.794)
        )
        (stroke (width 0.2) (type default) (color 0 0 0 1))
        (fill (type none))
      )
      (polyline
        (pts
          (xy -1.651 2.794)
          (xy -0.889 2.794)
        )
        (stroke (width 0.2) (type default) (color 0 0 0 1))
        (fill (type color) (color 255 255 255 1))
      )
      (polyline
        (pts
          (xy -1.27 6.35)
          (xy -1.27 2.794)
        )
        (stroke (width 0.2) (type default) (color 0 0 0 1))
        (fill (type none))
      )
      (polyline
        (pts
          (xy 0.889 2.794)
          (xy 1.651 2.794)
        )
        (stroke (width 0.2) (type default) (color 0 0 0 1))
        (fill (type color) (color 255 255 255 1))
      )
      (polyline
        (pts
          (xy 1.27 6.35)
          (xy 1.27 2.794)
        )
        (stroke (width 0.2) (type default) (color 0 0 0 1))
        (fill (type none))
      )
      (polyline
        (pts
          (xy 3.429 2.794)
          (xy 4.191 2.794)
        )
        (stroke (width 0.2) (type default) (color 0 0 0 1))
        (fill (type color) (color 255 255 255 1))
      )
      (polyline
        (pts
          (xy 3.81 6.35)
          (xy 3.81 2.794)
        )
        (stroke (width 0.2) (type default) (color 0 0 0 1))
        (fill (type none))
      )
      (polyline
        (pts
          (xy -3.81 -6.35)
          (xy -3.81 -2.54)
          (xy -5.08 2.54)
        )
        (stroke (width 0.2) (type default) (color 0 0 0 1))
        (fill (type none))
      )
      (polyline
        (pts
          (xy -3.81 -3.81)
          (xy -3.81 -6.35)
          (xy -3.81 -6.096)
        )
        (stroke (width 0.5) (type default) (color 0 0 0 1))
        (fill (type none))
      )
      (polyline
        (pts
          (xy -3.81 6.35)
          (xy -3.81 3.81)
          (xy -3.81 4.064)
        )
        (stroke (width 0.5) (type default) (color 0 0 0 1))
        (fill (type none))
      )
      (polyline
        (pts
          (xy -1.27 -6.35)
          (xy -1.27 -2.54)
          (xy -2.54 2.54)
        )
        (stroke (width 0.2) (type default) (color 0 0 0 1))
        (fill (type none))
      )
      (polyline
        (pts
          (xy -1.27 -3.81)
          (xy -1.27 -6.35)
          (xy -1.27 -6.096)
        )
        (stroke (width 0.5) (type default) (color 0 0 0 1))
        (fill (type none))
      )
      (polyline
        (pts
          (xy -1.27 6.35)
          (xy -1.27 3.81)
          (xy -1.27 4.064)
        )
        (stroke (width 0.5) (type default) (color 0 0 0 1))
        (fill (type none))
      )
      (polyline
        (pts
          (xy 1.27 -6.35)
          (xy 1.27 -2.54)
          (xy 0 2.54)
        )
        (stroke (width 0.2) (type default) (color 0 0 0 1))
        (fill (type none))
      )
      (polyline
        (pts
          (xy 1.27 -3.81)
          (xy 1.27 -6.35)
          (xy 1.27 -6.096)
        )
        (stroke (width 0.5) (type default) (color 0 0 0 1))
        (fill (type none))
      )
      (polyline
        (pts
          (xy 1.27 6.35)
          (xy 1.27 3.81)
          (xy 1.27 4.064)
        )
        (stroke (width 0.5) (type default) (color 0 0 0 1))
        (fill (type none))
      )
      (polyline
        (pts
          (xy 3.81 -6.35)
          (xy 3.81 -2.54)
          (xy 2.54 2.54)
        )
        (stroke (width 0.2) (type default) (color 0 0 0 1))
        (fill (type none))
      )
      (polyline
        (pts
          (xy 3.81 -3.81)
          (xy 3.81 -6.35)
          (xy 3.81 -6.096)
        )
        (stroke (width 0.5) (type default) (color 0 0 0 1))
        (fill (type none))
      )
      (polyline
        (pts
          (xy 3.81 6.35)
          (xy 3.81 3.81)
          (xy 3.81 4.064)
        )
        (stroke (width 0.5) (type default) (color 0 0 0 1))
        (fill (type none))
      )
      (polyline
        (pts
          (xy -3.556 -1.27)
          (xy -4.191 1.27)
          (xy -5.207 1.016)
          (xy -4.572 -1.524)
          (xy -3.556 -1.27)
        )
        (stroke (width 0.2) (type default) (color 0 0 0 1))
        (fill (type color) (color 255 255 255 1))
      )
      (polyline
        (pts
          (xy -1.016 -1.27)
          (xy -1.651 1.27)
          (xy -2.667 1.016)
          (xy -2.032 -1.524)
          (xy -1.016 -1.27)
        )
        (stroke (width 0.2) (type default) (color 0 0 0 1))
        (fill (type color) (color 255 255 255 1))
      )
      (polyline
        (pts
          (xy 1.524 -1.27)
          (xy 0.889 1.27)
          (xy -0.127 1.016)
          (xy 0.508 -1.524)
          (xy 1.524 -1.27)
        )
        (stroke (width 0.2) (type default) (color 0 0 0 1))
        (fill (type color) (color 255 255 255 1))
      )
      (polyline
        (pts
          (xy 4.064 -1.27)
          (xy 3.429 1.27)
          (xy 2.413 1.016)
          (xy 3.048 -1.524)
          (xy 4.064 -1.27)
        )
        (stroke (width 0.2) (type default) (color 0 0 0 1))
        (fill (type color) (color 255 255 255 1))
      )
      (circle (center 1.27 -6.35) (radius 0.3458)
        (stroke (width 0.2) (type default) (color 0 0 0 1))
        (fill (type none))
      )
      (circle (center 1.27 2.286) (radius 0.3592)
        (stroke (width 0.2) (type default) (color 0 0 0 1))
        (fill (type color) (color 255 255 255 1))
      )
      (circle (center 1.27 6.35) (radius 0.3458)
        (stroke (width 0.2) (type default) (color 0 0 0 1))
        (fill (type none))
      )
      (circle (center 3.81 -6.35) (radius 0.3458)
        (stroke (width 0.2) (type default) (color 0 0 0 1))
        (fill (type none))
      )
      (circle (center 3.81 2.286) (radius 0.3592)
        (stroke (width 0.2) (type default) (color 0 0 0 1))
        (fill (type color) (color 255 255 255 1))
      )
      (circle (center 3.81 6.35) (radius 0.3458)
        (stroke (width 0.2) (type default) (color 0 0 0 1))
        (fill (type none))
      )
      (pin bidirectional line (at -3.81 -6.35 90) (length 2.54)
        (name "1" (effects (font (size 1.27 1.27))))
        (number "1" (effects (font (size 1.27 1.27))))
      )
      (pin bidirectional line (at -3.81 6.35 270) (length 2.54)
        (name "2" (effects (font (size 1.27 1.27))))
        (number "2" (effects (font (size 1.27 1.27))))
      )
      (pin bidirectional line (at -1.27 -6.35 90) (length 2.54)
        (name "1" (effects (font (size 1.27 1.27))))
        (number "3" (effects (font (size 1.27 1.27))))
      )
      (pin bidirectional line (at -1.27 6.35 270) (length 2.54)
        (name "2" (effects (font (size 1.27 1.27))))
        (number "4" (effects (font (size 1.27 1.27))))
      )
      (pin bidirectional line (at 1.27 -6.35 90) (length 2.54)
        (name "3" (effects (font (size 1.27 1.27))))
        (number "5" (effects (font (size 1.27 1.27))))
      )
      (pin bidirectional line (at 1.27 6.35 270) (length 2.54)
        (name "4" (effects (font (size 1.27 1.27))))
        (number "6" (effects (font (size 1.27 1.27))))
      )
      (pin bidirectional line (at 3.81 -6.35 90) (length 2.54)
        (name "7" (effects (font (size 1.27 1.27))))
        (number "7" (effects (font (size 1.27 1.27))))
      )
      (pin bidirectional line (at 3.81 6.35 270) (length 2.54)
        (name "8" (effects (font (size 1.27 1.27))))
        (number "8" (effects (font (size 1.27 1.27))))
      )
    )
    (symbol "Fuse switch disconnector_2_1"
      (rectangle (start -5.08 6.35) (end 5.08 -6.35)
        (stroke (width 0.001) (type dot) (color 255 255 255 1))
        (fill (type background))
      )
      (circle (center -2.54 -6.35) (radius 0.3458)
        (stroke (width 0.2) (type default) (color 0 0 0 1))
        (fill (type none))
      )
      (circle (center -2.54 2.286) (radius 0.3592)
        (stroke (width 0.2) (type default) (color 0 0 0 1))
        (fill (type color) (color 255 255 255 1))
      )
      (circle (center -2.54 6.35) (radius 0.3458)
        (stroke (width 0.2) (type default) (color 0 0 0 1))
        (fill (type none))
      )
      (circle (center 0 -6.35) (radius 0.3458)
        (stroke (width 0.2) (type default) (color 0 0 0 1))
        (fill (type none))
      )
      (polyline
        (pts
          (xy -2.921 2.794)
          (xy -2.159 2.794)
        )
        (stroke (width 0.2) (type default) (color 0 0 0 1))
        (fill (type color) (color 255 255 255 1))
      )
      (polyline
        (pts
          (xy -2.54 6.35)
          (xy -2.54 2.794)
        )
        (stroke (width 0.2) (type default) (color 0 0 0 1))
        (fill (type none))
      )
      (polyline
        (pts
          (xy -0.381 2.794)
          (xy 0.381 2.794)
        )
        (stroke (width 0.2) (type default) (color 0 0 0 1))
        (fill (type color) (color 255 255 255 1))
      )
      (polyline
        (pts
          (xy 0 6.35)
          (xy 0 2.794)
        )
        (stroke (width 0.2) (type default) (color 0 0 0 1))
        (fill (type none))
      )
      (polyline
        (pts
          (xy 2.159 2.794)
          (xy 2.921 2.794)
        )
        (stroke (width 0.2) (type default) (color 0 0 0 1))
        (fill (type color) (color 255 255 255 1))
      )
      (polyline
        (pts
          (xy 2.54 6.35)
          (xy 2.54 2.794)
        )
        (stroke (width 0.2) (type default) (color 0 0 0 1))
        (fill (type none))
      )
      (polyline
        (pts
          (xy -2.54 -6.35)
          (xy -2.54 -2.54)
          (xy -3.81 2.54)
        )
        (stroke (width 0.2) (type default) (color 0 0 0 1))
        (fill (type none))
      )
      (polyline
        (pts
          (xy -2.54 -3.81)
          (xy -2.54 -6.35)
          (xy -2.54 -6.096)
        )
        (stroke (width 0.5) (type default) (color 0 0 0 1))
        (fill (type none))
      )
      (polyline
        (pts
          (xy -2.54 6.35)
          (xy -2.54 3.81)
          (xy -2.54 4.064)
        )
        (stroke (width 0.5) (type default) (color 0 0 0 1))
        (fill (type none))
      )
      (polyline
        (pts
          (xy 0 -6.35)
          (xy 0 -2.54)
          (xy -1.27 2.54)
        )
        (stroke (width 0.2) (type default) (color 0 0 0 1))
        (fill (type none))
      )
      (polyline
        (pts
          (xy 0 -3.81)
          (xy 0 -6.35)
          (xy 0 -6.096)
        )
        (stroke (width 0.5) (type default) (color 0 0 0 1))
        (fill (type none))
      )
      (polyline
        (pts
          (xy 0 6.35)
          (xy 0 3.81)
          (xy 0 4.064)
        )
        (stroke (width 0.5) (type default) (color 0 0 0 1))
        (fill (type none))
      )
      (polyline
        (pts
          (xy 2.54 -6.35)
          (xy 2.54 -2.54)
          (xy 1.27 2.54)
        )
        (stroke (width 0.2) (type default) (color 0 0 0 1))
        (fill (type none))
      )
      (polyline
        (pts
          (xy 2.54 -3.81)
          (xy 2.54 -6.35)
          (xy 2.54 -6.096)
        )
        (stroke (width 0.5) (type default) (color 0 0 0 1))
        (fill (type none))
      )
      (polyline
        (pts
          (xy 2.54 6.35)
          (xy 2.54 3.81)
          (xy 2.54 4.064)
        )
        (stroke (width 0.5) (type default) (color 0 0 0 1))
        (fill (type none))
      )
      (polyline
        (pts
          (xy -2.286 -1.27)
          (xy -2.921 1.27)
          (xy -3.937 1.016)
          (xy -3.302 -1.524)
          (xy -2.286 -1.27)
        )
        (stroke (width 0.2) (type default) (color 0 0 0 1))
        (fill (type color) (color 255 255 255 1))
      )
      (polyline
        (pts
          (xy 0.254 -1.27)
          (xy -0.381 1.27)
          (xy -1.397 1.016)
          (xy -0.762 -1.524)
          (xy 0.254 -1.27)
        )
        (stroke (width 0.2) (type default) (color 0 0 0 1))
        (fill (type color) (color 255 255 255 1))
      )
      (polyline
        (pts
          (xy 2.794 -1.27)
          (xy 2.159 1.27)
          (xy 1.143 1.016)
          (xy 1.778 -1.524)
          (xy 2.794 -1.27)
        )
        (stroke (width 0.2) (type default) (color 0 0 0 1))
        (fill (type color) (color 255 255 255 1))
      )
      (circle (center 0 2.286) (radius 0.3592)
        (stroke (width 0.2) (type default) (color 0 0 0 1))
        (fill (type color) (color 255 255 255 1))
      )
      (circle (center 0 6.35) (radius 0.3458)
        (stroke (width 0.2) (type default) (color 0 0 0 1))
        (fill (type none))
      )
      (circle (center 2.54 -6.35) (radius 0.3458)
        (stroke (width 0.2) (type default) (color 0 0 0 1))
        (fill (type none))
      )
      (circle (center 2.54 2.286) (radius 0.3592)
        (stroke (width 0.2) (type default) (color 0 0 0 1))
        (fill (type color) (color 255 255 255 1))
      )
      (circle (center 2.54 6.35) (radius 0.3458)
        (stroke (width 0.2) (type default) (color 0 0 0 1))
        (fill (type none))
      )
      (pin bidirectional line (at -2.54 -6.35 90) (length 2.54)
        (name "1" (effects (font (size 1.27 1.27))))
        (number "1" (effects (font (size 1.27 1.27))))
      )
      (pin bidirectional line (at -2.54 6.35 270) (length 2.54)
        (name "2" (effects (font (size 1.27 1.27))))
        (number "2" (effects (font (size 1.27 1.27))))
      )
      (pin bidirectional line (at 0 -6.35 90) (length 2.54)
        (name "1" (effects (font (size 1.27 1.27))))
        (number "3" (effects (font (size 1.27 1.27))))
      )
      (pin bidirectional line (at 0 6.35 270) (length 2.54)
        (name "2" (effects (font (size 1.27 1.27))))
        (number "4" (effects (font (size 1.27 1.27))))
      )
      (pin bidirectional line (at 2.54 -6.35 90) (length 2.54)
        (name "5" (effects (font (size 1.27 1.27))))
        (number "5" (effects (font (size 1.27 1.27))))
      )
      (pin bidirectional line (at 2.54 6.35 270) (length 2.54)
        (name "6" (effects (font (size 1.27 1.27))))
        (number "6" (effects (font (size 1.27 1.27))))
      )
    )
    (symbol "Fuse switch disconnector_3_1"
      (rectangle (start -3.81 6.35) (end 3.81 -6.35)
        (stroke (width 0.001) (type dot) (color 255 255 255 1))
        (fill (type background))
      )
      (circle (center -1.27 -6.35) (radius 0.3458)
        (stroke (width 0.2) (type default) (color 0 0 0 1))
        (fill (type none))
      )
      (circle (center -1.27 2.286) (radius 0.3592)
        (stroke (width 0.2) (type default) (color 0 0 0 1))
        (fill (type color) (color 255 255 255 1))
      )
      (circle (center -1.27 6.35) (radius 0.3458)
        (stroke (width 0.2) (type default) (color 0 0 0 1))
        (fill (type none))
      )
      (polyline
        (pts
          (xy -1.651 2.794)
          (xy -0.889 2.794)
        )
        (stroke (width 0.2) (type default) (color 0 0 0 1))
        (fill (type color) (color 255 255 255 1))
      )
      (polyline
        (pts
          (xy -1.27 6.35)
          (xy -1.27 2.794)
        )
        (stroke (width 0.2) (type default) (color 0 0 0 1))
        (fill (type none))
      )
      (polyline
        (pts
          (xy 0.889 2.794)
          (xy 1.651 2.794)
        )
        (stroke (width 0.2) (type default) (color 0 0 0 1))
        (fill (type color) (color 255 255 255 1))
      )
      (polyline
        (pts
          (xy 1.27 6.35)
          (xy 1.27 2.794)
        )
        (stroke (width 0.2) (type default) (color 0 0 0 1))
        (fill (type none))
      )
      (polyline
        (pts
          (xy -1.27 -6.35)
          (xy -1.27 -2.54)
          (xy -2.54 2.54)
        )
        (stroke (width 0.2) (type default) (color 0 0 0 1))
        (fill (type none))
      )
      (polyline
        (pts
          (xy -1.27 -3.81)
          (xy -1.27 -6.35)
          (xy -1.27 -6.096)
        )
        (stroke (width 0.5) (type default) (color 0 0 0 1))
        (fill (type none))
      )
      (polyline
        (pts
          (xy -1.27 6.35)
          (xy -1.27 3.81)
          (xy -1.27 4.064)
        )
        (stroke (width 0.5) (type default) (color 0 0 0 1))
        (fill (type none))
      )
      (polyline
        (pts
          (xy 1.27 -6.35)
          (xy 1.27 -2.54)
          (xy 0 2.54)
        )
        (stroke (width 0.2) (type default) (color 0 0 0 1))
        (fill (type none))
      )
      (polyline
        (pts
          (xy 1.27 -3.81)
          (xy 1.27 -6.35)
          (xy 1.27 -6.096)
        )
        (stroke (width 0.5) (type default) (color 0 0 0 1))
        (fill (type none))
      )
      (polyline
        (pts
          (xy 1.27 6.35)
          (xy 1.27 3.81)
          (xy 1.27 4.064)
        )
        (stroke (width 0.5) (type default) (color 0 0 0 1))
        (fill (type none))
      )
      (polyline
        (pts
          (xy -1.016 -1.27)
          (xy -1.651 1.27)
          (xy -2.667 1.016)
          (xy -2.032 -1.524)
          (xy -1.016 -1.27)
        )
        (stroke (width 0.2) (type default) (color 0 0 0 1))
        (fill (type color) (color 255 255 255 1))
      )
      (polyline
        (pts
          (xy 1.524 -1.27)
          (xy 0.889 1.27)
          (xy -0.127 1.016)
          (xy 0.508 -1.524)
          (xy 1.524 -1.27)
        )
        (stroke (width 0.2) (type default) (color 0 0 0 1))
        (fill (type color) (color 255 255 255 1))
      )
      (circle (center 1.27 -6.35) (radius 0.3458)
        (stroke (width 0.2) (type default) (color 0 0 0 1))
        (fill (type none))
      )
      (circle (center 1.27 2.286) (radius 0.3592)
        (stroke (width 0.2) (type default) (color 0 0 0 1))
        (fill (type color) (color 255 255 255 1))
      )
      (circle (center 1.27 6.35) (radius 0.3458)
        (stroke (width 0.2) (type default) (color 0 0 0 1))
        (fill (type none))
      )
      (pin bidirectional line (at -1.27 -6.35 90) (length 2.54)
        (name "1" (effects (font (size 1.27 1.27))))
        (number "1" (effects (font (size 1.27 1.27))))
      )
      (pin bidirectional line (at -1.27 6.35 270) (length 2.54)
        (name "2" (effects (font (size 1.27 1.27))))
        (number "2" (effects (font (size 1.27 1.27))))
      )
      (pin bidirectional line (at 1.27 -6.35 90) (length 2.54)
        (name "3" (effects (font (size 1.27 1.27))))
        (number "3" (effects (font (size 1.27 1.27))))
      )
      (pin bidirectional line (at 1.27 6.35 270) (length 2.54)
        (name "4" (effects (font (size 1.27 1.27))))
        (number "4" (effects (font (size 1.27 1.27))))
      )
    )
    (symbol "Fuse switch disconnector_4_1"
      (rectangle (start -2.54 6.35) (end 2.54 -6.35)
        (stroke (width 0.001) (type dot) (color 255 255 255 1))
        (fill (type background))
      )
      (circle (center 0 -6.35) (radius 0.3458)
        (stroke (width 0.2) (type default) (color 0 0 0 1))
        (fill (type none))
      )
      (polyline
        (pts
          (xy -0.381 2.794)
          (xy 0.381 2.794)
        )
        (stroke (width 0.2) (type default) (color 0 0 0 1))
        (fill (type color) (color 255 255 255 1))
      )
      (polyline
        (pts
          (xy 0 6.35)
          (xy 0 2.794)
        )
        (stroke (width 0.2) (type default) (color 0 0 0 1))
        (fill (type none))
      )
      (polyline
        (pts
          (xy 0 -6.35)
          (xy 0 -2.54)
          (xy -1.27 2.54)
        )
        (stroke (width 0.2) (type default) (color 0 0 0 1))
        (fill (type none))
      )
      (polyline
        (pts
          (xy 0 -3.81)
          (xy 0 -6.35)
          (xy 0 -6.096)
        )
        (stroke (width 0.5) (type default) (color 0 0 0 1))
        (fill (type none))
      )
      (polyline
        (pts
          (xy 0 6.35)
          (xy 0 3.81)
          (xy 0 4.064)
        )
        (stroke (width 0.5) (type default) (color 0 0 0 1))
        (fill (type none))
      )
      (polyline
        (pts
          (xy 0.254 -1.27)
          (xy -0.381 1.27)
          (xy -1.397 1.016)
          (xy -0.762 -1.524)
          (xy 0.254 -1.27)
        )
        (stroke (width 0.2) (type default) (color 0 0 0 1))
        (fill (type color) (color 255 255 255 1))
      )
      (circle (center 0 2.286) (radius 0.3592)
        (stroke (width 0.2) (type default) (color 0 0 0 1))
        (fill (type color) (color 255 255 255 1))
      )
      (circle (center 0 6.35) (radius 0.3458)
        (stroke (width 0.2) (type default) (color 0 0 0 1))
        (fill (type none))
      )
      (pin bidirectional line (at 0 -6.35 90) (length 2.54)
        (name "1" (effects (font (size 1.27 1.27))))
        (number "1" (effects (font (size 1.27 1.27))))
      )
      (pin bidirectional line (at 0 6.35 270) (length 2.54)
        (name "2" (effects (font (size 1.27 1.27))))
        (number "2" (effects (font (size 1.27 1.27))))
      )
    )
  )
)
