(kicad_symbol_lib (version 20220914) (generator kicad_symbol_editor)
  (symbol "11-12-05" (pin_numbers hide) (pin_names (offset 0) hide) (in_bom no) (on_board no)
    (property "Reference" "#" (at 0.0254 -7.2644 0)
      (effects (font (size 1.27 1.27)) hide)
    )
    (property "Value" "Boîte de connexions, Boîte de dérivation" (at 0.0254 4.4196 0)
      (effects (font (size 1.27 1.27)) hide)
    )
    (property "Footprint" "" (at 0.0254 -9.5504 0)
      (effects (font (size 1.27 1.27)) hide)
    )
    (property "Datasheet" "" (at 0.0254 -9.5504 0)
      (effects (font (size 1.27 1.27)) hide)
    )
    (property "Sim.Enable" "0" (at 0.0254 -7.5184 0)
      (effects (font (size 1.27 1.27)) hide)
    )
    (property "Nr." "11-12-05" (at 0.0254 -5.1054 0)
      (effects (font (size 1.27 1.27) (color 0 0 0 1)))
    )
    (property "de" "Anschlußdose, Verbindungsdose" (at 0.0254 4.4196 0)
      (effects (font (size 1.27 1.27)) hide)
    )
    (property "Ausgabe" "${COMMENT2}${REFERENCE}.${Zeile}${Strompfad}" (at 0.6604 6.3246 0)
      (effects (font (size 1.27 1.27)) hide)
    )
    (property "Zeile" "" (at 0 0 0)
      (effects (font (size 1.27 1.27)) hide)
    )
    (property "Strompfad" "" (at 0 0 0)
      (effects (font (size 1.27 1.27)) hide)
    )
    (property "ki_keywords" "Anschlußdose, Verbindungsdose;11-12-05;Boîte de connexions, Boîte de dérivation" (at 0 0 0)
      (effects (font (size 1.27 1.27)) hide)
    )
    (property "ki_description" "Canalisations" (at 0 0 0)
      (effects (font (size 1.27 1.27)) hide)
    )
    (symbol "11-12-05_1_1"
      (polyline
        (pts
          (xy -0.2286 1.0922)
          (xy -0.127 0.254)
          (xy -0.0254 0.2794)
          (xy 0.0508 0.2794)
          (xy 0.1778 0.2286)
          (xy 0.2286 0.1778)
          (xy 0.254 0.1016)
          (xy 0.2794 0.0508)
          (xy 0.2794 -0.0762)
          (xy 0.254 -0.1524)
          (xy 0.2032 -0.2032)
          (xy 0.127 -0.254)
          (xy 0.0254 -0.2794)
          (xy -0.1016 -0.2794)
          (xy -0.1778 -1.1176)
          (xy 0.0254 -1.1176)
          (xy 0.1778 -1.1176)
          (xy 0.3341 -1.0731)
          (xy 0.4511 -1.0292)
          (xy 0.5572 -0.9744)
          (xy 0.6858 -0.889)
          (xy 0.8382 -0.762)
          (xy 0.9398 -0.6096)
          (xy 1.0414 -0.4318)
          (xy 1.0922 -0.2794)
          (xy 1.1176 -0.0508)
          (xy 1.1176 0.1016)
          (xy 1.0922 0.254)
          (xy 1.0414 0.4318)
          (xy 0.9398 0.6096)
          (xy 0.8382 0.7366)
          (xy 0.6858 0.889)
          (xy 0.5588 0.9906)
          (xy 0.381 1.0668)
          (xy 0.2286 1.0922)
          (xy 0.127 1.1176)
          (xy -0.0254 1.1176)
          (xy -0.1778 1.1176)
          (xy -0.254 1.0922)
        )
        (stroke (width 0.0001) (type default) (color 255 255 255 1))
        (fill (type color) (color 255 255 255 1))
      )
      (polyline
        (pts
          (xy 0.2286 1.0922)
          (xy 0.127 0.254)
          (xy 0.0254 0.2794)
          (xy -0.0508 0.2794)
          (xy -0.1778 0.2286)
          (xy -0.2286 0.1778)
          (xy -0.254 0.1016)
          (xy -0.2794 0.0508)
          (xy -0.2794 -0.0762)
          (xy -0.254 -0.1524)
          (xy -0.2032 -0.2032)
          (xy -0.127 -0.254)
          (xy -0.0254 -0.2794)
          (xy 0.1016 -0.2794)
          (xy 0.1778 -1.1176)
          (xy -0.0254 -1.1176)
          (xy -0.1778 -1.1176)
          (xy -0.3341 -1.0731)
          (xy -0.4511 -1.0292)
          (xy -0.5572 -0.9744)
          (xy -0.6858 -0.889)
          (xy -0.8382 -0.762)
          (xy -0.9398 -0.6096)
          (xy -1.0414 -0.4318)
          (xy -1.0922 -0.2794)
          (xy -1.1176 -0.0508)
          (xy -1.1176 0.1016)
          (xy -1.0922 0.254)
          (xy -1.0414 0.4318)
          (xy -0.9398 0.6096)
          (xy -0.8382 0.7366)
          (xy -0.6858 0.889)
          (xy -0.5588 0.9906)
          (xy -0.3556 1.0668)
          (xy -0.2286 1.0922)
          (xy -0.127 1.1176)
          (xy 0.0254 1.1176)
          (xy 0.1778 1.1176)
          (xy 0.254 1.0922)
        )
        (stroke (width 0.0001) (type default) (color 255 255 255 1))
        (fill (type color) (color 255 255 255 1))
      )
      (circle (center 0 0) (radius 0.1606)
        (stroke (width 0) (type default) (color 0 0 0 1))
        (fill (type color) (color 0 0 0 1))
      )
      (circle (center 0 0) (radius 1.2654)
        (stroke (width 0.2) (type default) (color 0 0 0 1))
        (fill (type none))
      )
    )
  )
)
