(kicad_symbol_lib (version 20220914) (generator kicad_symbol_editor)
  (symbol "11-12-07" (pin_numbers hide) (pin_names (offset 0) hide) (in_bom no) (on_board no)
    (property "Reference" "#" (at 0.0254 -7.2644 0)
      (effects (font (size 1.27 1.27)) hide)
    )
    (property "Value" "Coffret de répartition" (at 0.0254 4.4196 0)
      (effects (font (size 1.27 1.27)) hide)
    )
    (property "Footprint" "" (at 0.0254 -9.5504 0)
      (effects (font (size 1.27 1.27)) hide)
    )
    (property "Datasheet" "" (at 0.0254 -9.5504 0)
      (effects (font (size 1.27 1.27)) hide)
    )
    (property "Sim.Enable" "0" (at 0.0254 -7.5184 0)
      (effects (font (size 1.27 1.27)) hide)
    )
    (property "Nr." "11-12-07" (at 0.0254 -5.1054 0)
      (effects (font (size 1.27 1.27) (color 0 0 0 1)))
    )
    (property "de" "Verteiler" (at 0.0254 4.4196 0)
      (effects (font (size 1.27 1.27)) hide)
    )
    (property "Ausgabe" "${COMMENT2}${REFERENCE}.${Zeile}${Strompfad}" (at 0.6604 6.3246 0)
      (effects (font (size 1.27 1.27)) hide)
    )
    (property "Zeile" "" (at 0 0 0)
      (effects (font (size 1.27 1.27)) hide)
    )
    (property "Strompfad" "" (at 0 0 0)
      (effects (font (size 1.27 1.27)) hide)
    )
    (property "ki_keywords" "Verteiler;11-12-07;Coffret de répartition" (at 0 0 0)
      (effects (font (size 1.27 1.27)) hide)
    )
    (property "ki_description" "Canalisations" (at 0 0 0)
      (effects (font (size 1.27 1.27)) hide)
    )
    (symbol "11-12-07_1_1"
      (rectangle (start -2.54 1.016) (end 2.54 -1.016)
        (stroke (width 0.2) (type default) (color 0 0 0 1))
        (fill (type color) (color 255 255 255 1))
      )
      (polyline
        (pts
          (xy -2.032 1.016)
          (xy -2.032 2.54)
        )
        (stroke (width 0.2) (type default) (color 0 0 0 1))
        (fill (type none))
      )
      (polyline
        (pts
          (xy -0.762 1.016)
          (xy -0.762 2.54)
        )
        (stroke (width 0.2) (type default) (color 0 0 0 1))
        (fill (type none))
      )
      (polyline
        (pts
          (xy 0 -2.54)
          (xy 0 -1.016)
        )
        (stroke (width 0.2) (type default) (color 0 0 0 1))
        (fill (type none))
      )
      (polyline
        (pts
          (xy 0.762 1.016)
          (xy 0.762 2.54)
        )
        (stroke (width 0.2) (type default) (color 0 0 0 1))
        (fill (type none))
      )
      (polyline
        (pts
          (xy 2.032 1.016)
          (xy 2.032 2.54)
        )
        (stroke (width 0.2) (type default) (color 0 0 0 1))
        (fill (type none))
      )
    )
  )
)
