(kicad_symbol_lib (version 20220914) (generator kicad_symbol_editor)
  (symbol "11-18-01" (pin_numbers hide) (pin_names (offset 0) hide) (in_bom no) (on_board no)
    (property "Reference" "#" (at 0 -7.239 0)
      (effects (font (size 1.27 1.27)) hide)
    )
    (property "Value" "Feu aéronautique au sol, en hauteur" (at 0 4.445 0)
      (effects (font (size 1.27 1.27)) hide)
    )
    (property "Footprint" "" (at 0 -9.525 0)
      (effects (font (size 1.27 1.27)) hide)
    )
    (property "Datasheet" "" (at 0 -9.525 0)
      (effects (font (size 1.27 1.27)) hide)
    )
    (property "Sim.Enable" "0" (at 0 -7.493 0)
      (effects (font (size 1.27 1.27)) hide)
    )
    (property "Nr." "11-18-01" (at 0 -5.08 0)
      (effects (font (size 1.27 1.27) (color 0 0 0 1)))
    )
    (property "de" "Flugplatzfeuer, Überflur, allgemein" (at 0 4.445 0)
      (effects (font (size 1.27 1.27)) hide)
    )
    (property "Ausgabe" "${COMMENT2}${REFERENCE}.${Zeile}${Strompfad}" (at 0 0 0)
      (effects (font (size 1.27 1.27)) hide)
    )
    (property "Zeile" "" (at 0 0 0)
      (effects (font (size 1.27 1.27)) hide)
    )
    (property "Strompfad" "" (at 0 0 0)
      (effects (font (size 1.27 1.27)) hide)
    )
    (property "ki_keywords" "Flugplatzfeuer, Überflur, allgemein;11-18-01;Feu aéronautique au sol, en hauteur" (at 0 0 0)
      (effects (font (size 1.27 1.27)) hide)
    )
    (property "ki_description" "Feu aéronautique au sol, en hauteur" (at 0 0 0)
      (effects (font (size 1.27 1.27)) hide)
    )
    (symbol "11-18-01_1_1"
      (rectangle (start -3.175 3.175) (end 3.175 -3.175)
        (stroke (width 0.2) (type default) (color 0 0 0 1))
        (fill (type color) (color 255 255 255 1))
      )
    )
  )
)
