(kicad_symbol_lib (version 20220914) (generator kicad_symbol_editor)
  (symbol "11-18-22" (pin_numbers hide) (pin_names (offset 0) hide) (in_bom no) (on_board no)
    (property "Reference" "#" (at 0 -7.239 0)
      (effects (font (size 1.27 1.27)) hide)
    )
    (property "Value" "Panneau de guidage pour le roulage: \"RAMP\"" (at 0 4.445 0)
      (effects (font (size 1.27 1.27)) hide)
    )
    (property "Footprint" "" (at 0 -9.525 0)
      (effects (font (size 1.27 1.27)) hide)
    )
    (property "Datasheet" "" (at 0 -9.525 0)
      (effects (font (size 1.27 1.27)) hide)
    )
    (property "Sim.Enable" "0" (at 0 -7.493 0)
      (effects (font (size 1.27 1.27)) hide)
    )
    (property "Nr." "11-18-22" (at 0 -5.08 0)
      (effects (font (size 1.27 1.27) (color 0 0 0 1)))
    )
    (property "de" "Verkehrszeichen, Wegweiser, RAMP" (at 0 4.445 0)
      (effects (font (size 1.27 1.27)) hide)
    )
    (property "Pin1" "R" (at -5.715 0 0)
      (effects (font (size 1.6 1.6) bold (color 0 0 0 1)))
    )
    (property "Pin2" "A" (at -1.905 0 0)
      (effects (font (size 1.6 1.6) bold (color 0 0 0 1)))
    )
    (property "Pin3" "M" (at 1.905 0 0)
      (effects (font (size 1.6 1.6) bold (color 0 0 0 1)))
    )
    (property "Pin4" "P" (at 5.715 0 0)
      (effects (font (size 1.6 1.6) bold (color 0 0 0 1)))
    )
    (property "Ausgabe" "${COMMENT2}${REFERENCE}.${Zeile}${Strompfad}" (at 0.635 6.35 0)
      (effects (font (size 1.27 1.27)) hide)
    )
    (property "Zeile" "" (at 0 0 0)
      (effects (font (size 1.27 1.27)) hide)
    )
    (property "Strompfad" "" (at 0 0 0)
      (effects (font (size 1.27 1.27)) hide)
    )
    (property "ki_keywords" "Verkehrszeichen, Wegweiser, RAMP;11-18-22;Panneau de guidage pour le roulage: \"RAMP\"" (at 0 0 0)
      (effects (font (size 1.27 1.27)) hide)
    )
    (property "ki_description" "Feu aéronautique au sol, en hauteur" (at 0 0 0)
      (effects (font (size 1.27 1.27)) hide)
    )
    (symbol "11-18-22_1_1"
      (rectangle (start -7.62 1.905) (end -3.81 -1.905)
        (stroke (width 0.2) (type default) (color 0 0 0 1))
        (fill (type color) (color 255 255 255 1))
      )
      (rectangle (start -3.81 1.905) (end 0 -1.905)
        (stroke (width 0.2) (type default) (color 0 0 0 1))
        (fill (type color) (color 255 255 255 1))
      )
      (rectangle (start 0 1.905) (end 3.81 -1.905)
        (stroke (width 0.2) (type default) (color 0 0 0 1))
        (fill (type color) (color 255 255 255 1))
      )
      (rectangle (start 3.81 1.905) (end 7.62 -1.905)
        (stroke (width 0.2) (type default) (color 0 0 0 1))
        (fill (type color) (color 255 255 255 1))
      )
    )
  )
)
