(kicad_symbol_lib (version 20220914) (generator kicad_symbol_editor)
  (symbol "11-18-06" (pin_numbers hide) (pin_names (offset 0) hide) (in_bom no) (on_board no)
    (property "Reference" "#" (at 0 -7.239 0)
      (effects (font (size 1.27 1.27)) hide)
    )
    (property "Value" "Feu aéronautique au sol, faisceau blanc/blanc et bidirectionnel (en surface)" (at 0 4.445 0)
      (effects (font (size 1.27 1.27)) hide)
    )
    (property "Footprint" "unidirectionnel (en hauteur)" (at 0 -9.525 0)
      (effects (font (size 1.27 1.27)) hide)
    )
    (property "Datasheet" "" (at 0 -9.525 0)
      (effects (font (size 1.27 1.27)) hide)
    )
    (property "Sim.Enable" "0" (at 0 -7.493 0)
      (effects (font (size 1.27 1.27)) hide)
    )
    (property "Nr." "11-18-06" (at 0 -5.08 0)
      (effects (font (size 1.27 1.27) (color 0 0 0 1)))
    )
    (property "de" "Flugplatzfeuer,weiss/weiss, zweiseitig strahlend" (at 0 4.445 0)
      (effects (font (size 1.27 1.27)) hide)
    )
    (property "Ausgabe" "${COMMENT2}${REFERENCE}.${Zeile}${Strompfad}" (at 0 0 0)
      (effects (font (size 1.27 1.27)) hide)
    )
    (property "Zeile" "" (at 0 0 0)
      (effects (font (size 1.27 1.27)) hide)
    )
    (property "Strompfad" "" (at 0 0 0)
      (effects (font (size 1.27 1.27)) hide)
    )
    (property "ki_keywords" "Flugplatzfeuer,weiss/weiss, zweiseitig strahlend; 11-18-06; Feu aéronautique au sol, faisceau blanc/blanc et bidirectionnel (en surface)" (at 0 0 0)
      (effects (font (size 1.27 1.27)) hide)
    )
    (property "ki_description" "Feux et indicateurs de navigation pour aéroports" (at 0 0 0)
      (effects (font (size 1.27 1.27)) hide)
    )
    (symbol "11-18-06_1_1"
      (circle (center 0 0) (radius 3.2158)
        (stroke (width 0.2) (type default) (color 0 0 0 1))
        (fill (type none))
      )
      (polyline
        (pts
          (xy 0 3.175)
          (xy 0 -3.175)
        )
        (stroke (width 0.2) (type default) (color 0 0 0 1))
        (fill (type none))
      )
      (polyline
        (pts
          (xy -0.127 3.0988)
          (xy -0.508 3.048)
          (xy -0.8636 2.9718)
          (xy -1.1684 2.8448)
          (xy -1.5494 2.667)
          (xy -1.905 2.413)
          (xy -2.1082 2.2352)
          (xy -2.3622 1.9558)
          (xy -2.54 1.7272)
          (xy -2.7178 1.4478)
          (xy -2.8448 1.1938)
          (xy -2.9718 0.7874)
          (xy -3.048 0.508)
          (xy -3.0734 0.1524)
          (xy -3.0734 -0.1778)
          (xy -3.0226 -0.4826)
          (xy -2.9718 -0.8128)
          (xy -2.8702 -1.016)
          (xy -2.7686 -1.2954)
          (xy -2.667 -1.4986)
          (xy -2.54 -1.7018)
          (xy -2.3368 -1.9304)
          (xy -2.1082 -2.1844)
          (xy -1.8034 -2.4384)
          (xy -1.4732 -2.667)
          (xy -1.0414 -2.8702)
          (xy -0.7366 -2.9464)
          (xy -0.3556 -3.048)
          (xy -0.127 -3.0988)
          (xy -0.1524 -3.0988)
        )
        (stroke (width 0.0001) (type default) (color 255 255 255 1))
        (fill (type color) (color 255 255 255 1))
      )
      (polyline
        (pts
          (xy 0.127 3.0734)
          (xy 0.508 3.0226)
          (xy 0.8636 2.9464)
          (xy 1.1684 2.8194)
          (xy 1.5494 2.6416)
          (xy 1.905 2.3876)
          (xy 2.1082 2.2098)
          (xy 2.3622 1.9304)
          (xy 2.54 1.7018)
          (xy 2.7178 1.4224)
          (xy 2.8448 1.1684)
          (xy 2.9718 0.762)
          (xy 3.048 0.4826)
          (xy 3.0734 0.127)
          (xy 3.0734 -0.2032)
          (xy 3.0226 -0.508)
          (xy 2.9718 -0.8382)
          (xy 2.8702 -1.0414)
          (xy 2.7686 -1.3208)
          (xy 2.667 -1.524)
          (xy 2.54 -1.7272)
          (xy 2.3368 -1.9558)
          (xy 2.1082 -2.2098)
          (xy 1.8034 -2.4638)
          (xy 1.4732 -2.6924)
          (xy 1.0414 -2.8956)
          (xy 0.7366 -2.9718)
          (xy 0.3556 -3.0734)
          (xy 0.127 -3.1242)
          (xy 0.1524 -3.1242)
        )
        (stroke (width 0.0001) (type default) (color 255 255 255 1))
        (fill (type color) (color 255 255 255 1))
      )
    )
  )
)
