(kicad_symbol_lib (version 20220914) (generator kicad_symbol_editor)
  (symbol "11-18-18" (pin_numbers hide) (pin_names (offset 0) hide) (in_bom no) (on_board no)
    (property "Reference" "#" (at 0 -7.2644 0)
      (effects (font (size 1.27 1.27)) hide)
    )
    (property "Value" "Feu d'obstacle, Feu de danger, faisceau omnidirectionnel, à éclats, rouge" (at -1.5748 4.445 0)
      (effects (font (size 1.27 1.27)) hide)
    )
    (property "Footprint" "" (at -1.5748 -9.525 0)
      (effects (font (size 1.27 1.27)) hide)
    )
    (property "Datasheet" "" (at -1.5748 -9.525 0)
      (effects (font (size 1.27 1.27)) hide)
    )
    (property "Sim.Enable" "0" (at 0 -7.5184 0)
      (effects (font (size 1.27 1.27)) hide)
    )
    (property "Nr." "11-18-18" (at 0 -5.1054 0)
      (effects (font (size 1.27 1.27) (color 0 0 0 1)))
    )
    (property "de" "Hindernisfeuer,Gefahrenfeuer, rot blitzend, rund strahlend" (at -1.5748 4.445 0)
      (effects (font (size 1.27 1.27)) hide)
    )
    (property "Ausgabe" "${COMMENT2}${REFERENCE}.${Zeile}${Strompfad}" (at 0 0 0)
      (effects (font (size 1.27 1.27)) hide)
    )
    (property "Zeile" "" (at 0 0 0)
      (effects (font (size 1.27 1.27)) hide)
    )
    (property "Strompfad" "" (at 0 0 0)
      (effects (font (size 1.27 1.27)) hide)
    )
    (property "ki_keywords" "Hindernisfeuer,Gefahrenfeuer, rot blitzend, rund strahlend;11-18-18;Feu d'obstacle, Feu de danger, faisceau omnidirectionnel, à éclats, rouge" (at 0 0 0)
      (effects (font (size 1.27 1.27)) hide)
    )
    (property "ki_description" "Feu aéronautique au sol, en hauteur" (at 0 0 0)
      (effects (font (size 1.27 1.27)) hide)
    )
    (symbol "11-18-18_1_1"
      (rectangle (start -4.7498 3.175) (end 1.6002 -3.175)
        (stroke (width 0.2) (type default) (color 0 0 0 1))
        (fill (type none))
      )
      (circle (center -1.5748 0) (radius 2.4753)
        (stroke (width 0.2) (type default) (color 0 0 0 1))
        (fill (type color) (color 0 0 0 1))
      )
      (polyline
        (pts
          (xy 1.4478 0.0508)
          (xy 1.4478 0.0508)
        )
        (stroke (width 0.0001) (type default) (color 255 255 255 1))
        (fill (type color) (color 255 255 255 1))
      )
      (polyline
        (pts
          (xy 3.2004 1.8796)
          (xy 3.2258 3.0226)
          (xy 3.556 3.0226)
          (xy 3.556 1.8288)
        )
        (stroke (width 0.0001) (type default) (color 255 255 255 1))
        (fill (type color) (color 255 255 255 1))
      )
      (polyline
        (pts
          (xy 2.4384 1.8796)
          (xy 3.0734 1.8796)
          (xy 3.0734 3.1496)
          (xy 3.7084 3.1496)
          (xy 3.7084 1.8796)
          (xy 4.3434 1.8796)
        )
        (stroke (width 0.2) (type default) (color 0 0 0 1))
        (fill (type none))
      )
      (polyline
        (pts
          (xy -4.191 0.0254)
          (xy -4.1656 -0.5334)
          (xy -4.0132 -0.9144)
          (xy -3.7846 -1.3716)
          (xy -3.6068 -1.651)
          (xy -3.4036 -1.8288)
          (xy -3.2004 -2.032)
          (xy -2.8956 -2.2352)
          (xy -2.6162 -2.3876)
          (xy -2.286 -2.4892)
          (xy -1.9304 -2.5654)
          (xy -1.6256 -2.5908)
          (xy -1.4224 -2.5908)
          (xy -1.397 -2.9972)
          (xy -4.5974 -3.0226)
          (xy -4.5974 0.254)
        )
        (stroke (width 0.0001) (type default) (color 255 255 255 1))
        (fill (type color) (color 255 255 255 1))
      )
      (polyline
        (pts
          (xy -4.191 0.0254)
          (xy -4.1656 0.5842)
          (xy -4.0132 0.9652)
          (xy -3.7846 1.4224)
          (xy -3.6068 1.7018)
          (xy -3.4036 1.8796)
          (xy -3.2004 2.0828)
          (xy -2.8956 2.286)
          (xy -2.6162 2.4384)
          (xy -2.286 2.54)
          (xy -1.9304 2.6162)
          (xy -1.6256 2.6416)
          (xy -1.4224 2.6416)
          (xy -1.397 3.048)
          (xy -4.5974 3.0734)
          (xy -4.5974 -0.2032)
        )
        (stroke (width 0.0001) (type default) (color 255 255 255 1))
        (fill (type color) (color 255 255 255 1))
      )
      (polyline
        (pts
          (xy 1.0414 0)
          (xy 1.016 -0.5588)
          (xy 0.8636 -0.9398)
          (xy 0.635 -1.397)
          (xy 0.4572 -1.6764)
          (xy 0.254 -1.8542)
          (xy 0.0508 -2.0574)
          (xy -0.254 -2.2606)
          (xy -0.5334 -2.413)
          (xy -0.8636 -2.5146)
          (xy -1.2192 -2.5908)
          (xy -1.524 -2.6162)
          (xy -1.7272 -2.6162)
          (xy -1.7526 -3.0226)
          (xy 1.4478 -3.048)
          (xy 1.4478 0.2286)
        )
        (stroke (width 0.0001) (type default) (color 255 255 255 1))
        (fill (type color) (color 255 255 255 1))
      )
      (polyline
        (pts
          (xy 1.0414 0)
          (xy 1.016 0.5588)
          (xy 0.8636 0.9398)
          (xy 0.635 1.397)
          (xy 0.4572 1.6764)
          (xy 0.254 1.8542)
          (xy 0.0508 2.0574)
          (xy -0.254 2.2606)
          (xy -0.5334 2.413)
          (xy -0.8636 2.5146)
          (xy -1.2192 2.5908)
          (xy -1.524 2.6162)
          (xy -1.7272 2.6162)
          (xy -1.7526 3.0226)
          (xy 1.4478 3.048)
          (xy 1.4478 -0.2286)
        )
        (stroke (width 0.0001) (type default) (color 255 255 255 1))
        (fill (type color) (color 255 255 255 1))
      )
    )
  )
)
