(kicad_symbol_lib (version 20220914) (generator kicad_symbol_editor)
  (symbol "Protect auxiliary switch module 2p 1NC 1NO" (pin_numbers hide) (pin_names (offset 0.002) hide) (in_bom no) (on_board no)
    (property "Reference" "K" (at -8.255 0 90)
      (effects (font (size 1.27 1.27)))
    )
    (property "Value" "Protect auxiliary switch module 2p 1NC 1NO" (at 2.54 0 90)
      (effects (font (size 1.27 1.27) (color 0 0 0 1)) hide)
    )
    (property "Footprint" "" (at 16.51 -2.54 0)
      (effects (font (size 1.27 1.27)) hide)
    )
    (property "Datasheet" "" (at 16.51 -2.54 0)
      (effects (font (size 1.27 1.27)) hide)
    )
    (property "Sim.Enable" "0" (at 0 0 0)
      (effects (font (size 1.27 1.27)) hide)
    )
    (property "de" "Schütz Hilfsschalterbaustein 2p 1NC 1NO" (at 2.54 0 90)
      (effects (font (size 1.27 1.27) (color 0 0 0 1)))
    )
    (property "Pin1" "53/NO" (at -3.429 3.937 90)
      (effects (font (face "Arial Rounded MT Bold") (size 1 1) (color 194 0 0 1)))
    )
    (property "Pin2" "54/NO" (at -3.429 -3.81 90)
      (effects (font (face "Arial Rounded MT Bold") (size 1 1) (color 194 0 0 1)))
    )
    (property "Pin3" "61/NC" (at -0.889 3.81 90)
      (effects (font (face "Arial Rounded MT Bold") (size 1 1) (color 194 0 0 1)))
    )
    (property "Pin4" "62/NC" (at -0.889 -3.81 90)
      (effects (font (face "Arial Rounded MT Bold") (size 1 1) (color 194 0 0 1)))
    )
    (property "Ausgabe" "${COMMENT2}${REFERENCE}.${Zeile}${Strompfad}" (at -5.715 0 90)
      (effects (font (size 1.27 1.27)))
    )
    (property "Zeile" "" (at 1.27 0 0)
      (effects (font (size 1.27 1.27)) hide)
    )
    (property "Strompfad" "" (at 1.27 0 0)
      (effects (font (size 1.27 1.27)) hide)
    )
    (property "ki_keywords" "Schütz Hilfsschalterbaustein ;1Öffner;1Schließer" (at 0 0 0)
      (effects (font (size 1.27 1.27)) hide)
    )
    (symbol "Protect auxiliary switch module 2p 1NC 1NO_0_1"
      (rectangle (start -4.445 6.35) (end 1.27 -6.35)
        (stroke (width 0.001) (type dot) (color 255 255 255 1))
        (fill (type background))
      )
      (circle (center -2.54 -6.35) (radius 0.3458)
        (stroke (width 0.2) (type default) (color 0 0 0 1))
        (fill (type none))
      )
      (circle (center -2.54 6.35) (radius 0.3458)
        (stroke (width 0.2) (type default) (color 0 0 0 1))
        (fill (type none))
      )
      (circle (center 0 -6.35) (radius 0.3458)
        (stroke (width 0.2) (type default) (color 0 0 0 1))
        (fill (type none))
      )
      (polyline
        (pts
          (xy -3.81 0)
          (xy -3.175 0)
        )
        (stroke (width 0.2) (type solid) (color 0 0 0 1))
        (fill (type none))
      )
      (polyline
        (pts
          (xy -2.5484 -1.5358)
          (xy -3.556 1.4732)
        )
        (stroke (width 0.2) (type default) (color 0 0 0 1))
        (fill (type none))
      )
      (polyline
        (pts
          (xy -2.54 -6.35)
          (xy -2.54 -1.5748)
        )
        (stroke (width 0.2) (type solid) (color 0 0 0 1))
        (fill (type none))
      )
      (polyline
        (pts
          (xy -2.54 0)
          (xy -1.905 0)
        )
        (stroke (width 0.2) (type solid) (color 0 0 0 1))
        (fill (type none))
      )
      (polyline
        (pts
          (xy -2.54 6.35)
          (xy -2.54 1.27)
        )
        (stroke (width 0.2) (type solid) (color 0 0 0 1))
        (fill (type none))
      )
      (polyline
        (pts
          (xy -1.27 0)
          (xy -0.635 0)
        )
        (stroke (width 0.2) (type solid) (color 0 0 0 1))
        (fill (type none))
      )
      (polyline
        (pts
          (xy 0 0)
          (xy 0.635 0)
        )
        (stroke (width 0.2) (type solid) (color 0 0 0 1))
        (fill (type none))
      )
      (polyline
        (pts
          (xy 0.6003 1.1203)
          (xy 0.7019 1.5267)
        )
        (stroke (width 0.2) (type default) (color 0 0 0 1))
        (fill (type none))
      )
      (polyline
        (pts
          (xy 0 -6.35)
          (xy 0 -1.27)
          (xy 0.635 1.27)
          (xy 0 1.27)
          (xy 0 6.35)
        )
        (stroke (width 0.2) (type default) (color 0 0 0 1))
        (fill (type none))
      )
      (circle (center 0 6.35) (radius 0.3458)
        (stroke (width 0.2) (type default) (color 0 0 0 1))
        (fill (type none))
      )
    )
    (symbol "Protect auxiliary switch module 2p 1NC 1NO_1_1"
      (polyline
        (pts
          (xy -2.54 -3.81)
          (xy -2.54 -6.35)
          (xy -2.54 -6.096)
        )
        (stroke (width 0.5) (type default) (color 0 0 0 1))
        (fill (type none))
      )
      (polyline
        (pts
          (xy -2.54 6.35)
          (xy -2.54 3.81)
          (xy -2.54 4.064)
        )
        (stroke (width 0.5) (type default) (color 0 0 0 1))
        (fill (type none))
      )
      (polyline
        (pts
          (xy 0 -3.81)
          (xy 0 -6.35)
          (xy 0 -6.096)
        )
        (stroke (width 0.5) (type default) (color 0 0 0 1))
        (fill (type none))
      )
      (polyline
        (pts
          (xy 0 6.35)
          (xy 0 3.81)
          (xy 0 4.064)
        )
        (stroke (width 0.5) (type default) (color 0 0 0 1))
        (fill (type none))
      )
      (pin input line (at -2.54 6.35 270) (length 2.54)
        (name "13" (effects (font (size 1 1))))
        (number "13" (effects (font (size 1 1))))
      )
      (pin input line (at -2.54 -6.35 90) (length 2.54)
        (name "14" (effects (font (size 1 1))))
        (number "14" (effects (font (size 1 1))))
      )
      (pin input line (at 0 6.35 270) (length 2.54)
        (name "21" (effects (font (size 1 1))))
        (number "21" (effects (font (size 1 1))))
      )
      (pin input line (at 0 -6.35 90) (length 2.54)
        (name "22" (effects (font (size 1 1))))
        (number "22" (effects (font (size 1 1))))
      )
    )
  )
)
