(kicad_symbol_lib (version 20220914) (generator kicad_symbol_editor)
  (symbol "11-11-03" (pin_numbers hide) (pin_names (offset 0) hide) (in_bom no) (on_board no)
    (property "Reference" "#" (at 0.1778 -7.3152 0)
      (effects (font (size 1.27 1.27)) hide)
    )
    (property "Value" "Conducteur de protection et neutre confondus" (at 0.1778 4.3688 0)
      (effects (font (size 1.27 1.27)) hide)
    )
    (property "Footprint" "" (at 0.1778 -9.6012 0)
      (effects (font (size 1.27 1.27)) hide)
    )
    (property "Datasheet" "" (at 0.1778 -9.6012 0)
      (effects (font (size 1.27 1.27)) hide)
    )
    (property "Sim.Enable" "0" (at 0.1778 -7.5692 0)
      (effects (font (size 1.27 1.27)) hide)
    )
    (property "Nr." "11-11-03" (at 0.1778 -5.1562 0)
      (effects (font (size 1.27 1.27) (color 0 0 0 1)))
    )
    (property "de" "Neutralleiter mit Schutzfunktion (PEN)" (at 0.1778 4.3688 0)
      (effects (font (size 1.27 1.27)) hide)
    )
    (property "Ausgabe" "" (at 0.8128 6.2738 0)
      (effects (font (size 1.27 1.27)) hide)
    )
    (property "Zeile" "" (at 0.1524 -0.0508 0)
      (effects (font (size 1.27 1.27)) hide)
    )
    (property "Strompfad" "" (at 0.1524 -0.0508 0)
      (effects (font (size 1.27 1.27)) hide)
    )
    (property "ki_keywords" "Neutralleiter mit Schutzfunktion (PEN);11-11-03;Conducteur de protection et neutre confondus" (at 0 0 0)
      (effects (font (size 1.27 1.27)) hide)
    )
    (property "ki_description" "Identification de conducteurs particuliers" (at 0 0 0)
      (effects (font (size 1.27 1.27)) hide)
    )
    (symbol "11-11-03_1_1"
      (polyline
        (pts
          (xy -4.9276 -0.0508)
          (xy 5.2324 -0.0508)
        )
        (stroke (width 0.2) (type default) (color 0 0 0 1))
        (fill (type none))
      )
      (polyline
        (pts
          (xy -0.6096 -1.5748)
          (xy 0.6604 1.4732)
        )
        (stroke (width 0.2) (type default) (color 0 0 0 1))
        (fill (type none))
      )
      (polyline
        (pts
          (xy -0.1016 -0.3556)
          (xy 1.1684 2.6924)
        )
        (stroke (width 0.2) (type default) (color 0 0 0 1))
        (fill (type none))
      )
      (polyline
        (pts
          (xy 0.508 2.6924)
          (xy 1.778 2.6924)
        )
        (stroke (width 0.2) (type default) (color 0 0 0 1))
        (fill (type none))
      )
      (circle (center 0.6604 1.4732) (radius 0.3306)
        (stroke (width 0) (type default) (color 0 0 0 1))
        (fill (type color) (color 0 0 0 1))
      )
    )
  )
)
