(kicad_symbol_lib (version 20220914) (generator kicad_symbol_editor)
  (symbol "11-13-03" (pin_numbers hide) (pin_names (offset 0) hide) (in_bom no) (on_board no)
    (property "Reference" "#" (at 0 -7.239 0)
      (effects (font (size 1.27 1.27)) hide)
    )
    (property "Value" "Socle pour plusieurs prises de courant (puissance)" (at 0 4.445 0)
      (effects (font (size 1.27 1.27)) hide)
    )
    (property "Footprint" "" (at 0 -9.525 0)
      (effects (font (size 1.27 1.27)) hide)
    )
    (property "Datasheet" "" (at 0 -9.525 0)
      (effects (font (size 1.27 1.27)) hide)
    )
    (property "Sim.Enable" "0" (at 0 -7.493 0)
      (effects (font (size 1.27 1.27)) hide)
    )
    (property "Nr." "11-13-03" (at 0 -5.08 0)
      (effects (font (size 1.27 1.27) (color 0 0 0 1)))
    )
    (property "de" "Mehrfachsteckdose" (at 0 4.445 0)
      (effects (font (size 1.27 1.27)) hide)
    )
    (property "Ausgabe" "${COMMENT2}${REFERENCE}.${Zeile}${Strompfad}" (at 0.635 6.35 0)
      (effects (font (size 1.27 1.27)) hide)
    )
    (property "Zeile" "" (at 0 1.143 0)
      (effects (font (size 1.27 1.27)) hide)
    )
    (property "Strompfad" "" (at 0 1.143 0)
      (effects (font (size 1.27 1.27)) hide)
    )
    (property "ki_keywords" "Mehrfachsteckdose;11-13-03;Socle pour plusieurs prises de courant (puissance)" (at 0 0 0)
      (effects (font (size 1.27 1.27)) hide)
    )
    (property "ki_description" "Socles de prises de courant" (at 0 0 0)
      (effects (font (size 1.27 1.27)) hide)
    )
    (symbol "11-13-03_1_1"
      (polyline
        (pts
          (xy 0.0001 -0.7619)
          (xy 0 2.794)
        )
        (stroke (width 0.2) (type default) (color 0 0 0 1))
        (fill (type none))
      )
      (polyline
        (pts
          (xy 0 2.794)
          (xy -1.905 2.794)
        )
        (stroke (width 0.2) (type default) (color 0 0 0 1))
        (fill (type none))
      )
      (arc (start 0.9846 -1.8894) (mid 0.0092 -0.9203) (end -0.9841 -1.8711)
        (stroke (width 0.2) (type default) (color 0 0 0 1))
        (fill (type color) (color 255 255 255 1))
      )
      (arc (start 0.9846 -1.0004) (mid 0.0092 -0.0313) (end -0.9841 -0.9821)
        (stroke (width 0.2) (type default) (color 0 0 0 1))
        (fill (type color) (color 255 255 255 1))
      )
      (arc (start 0.9846 0.0156) (mid 0.0092 0.9847) (end -0.9841 0.0339)
        (stroke (width 0.2) (type default) (color 0 0 0 1))
        (fill (type color) (color 255 255 255 1))
      )
    )
  )
)
