(kicad_symbol_lib (version 20220914) (generator kicad_symbol_editor)
  (symbol "Three-phase motor PE N UVW" (pin_numbers hide) (pin_names (offset 0) hide) (in_bom no) (on_board no)
    (property "Reference" "M" (at -12.7 0 90)
      (effects (font (size 1.27 1.27)))
    )
    (property "Value" "Three-phase motor" (at -10.16 0 90)
      (effects (font (size 1.27 1.27)) hide)
    )
    (property "Footprint" "" (at 0 7.62 0)
      (effects (font (size 1.27 1.27)) hide)
    )
    (property "Datasheet" "" (at 0 7.62 0)
      (effects (font (size 1.27 1.27)) hide)
    )
    (property "Sim.Enable" "0" (at 0 -0.254 0)
      (effects (font (size 1.27 1.27)) hide)
    )
    (property "de" "Drehstrommotor" (at -10.16 0 90)
      (effects (font (size 1.27 1.27) (color 0 0 0 1)))
    )
    (property "Pin1" "U" (at -1.27 6.35 0)
      (effects (font (size 1 1) bold (color 0 132 132 1)))
    )
    (property "Pin2" "V" (at 1.27 6.35 0)
      (effects (font (size 1 1) bold (color 0 132 132 1)))
    )
    (property "Pin3" "W" (at 3.81 6.35 0)
      (effects (font (size 1 1) bold (color 0 132 132 1)))
    )
    (property "Pin4" "N" (at -4.064 6.35 0)
      (effects (font (size 1 1) bold (color 0 132 132 1)))
    )
    (property "Pin5" "PE" (at 6.35 6.35 0)
      (effects (font (size 1 1) bold (color 0 132 132 1)))
    )
    (property "Pin6" "U1" (at -1.27 -6.604 0)
      (effects (font (size 1 1) bold (color 0 132 132 1)))
    )
    (property "Pin7" "V1" (at 1.27 -6.604 0)
      (effects (font (size 1 1) bold (color 0 132 132 1)))
    )
    (property "Pin8" "W1" (at 4.064 -6.604 0)
      (effects (font (size 1 1) bold (color 0 132 132 1)))
    )
    (property "Ausgabe" "${COMMENT2}${REFERENCE}.${Zeile}${Strompfad}" (at -7.62 0 90)
      (effects (font (size 1.27 1.27)))
    )
    (property "Zeile" "" (at 2.54 7.62 0)
      (effects (font (size 1.27 1.27)) hide)
    )
    (property "Strompfad" "" (at 2.54 7.62 0)
      (effects (font (size 1.27 1.27)) hide)
    )
    (property "ki_keywords" "Drehstrommotor; PE; N;U;V;W" (at 0 0 0)
      (effects (font (size 1.27 1.27)) hide)
    )
    (symbol "Three-phase motor PE N UVW_0_1"
      (rectangle (start -6.35 7.62) (end 8.89 -7.62)
        (stroke (width 0.001) (type dot) (color 255 255 255 1))
        (fill (type background))
      )
      (circle (center -5.08 7.62) (radius 0.3458)
        (stroke (width 0.2) (type default) (color 0 0 0 1))
        (fill (type none))
      )
      (circle (center -2.54 -7.62) (radius 0.3458)
        (stroke (width 0.2) (type default) (color 0 0 0 1))
        (fill (type none))
      )
      (circle (center -2.54 7.62) (radius 0.3458)
        (stroke (width 0.2) (type default) (color 0 0 0 1))
        (fill (type none))
      )
      (circle (center 0 -7.62) (radius 0.3458)
        (stroke (width 0.2) (type default) (color 0 0 0 1))
        (fill (type none))
      )
      (polyline
        (pts
          (xy -5.08 3.81)
          (xy -5.08 5.08)
        )
        (stroke (width 0.3) (type default) (color 0 0 0 1))
        (fill (type none))
      )
      (polyline
        (pts
          (xy 5.08 3.81)
          (xy 5.08 5.08)
        )
        (stroke (width 0.3) (type default) (color 0 0 0 1))
        (fill (type none))
      )
      (polyline
        (pts
          (xy -5.08 5.08)
          (xy -5.08 0)
          (xy -5.08 4.318)
        )
        (stroke (width 0.2) (type default) (color 0 0 0 1))
        (fill (type none))
      )
      (polyline
        (pts
          (xy 0 -5.08)
          (xy 0 -3.81)
          (xy 0 -4.318)
        )
        (stroke (width 0.2) (type default) (color 0 0 0 1))
        (fill (type none))
      )
      (polyline
        (pts
          (xy 0 5.08)
          (xy 0 3.81)
          (xy 0 4.318)
        )
        (stroke (width 0.2) (type default) (color 0 0 0 1))
        (fill (type none))
      )
      (polyline
        (pts
          (xy 5.08 5.08)
          (xy 5.08 0)
          (xy 5.08 4.318)
        )
        (stroke (width 0.2) (type default) (color 0 0 0 1))
        (fill (type none))
      )
      (circle (center 0 0) (radius 3.7592)
        (stroke (width 0.3) (type default) (color 0 0 0 1))
        (fill (type none))
      )
      (circle (center 0 7.62) (radius 0.3458)
        (stroke (width 0.2) (type default) (color 0 0 0 1))
        (fill (type none))
      )
      (circle (center 2.54 -7.62) (radius 0.3458)
        (stroke (width 0.2) (type default) (color 0 0 0 1))
        (fill (type none))
      )
      (circle (center 2.54 7.62) (radius 0.3458)
        (stroke (width 0.2) (type default) (color 0 0 0 1))
        (fill (type none))
      )
      (circle (center 5.08 7.62) (radius 0.3458)
        (stroke (width 0.2) (type default) (color 0 0 0 1))
        (fill (type none))
      )
    )
    (symbol "Three-phase motor PE N UVW_1_1"
      (polyline
        (pts
          (xy -5.08 0)
          (xy -3.81 0)
        )
        (stroke (width 0.2) (type default) (color 0 0 0 1))
        (fill (type none))
      )
      (polyline
        (pts
          (xy 5.08 0)
          (xy 4.572 0)
        )
        (stroke (width 0.2) (type default) (color 0 0 0 1))
        (fill (type none))
      )
      (polyline
        (pts
          (xy -5.08 7.62)
          (xy -5.08 5.08)
          (xy -5.08 5.334)
        )
        (stroke (width 0.5) (type default) (color 0 0 0 1))
        (fill (type none))
      )
      (polyline
        (pts
          (xy -2.54 -5.08)
          (xy -2.54 -7.62)
          (xy -2.54 -7.366)
        )
        (stroke (width 0.5) (type default) (color 0 0 0 1))
        (fill (type none))
      )
      (polyline
        (pts
          (xy -2.54 -4.953)
          (xy -2.54 -4.191)
          (xy -2.032 -3.175)
        )
        (stroke (width 0.2) (type default) (color 0 0 0 1))
        (fill (type none))
      )
      (polyline
        (pts
          (xy -2.54 5.08)
          (xy -2.54 4.318)
          (xy -2.032 3.302)
        )
        (stroke (width 0.2) (type default) (color 0 0 0 1))
        (fill (type none))
      )
      (polyline
        (pts
          (xy -2.54 5.08)
          (xy -2.54 7.62)
          (xy -2.54 7.366)
        )
        (stroke (width 0.5) (type default) (color 0 0 0 1))
        (fill (type none))
      )
      (polyline
        (pts
          (xy 0 -7.62)
          (xy 0 -5.08)
          (xy 0 -5.334)
        )
        (stroke (width 0.5) (type default) (color 0 0 0 1))
        (fill (type none))
      )
      (polyline
        (pts
          (xy 0 7.62)
          (xy 0 5.08)
          (xy 0 5.334)
        )
        (stroke (width 0.5) (type default) (color 0 0 0 1))
        (fill (type none))
      )
      (polyline
        (pts
          (xy 2.54 -5.08)
          (xy 2.54 -7.62)
          (xy 2.54 -7.366)
        )
        (stroke (width 0.5) (type default) (color 0 0 0 1))
        (fill (type none))
      )
      (polyline
        (pts
          (xy 2.54 -5.08)
          (xy 2.54 -4.318)
          (xy 2.032 -3.302)
        )
        (stroke (width 0.2) (type default) (color 0 0 0 1))
        (fill (type none))
      )
      (polyline
        (pts
          (xy 2.54 4.953)
          (xy 2.54 4.191)
          (xy 2.032 3.175)
        )
        (stroke (width 0.2) (type default) (color 0 0 0 1))
        (fill (type none))
      )
      (polyline
        (pts
          (xy 2.54 5.08)
          (xy 2.54 7.62)
          (xy 2.54 7.366)
        )
        (stroke (width 0.5) (type default) (color 0 0 0 1))
        (fill (type none))
      )
      (polyline
        (pts
          (xy 5.08 7.62)
          (xy 5.08 5.08)
          (xy 5.08 5.334)
        )
        (stroke (width 0.5) (type default) (color 0 0 0 1))
        (fill (type none))
      )
      (circle (center 0 0) (radius 3.0819)
        (stroke (width 0) (type default) (color 0 0 0 1))
        (fill (type color) (color 255 255 255 1))
      )
      (arc (start 4.1107 -1.7854) (mid 4.4701 0.2475) (end 3.8753 2.2244)
        (stroke (width 0.4) (type default) (color 0 0 0 1))
        (fill (type none))
      )
      (text "3" (at -0.762 -1.524 0)
        (effects (font (size 1.5 1.5) bold (color 0 0 0 1)))
      )
      (text "M" (at 0 1.016 0)
        (effects (font (size 2 2) bold (color 0 0 0 1)))
      )
      (text "~" (at 1.016 -1.524 0)
        (effects (font (size 2.5 2.5) (color 0 0 0 1)))
      )
      (pin input line (at -5.08 7.62 270) (length 2.54)
        (name "1" (effects (font (size 1.27 1.27))))
        (number "1" (effects (font (size 1.27 1.27))))
      )
      (pin input line (at 0 -7.62 90) (length 2.54)
        (name "2" (effects (font (size 1.27 1.27))))
        (number "2" (effects (font (size 1.27 1.27))))
      )
      (pin input line (at 0 7.62 270) (length 2.54)
        (name "3" (effects (font (size 1.27 1.27))))
        (number "3" (effects (font (size 1.27 1.27))))
      )
      (pin input line (at 5.08 7.62 270) (length 2.54)
        (name "4" (effects (font (size 1.27 1.27))))
        (number "4" (effects (font (size 1.27 1.27))))
      )
      (pin input line (at -2.54 -7.62 90) (length 2.54)
        (name "5" (effects (font (size 1.27 1.27))))
        (number "5" (effects (font (size 1.27 1.27))))
      )
      (pin input line (at -2.54 7.62 270) (length 2.54)
        (name "6" (effects (font (size 1.27 1.27))))
        (number "6" (effects (font (size 1.27 1.27))))
      )
      (pin input line (at 2.54 -7.62 90) (length 2.54)
        (name "7" (effects (font (size 1.27 1.27))))
        (number "7" (effects (font (size 1.27 1.27))))
      )
      (pin input line (at 2.54 7.62 270) (length 2.54)
        (name "8" (effects (font (size 1.27 1.27))))
        (number "8" (effects (font (size 1.27 1.27))))
      )
    )
  )
)
