(kicad_symbol_lib (version 20220914) (generator kicad_symbol_editor)
  (symbol "Voltage generator" (pin_numbers hide) (pin_names (offset 0) hide) (in_bom no) (on_board no)
    (property "Reference" "G" (at -11.43 0 90)
      (effects (font (size 1.27 1.27)))
    )
    (property "Value" "Voltage generator" (at -8.89 0 90)
      (effects (font (size 1.27 1.27)) hide)
    )
    (property "Footprint" "" (at 0 7.62 0)
      (effects (font (size 1.27 1.27)) hide)
    )
    (property "Datasheet" "" (at 0 7.62 0)
      (effects (font (size 1.27 1.27)) hide)
    )
    (property "Sim.Enable" "0" (at 0.6604 0 90)
      (effects (font (size 1.27 1.27)) hide)
    )
    (property "de" "Spannungsgenerator" (at -8.89 0 90)
      (effects (font (size 1.27 1.27) (color 0 0 0 1)))
    )
    (property "Pin1" "1" (at -1.27 6.35 0)
      (effects (font (face "Arial Rounded MT Bold") (size 1 1) (color 0 132 132 1)))
    )
    (property "Pin2" "2" (at -1.27 -6.35 0)
      (effects (font (face "Arial Rounded MT Bold") (size 1 1) (color 0 132 132 1)))
    )
    (property "Ausgabe" "${COMMENT2}${REFERENCE}.${Zeile}${Strompfad}" (at -6.35 0 90)
      (effects (font (size 1.27 1.27)))
    )
    (property "Zeile" "" (at 0 -7.62 0)
      (effects (font (size 1.27 1.27)) hide)
    )
    (property "Strompfad" "" (at 0 -7.62 0)
      (effects (font (size 1.27 1.27)) hide)
    )
    (property "ki_keywords" "Spannungsgenerator" (at 0 0 0)
      (effects (font (size 1.27 1.27)) hide)
    )
    (symbol "Voltage generator_0_1"
      (circle (center 0 -7.62) (radius 0.3458)
        (stroke (width 0.2) (type default) (color 0 0 0 1))
        (fill (type none))
      )
      (polyline
        (pts
          (xy 0 -5.08)
          (xy 0 -3.81)
          (xy 0 -4.318)
        )
        (stroke (width 0.2) (type default) (color 0 0 0 1))
        (fill (type none))
      )
      (polyline
        (pts
          (xy 0 5.08)
          (xy 0 3.683)
          (xy 0 4.318)
        )
        (stroke (width 0.2) (type default) (color 0 0 0 1))
        (fill (type none))
      )
      (circle (center 0 0) (radius 3.7592)
        (stroke (width 0.3) (type default) (color 0 0 0 1))
        (fill (type none))
      )
      (circle (center 0 7.62) (radius 0.3458)
        (stroke (width 0.2) (type default) (color 0 0 0 1))
        (fill (type none))
      )
    )
    (symbol "Voltage generator_1_1"
      (rectangle (start -5.08 7.62) (end 5.08 -7.62)
        (stroke (width 0.001) (type dot) (color 255 255 255 1))
        (fill (type background))
      )
      (polyline
        (pts
          (xy 0 -2.9972)
          (xy 0 2.6924)
        )
        (stroke (width 0.3) (type default) (color 0 0 0 1))
        (fill (type none))
      )
      (polyline
        (pts
          (xy 0 -5.08)
          (xy 0 -7.62)
          (xy 0 -7.366)
        )
        (stroke (width 0.5) (type default) (color 0 0 0 1))
        (fill (type none))
      )
      (polyline
        (pts
          (xy 0 7.62)
          (xy 0 5.08)
          (xy 0 5.334)
        )
        (stroke (width 0.5) (type default) (color 0 0 0 1))
        (fill (type none))
      )
      (polyline
        (pts
          (xy 0 2.8956)
          (xy -0.4064 1.9304)
          (xy 0.4064 1.9304)
          (xy 0 2.8448)
        )
        (stroke (width 0.2) (type default) (color 0 0 0 1))
        (fill (type color) (color 0 0 0 1))
      )
      (polyline
        (pts
          (xy -0.2286 -2.9718)
          (xy -0.6858 -2.8702)
          (xy -1.2446 -2.667)
          (xy -1.6256 -2.4384)
          (xy -1.9558 -2.2098)
          (xy -2.3114 -1.8288)
          (xy -2.6162 -1.3716)
          (xy -2.8194 -0.889)
          (xy -2.921 -0.4318)
          (xy -2.9464 0.0254)
          (xy -2.8956 0.4826)
          (xy -2.8194 0.8636)
          (xy -2.667 1.27)
          (xy -2.413 1.7018)
          (xy -2.159 2.0066)
          (xy -1.9304 2.2352)
          (xy -1.6256 2.4892)
          (xy -1.27 2.667)
          (xy -0.8128 2.8448)
          (xy -0.4572 2.921)
          (xy -0.2032 2.9464)
          (xy -0.2286 -2.9464)
        )
        (stroke (width 0.001) (type default) (color 255 255 255 1))
        (fill (type color) (color 255 255 255 1))
      )
      (polyline
        (pts
          (xy 0.2286 -2.9718)
          (xy 0.6858 -2.8702)
          (xy 1.2446 -2.667)
          (xy 1.6256 -2.4384)
          (xy 1.9558 -2.2098)
          (xy 2.3114 -1.8288)
          (xy 2.6162 -1.3716)
          (xy 2.8194 -0.889)
          (xy 2.921 -0.4318)
          (xy 2.9464 0.0254)
          (xy 2.8956 0.4826)
          (xy 2.8194 0.8636)
          (xy 2.667 1.27)
          (xy 2.413 1.7018)
          (xy 2.159 2.0066)
          (xy 1.9304 2.2352)
          (xy 1.6256 2.4892)
          (xy 1.27 2.667)
          (xy 0.8128 2.8448)
          (xy 0.4572 2.921)
          (xy 0.2032 2.9464)
          (xy 0.2286 -2.9464)
        )
        (stroke (width 0.001) (type default) (color 255 255 255 1))
        (fill (type color) (color 255 255 255 1))
      )
      (circle (center 0 0) (radius 3.0819)
        (stroke (width 0.2) (type default) (color 0 0 0 1))
        (fill (type none))
      )
      (pin input line (at 0 7.62 270) (length 2.54)
        (name "1" (effects (font (size 1.27 1.27))))
        (number "1" (effects (font (size 1.27 1.27))))
      )
      (pin input line (at 0 -7.62 90) (length 2.54)
        (name "2" (effects (font (size 1.27 1.27))))
        (number "2" (effects (font (size 1.27 1.27))))
      )
    )
  )
)
