(kicad_symbol_lib (version 20220914) (generator kicad_symbol_editor)
  (symbol "Relais DC" (pin_numbers hide) (pin_names (offset 0)) (in_bom yes) (on_board yes)
    (property "Reference" "K" (at -10.16 0 90)
      (effects (font (size 1.27 1.27)))
    )
    (property "Value" "DC Relay" (at 7.62 0 90)
      (effects (font (size 1.27 1.27)))
    )
    (property "Footprint" "" (at 0 -6.35 0)
      (effects (font (size 1.27 1.27)) hide)
    )
    (property "Datasheet" "" (at 0 -6.35 0)
      (effects (font (size 1.27 1.27)) hide)
    )
    (property "de" "DC Relais" (at 7.62 0 90)
      (effects (font (size 1.27 1.27) (color 0 0 0 1)) hide)
    )
    (property "Pin1" "A1" (at -3.81 5.08 0)
      (effects (font (size 1.27 1.27) (color 0 0 0 1)))
    )
    (property "Pin2" "A2" (at -3.81 -5.08 0)
      (effects (font (size 1.27 1.27) (color 0 0 0 1)))
    )
    (property "Ausgabe" "${COMMENT2}${REFERENCE}.${Zeile}${Strompfad}" (at -7.62 0 90)
      (effects (font (size 1.27 1.27)))
    )
    (property "Zeile" "" (at 0 0 0)
      (effects (font (size 1.27 1.27)) hide)
    )
    (property "Strompfad" "" (at 0 0 0)
      (effects (font (size 1.27 1.27)) hide)
    )
    (property "ki_keywords" "DC;Relais" (at 0 0 0)
      (effects (font (size 1.27 1.27)) hide)
    )
    (symbol "Relais DC_0_1"
      (rectangle (start -4.4704 1.905) (end 4.4196 -1.905)
        (stroke (width 0.3) (type default) (color 0 0 0 1))
        (fill (type none))
      )
    )
    (symbol "Relais DC_1_1"
      (rectangle (start -6.35 6.35) (end 6.35 -6.35)
        (stroke (width 0.001) (type dot) (color 255 255 255 1))
        (fill (type background))
      )
      (rectangle (start -4.4704 1.905) (end -2.0574 -1.905)
        (stroke (width 0.3) (type default) (color 0 0 0 1))
        (fill (type color) (color 255 255 255 1))
      )
      (circle (center 0 -6.35) (radius 0.284)
        (stroke (width 0.3) (type default) (color 0 0 0 1))
        (fill (type color) (color 0 0 0 1))
      )
      (polyline
        (pts
          (xy -1.1176 -1.8034)
          (xy 3.3528 1.8288)
        )
        (stroke (width 0.2) (type default) (color 0 0 0 1))
        (fill (type none))
      )
      (polyline
        (pts
          (xy 0 -6.35)
          (xy 0 -1.905)
        )
        (stroke (width 0.2) (type default) (color 0 0 0 1))
        (fill (type color) (color 0 0 0 1))
      )
      (polyline
        (pts
          (xy 0 1.905)
          (xy 0 6.35)
        )
        (stroke (width 0.2) (type default) (color 0 0 0 1))
        (fill (type color) (color 0 0 0 1))
      )
      (polyline
        (pts
          (xy 0 -3.81)
          (xy 0 -6.35)
          (xy 0 -6.096)
        )
        (stroke (width 0.5) (type default) (color 0 0 0 1))
        (fill (type none))
      )
      (polyline
        (pts
          (xy 0 6.35)
          (xy 0 3.81)
          (xy 0 4.064)
        )
        (stroke (width 0.5) (type default) (color 0 0 0 1))
        (fill (type none))
      )
      (polyline
        (pts
          (xy -1.8796 -1.7018)
          (xy -1.2446 -1.7018)
          (xy 2.921 1.7018)
          (xy -1.8542 1.7018)
          (xy -1.8542 -1.7272)
        )
        (stroke (width 0.001) (type default) (color 255 255 255 1))
        (fill (type color) (color 255 255 255 1))
      )
      (polyline
        (pts
          (xy 4.2164 1.7018)
          (xy 3.4798 1.7018)
          (xy -0.7366 -1.7018)
          (xy 4.2164 -1.7018)
          (xy 4.2164 1.651)
        )
        (stroke (width 0.001) (type default) (color 255 255 255 1))
        (fill (type color) (color 255 255 255 1))
      )
      (circle (center 0 6.35) (radius 0.284)
        (stroke (width 0.3) (type default) (color 0 0 0 1))
        (fill (type color) (color 0 0 0 1))
      )
      (text "=" (at -3.175 0.127 0)
        (effects (font (size 2 2) (color 0 0 0 1)))
      )
      (pin input line (at 0 -6.35 90) (length 2.54)
        (name "" (effects (font (size 1.27 1.27))))
        (number "1" (effects (font (size 1.27 1.27))))
      )
      (pin input line (at 0 6.35 270) (length 2.54)
        (name "" (effects (font (size 1.27 1.27))))
        (number "2" (effects (font (size 1.27 1.27))))
      )
    )
  )
)
