(kicad_symbol_lib (version 20220914) (generator kicad_symbol_editor)
  (symbol "Relais Differential" (pin_numbers hide) (pin_names (offset 0)) (in_bom yes) (on_board yes)
    (property "Reference" "K" (at -10.16 0 90)
      (effects (font (size 1.27 1.27)))
    )
    (property "Value" "Differential Relay" (at 7.62 0 90)
      (effects (font (size 1.27 1.27)))
    )
    (property "Footprint" "" (at 0 -6.35 0)
      (effects (font (size 1.27 1.27)) hide)
    )
    (property "Datasheet" "" (at 0 -6.35 0)
      (effects (font (size 1.27 1.27)) hide)
    )
    (property "de" "Differenz Relais" (at 7.62 0 90)
      (effects (font (size 1.27 1.27) (color 0 0 0 1)) hide)
    )
    (property "Pin1" "A1" (at -3.81 5.08 0)
      (effects (font (size 1.27 1.27) (color 0 0 0 1)))
    )
    (property "Pin2" "A2" (at -3.81 -5.08 0)
      (effects (font (size 1.27 1.27) (color 0 0 0 1)))
    )
    (property "Ausgabe" "${COMMENT2}${REFERENCE}.${Zeile}${Strompfad}" (at -7.62 0 90)
      (effects (font (size 1.27 1.27)))
    )
    (property "Zeile" "" (at -2.032 0 0)
      (effects (font (size 1.27 1.27)) hide)
    )
    (property "Strompfad" "" (at -2.032 0 0)
      (effects (font (size 1.27 1.27)) hide)
    )
    (property "ki_keywords" "Differenzial;Relais" (at 0 0 0)
      (effects (font (size 1.27 1.27)) hide)
    )
    (symbol "Relais Differential_0_1"
      (rectangle (start -6.35 6.35) (end 6.35 -6.35)
        (stroke (width 0.001) (type dot) (color 255 255 255 1))
        (fill (type background))
      )
      (rectangle (start -3.175 1.905) (end 3.175 -1.905)
        (stroke (width 0.3) (type default) (color 0 0 0 1))
        (fill (type none))
      )
    )
    (symbol "Relais Differential_1_1"
      (circle (center 0 -6.35) (radius 0.284)
        (stroke (width 0.3) (type default) (color 0 0 0 1))
        (fill (type color) (color 0 0 0 1))
      )
      (polyline
        (pts
          (xy 0 -6.35)
          (xy 0 -1.905)
        )
        (stroke (width 0.2) (type default) (color 0 0 0 1))
        (fill (type color) (color 0 0 0 1))
      )
      (polyline
        (pts
          (xy 0 1.905)
          (xy 0 6.35)
        )
        (stroke (width 0.2) (type default) (color 0 0 0 1))
        (fill (type color) (color 0 0 0 1))
      )
      (polyline
        (pts
          (xy 0 -3.81)
          (xy 0 -6.35)
          (xy 0 -6.096)
        )
        (stroke (width 0.5) (type default) (color 0 0 0 1))
        (fill (type none))
      )
      (polyline
        (pts
          (xy 0 6.35)
          (xy 0 3.81)
          (xy 0 4.064)
        )
        (stroke (width 0.5) (type default) (color 0 0 0 1))
        (fill (type none))
      )
      (polyline
        (pts
          (xy -0.6096 -1.8796)
          (xy 2.1336 1.6256)
          (xy 1.5748 1.3716)
          (xy 2.1336 1.6256)
        )
        (stroke (width 0.2) (type default) (color 0 0 0 1))
        (fill (type none))
      )
      (polyline
        (pts
          (xy -0.6096 -1.8796)
          (xy 2.1844 1.6256)
          (xy 2.0828 1.016)
          (xy 2.1844 1.6256)
        )
        (stroke (width 0.2) (type default) (color 0 0 0 1))
        (fill (type none))
      )
      (polyline
        (pts
          (xy 0.5588 1.8542)
          (xy -2.1844 -1.651)
          (xy -1.6256 -1.397)
          (xy -2.1844 -1.651)
        )
        (stroke (width 0.2) (type default) (color 0 0 0 1))
        (fill (type none))
      )
      (polyline
        (pts
          (xy 0.6096 1.8542)
          (xy -2.1844 -1.651)
          (xy -2.0828 -1.0414)
          (xy -2.1844 -1.651)
        )
        (stroke (width 0.2) (type default) (color 0 0 0 1))
        (fill (type none))
      )
      (polyline
        (pts
          (xy -2.8956 -1.651)
          (xy -2.8956 1.6002)
          (xy 0.127 1.6002)
          (xy -1.905 -0.9652)
          (xy -1.905 -0.8636)
          (xy -2.0574 -0.7874)
          (xy -2.2098 -0.8382)
          (xy -2.286 -0.9398)
          (xy -2.3622 -1.397)
          (xy -2.413 -1.651)
          (xy -2.6162 -1.651)
          (xy -2.921 -1.651)
        )
        (stroke (width 0) (type default) (color 255 255 255 1))
        (fill (type color) (color 255 255 255 1))
      )
      (polyline
        (pts
          (xy 2.8956 1.6256)
          (xy 2.8956 -1.6256)
          (xy -0.127 -1.6256)
          (xy 1.905 0.9398)
          (xy 1.905 0.8382)
          (xy 2.0574 0.762)
          (xy 2.2098 0.8128)
          (xy 2.286 0.9144)
          (xy 2.3622 1.3716)
          (xy 2.413 1.6256)
          (xy 2.6162 1.6256)
          (xy 2.921 1.6256)
        )
        (stroke (width 0) (type default) (color 255 255 255 1))
        (fill (type color) (color 255 255 255 1))
      )
      (polyline
        (pts
          (xy 0.7366 1.651)
          (xy 0.3556 1.1684)
          (xy 0.0762 0.8382)
          (xy -0.2286 0.4318)
          (xy -0.6858 -0.127)
          (xy -1.0922 -0.635)
          (xy -1.5494 -1.1938)
          (xy -1.4478 -1.27)
          (xy -1.4224 -1.3716)
          (xy -1.4478 -1.5494)
          (xy -1.7018 -1.651)
          (xy -0.7112 -1.6256)
          (xy 1.4986 1.1684)
          (xy 1.4224 1.1938)
          (xy 1.3462 1.2954)
          (xy 1.3208 1.397)
          (xy 1.3716 1.5494)
          (xy 1.7272 1.651)
          (xy 0.7366 1.651)
        )
        (stroke (width 0) (type default) (color 255 255 255 1))
        (fill (type color) (color 255 255 255 1))
      )
      (circle (center 0 6.35) (radius 0.284)
        (stroke (width 0.3) (type default) (color 0 0 0 1))
        (fill (type color) (color 0 0 0 1))
      )
      (pin input line (at 0 -6.35 90) (length 2.54)
        (name "" (effects (font (size 1.27 1.27))))
        (number "1" (effects (font (size 1.27 1.27))))
      )
      (pin input line (at 0 6.35 270) (length 2.54)
        (name "" (effects (font (size 1.27 1.27))))
        (number "2" (effects (font (size 1.27 1.27))))
      )
    )
  )
)
