(kicad_symbol_lib (version 20220914) (generator kicad_symbol_editor)
  (symbol "Relay Electromagnetic" (pin_numbers hide) (pin_names (offset 0) hide) (in_bom yes) (on_board yes)
    (property "Reference" "K" (at -10.16 0 90)
      (effects (font (size 1.27 1.27)))
    )
    (property "Value" "Electromagnetic Relay" (at 7.62 0 90)
      (effects (font (size 1.27 1.27)))
    )
    (property "Footprint" "" (at 0 -6.35 0)
      (effects (font (size 1.27 1.27)) hide)
    )
    (property "Datasheet" "" (at 0 -6.35 0)
      (effects (font (size 1.27 1.27)) hide)
    )
    (property "de" "Elektromagnet-Relais" (at 10.16 0 90)
      (effects (font (size 1.27 1.27) (color 0 0 0 1)) hide)
    )
    (property "Pin1" "A1" (at -3.81 4.445 0)
      (effects (font (size 1.27 1.27) (color 0 0 0 1)))
    )
    (property "Pin2" "A2" (at -3.81 -5.08 0)
      (effects (font (size 1.27 1.27) (color 0 0 0 1)))
    )
    (property "Ausgabe" "${COMMENT2}${REFERENCE}.${Zeile}${Strompfad}" (at -7.62 0 90)
      (effects (font (size 1.27 1.27)))
    )
    (property "Zeile" "" (at -2.032 0 0)
      (effects (font (size 1.27 1.27)) hide)
    )
    (property "Strompfad" "" (at -2.032 0 0)
      (effects (font (size 1.27 1.27)) hide)
    )
    (property "ki_keywords" "Elektromagnet;Relais" (at 0 0 0)
      (effects (font (size 1.27 1.27)) hide)
    )
    (symbol "Relay Electromagnetic_0_1"
      (rectangle (start -6.35 6.35) (end 6.35 -6.35)
        (stroke (width 0.001) (type dot) (color 255 255 255 1))
        (fill (type background))
      )
      (rectangle (start -3.175 1.905) (end 3.175 -1.905)
        (stroke (width 0.3) (type default) (color 0 0 0 1))
        (fill (type none))
      )
      (arc (start 0 -0.762) (mid 0.7221 0) (end 0 0.762)
        (stroke (width 0.2) (type default) (color 0 0 0 1))
        (fill (type none))
      )
      (polyline
        (pts
          (xy 0 -1.905)
          (xy 0 -0.762)
        )
        (stroke (width 0.2) (type default) (color 0 0 0 1))
        (fill (type none))
      )
      (polyline
        (pts
          (xy 0 1.778)
          (xy 0 0.762)
        )
        (stroke (width 0.2) (type default) (color 0 0 0 1))
        (fill (type none))
      )
    )
    (symbol "Relay Electromagnetic_1_1"
      (circle (center 0 -6.35) (radius 0.284)
        (stroke (width 0.3) (type default) (color 0 0 0 1))
        (fill (type color) (color 0 0 0 1))
      )
      (polyline
        (pts
          (xy 0 -6.35)
          (xy 0 -1.905)
        )
        (stroke (width 0.2) (type default) (color 0 0 0 1))
        (fill (type color) (color 0 0 0 1))
      )
      (polyline
        (pts
          (xy 0 1.905)
          (xy 0 6.35)
        )
        (stroke (width 0.2) (type default) (color 0 0 0 1))
        (fill (type color) (color 0 0 0 1))
      )
      (polyline
        (pts
          (xy 0 -3.81)
          (xy 0 -6.35)
          (xy 0 -6.096)
        )
        (stroke (width 0.5) (type default) (color 0 0 0 1))
        (fill (type none))
      )
      (polyline
        (pts
          (xy 0 6.35)
          (xy 0 3.81)
          (xy 0 4.064)
        )
        (stroke (width 0.5) (type default) (color 0 0 0 1))
        (fill (type none))
      )
      (polyline
        (pts
          (xy -0.1524 1.7018)
          (xy -0.1524 0.7112)
          (xy -0.0762 0.6096)
          (xy 0.1778 0.5842)
          (xy 0.4064 0.4318)
          (xy 0.5588 0.1778)
          (xy 0.5588 -0.0762)
          (xy 0.508 -0.2794)
          (xy 0.3556 -0.4826)
          (xy 0.1524 -0.5842)
          (xy -0.0762 -0.6096)
          (xy -0.1524 -0.7112)
          (xy -0.1524 -1.7272)
          (xy -2.9718 -1.7018)
          (xy -2.9718 1.7018)
          (xy -0.1524 1.7018)
        )
        (stroke (width 0.001) (type default) (color 255 255 255 1))
        (fill (type color) (color 255 255 255 1))
      )
      (polyline
        (pts
          (xy 0.1524 1.7018)
          (xy 0.1524 0.889)
          (xy 0.3556 0.8382)
          (xy 0.5334 0.7366)
          (xy 0.7366 0.508)
          (xy 0.8382 0.3048)
          (xy 0.889 0.0508)
          (xy 0.8636 -0.254)
          (xy 0.7366 -0.508)
          (xy 0.5842 -0.6858)
          (xy 0.3556 -0.8382)
          (xy 0.1524 -0.889)
          (xy 0.1524 -1.7272)
          (xy 2.9718 -1.7018)
          (xy 2.9718 1.7018)
          (xy 0.1524 1.7018)
        )
        (stroke (width 0.001) (type default) (color 255 255 255 1))
        (fill (type color) (color 255 255 255 1))
      )
      (circle (center 0 6.35) (radius 0.284)
        (stroke (width 0.3) (type default) (color 0 0 0 1))
        (fill (type color) (color 0 0 0 1))
      )
      (pin input line (at 0 -6.35 90) (length 2.54)
        (name "" (effects (font (size 1.27 1.27))))
        (number "1" (effects (font (size 1.27 1.27))))
      )
      (pin input line (at 0 6.35 270) (length 2.54)
        (name "" (effects (font (size 1.27 1.27))))
        (number "2" (effects (font (size 1.27 1.27))))
      )
    )
  )
)
