(kicad_symbol_lib (version 20220914) (generator kicad_symbol_editor)
  (symbol "Relay Fast " (pin_numbers hide) (pin_names (offset 0) hide) (in_bom yes) (on_board yes)
    (property "Reference" "K" (at -10.16 0 90)
      (effects (font (size 1.27 1.27)))
    )
    (property "Value" "Fast Relay" (at 7.62 0 90)
      (effects (font (size 1.27 1.27)))
    )
    (property "Footprint" "" (at 0 -6.35 0)
      (effects (font (size 1.27 1.27)) hide)
    )
    (property "Datasheet" "" (at 0 -6.35 0)
      (effects (font (size 1.27 1.27)) hide)
    )
    (property "de" "Schnelles-Relais" (at 7.62 0 90)
      (effects (font (size 1.27 1.27) (color 0 0 0 1)) hide)
    )
    (property "Pin1" "A1" (at -3.81 4.445 0)
      (effects (font (size 1.27 1.27) (color 0 0 0 1)))
    )
    (property "Pin2" "A2" (at -3.81 -5.08 0)
      (effects (font (size 1.27 1.27) (color 0 0 0 1)))
    )
    (property "Ausgabe" "${COMMENT2}${REFERENCE}.${Zeile}${Strompfad}" (at -7.62 0 90)
      (effects (font (size 1.27 1.27)))
    )
    (property "Zeile" "" (at 0 0 0)
      (effects (font (size 1.27 1.27)) hide)
    )
    (property "Strompfad" "" (at 0 0 0)
      (effects (font (size 1.27 1.27)) hide)
    )
    (property "ki_keywords" "Schnell;Relais" (at 0 0 0)
      (effects (font (size 1.27 1.27)) hide)
    )
    (symbol "Relay Fast _0_1"
      (rectangle (start -4.445 1.905) (end 4.445 -1.905)
        (stroke (width 0.3) (type default) (color 0 0 0 1))
        (fill (type none))
      )
    )
    (symbol "Relay Fast _1_1"
      (rectangle (start -6.35 6.35) (end 6.35 -6.35)
        (stroke (width 0.001) (type dot) (color 255 255 255 1))
        (fill (type background))
      )
      (circle (center -3.0988 -0.0508) (radius 0.5236)
        (stroke (width 0) (type default) (color 0 0 0 1))
        (fill (type color) (color 0 0 0 1))
      )
      (rectangle (start -1.905 1.905) (end 4.445 -1.905)
        (stroke (width 0.3) (type default) (color 0 0 0 1))
        (fill (type color) (color 255 255 255 1))
      )
      (circle (center 0 -6.35) (radius 0.284)
        (stroke (width 0.3) (type default) (color 0 0 0 1))
        (fill (type color) (color 0 0 0 1))
      )
      (polyline
        (pts
          (xy 0 -6.35)
          (xy 0 -1.905)
        )
        (stroke (width 0.2) (type default) (color 0 0 0 1))
        (fill (type color) (color 0 0 0 1))
      )
      (polyline
        (pts
          (xy 0 1.905)
          (xy 0 6.35)
        )
        (stroke (width 0.2) (type default) (color 0 0 0 1))
        (fill (type color) (color 0 0 0 1))
      )
      (polyline
        (pts
          (xy 0 -3.81)
          (xy 0 -6.35)
          (xy 0 -6.096)
        )
        (stroke (width 0.5) (type default) (color 0 0 0 1))
        (fill (type none))
      )
      (polyline
        (pts
          (xy 0 6.35)
          (xy 0 3.81)
          (xy 0 4.064)
        )
        (stroke (width 0.5) (type default) (color 0 0 0 1))
        (fill (type none))
      )
      (polyline
        (pts
          (xy -2.4638 -0.2286)
          (xy -2.4384 -0.0254)
          (xy -2.4892 0.2032)
          (xy -2.5908 0.381)
          (xy -2.7432 0.508)
          (xy -2.921 0.5842)
          (xy -3.1242 0.6096)
          (xy -3.3528 0.5588)
          (xy -3.5306 0.4572)
          (xy -3.6576 0.3048)
          (xy -3.7338 0.127)
          (xy -3.7592 -0.0254)
          (xy -3.7338 -0.2032)
          (xy -3.683 -0.3556)
          (xy -4.2418 -0.762)
          (xy -4.2418 -0.6096)
          (xy -4.2418 -0.4318)
          (xy -4.2418 1.7018)
          (xy -2.1082 1.7018)
          (xy -2.1082 -0.1524)
          (xy -2.1082 -0.635)
          (xy -2.4384 -0.4826)
          (xy -2.4892 -0.2286)
        )
        (stroke (width 0.001) (type default) (color 255 255 255 1))
        (fill (type color) (color 255 255 255 1))
      )
      (polyline
        (pts
          (xy -2.4638 0.127)
          (xy -2.4384 -0.0762)
          (xy -2.4892 -0.3048)
          (xy -2.5908 -0.4826)
          (xy -2.7432 -0.6096)
          (xy -2.921 -0.6858)
          (xy -3.1242 -0.7112)
          (xy -3.3528 -0.6604)
          (xy -3.5306 -0.5588)
          (xy -3.6576 -0.4064)
          (xy -3.7338 -0.2286)
          (xy -3.7592 -0.0762)
          (xy -3.7338 0.1016)
          (xy -3.683 0.254)
          (xy -4.2418 0.6604)
          (xy -4.2418 0.508)
          (xy -4.2418 0.3302)
          (xy -4.2418 -1.7018)
          (xy -2.1082 -1.7018)
          (xy -2.1082 0.0508)
          (xy -2.1082 0.5334)
          (xy -2.4384 0.381)
          (xy -2.4892 0.127)
        )
        (stroke (width 0.001) (type default) (color 255 255 255 1))
        (fill (type color) (color 255 255 255 1))
      )
      (circle (center 0 6.35) (radius 0.284)
        (stroke (width 0.3) (type default) (color 0 0 0 1))
        (fill (type color) (color 0 0 0 1))
      )
      (pin input line (at 0 -6.35 90) (length 2.54)
        (name "" (effects (font (size 1.27 1.27))))
        (number "1" (effects (font (size 1.27 1.27))))
      )
      (pin input line (at 0 6.35 270) (length 2.54)
        (name "" (effects (font (size 1.27 1.27))))
        (number "2" (effects (font (size 1.27 1.27))))
      )
    )
  )
)
