(kicad_symbol_lib (version 20220914) (generator kicad_symbol_editor)
  (symbol "Relay_2" (pin_numbers hide) (pin_names (offset 0)) (in_bom yes) (on_board yes)
    (property "Reference" "K" (at -10.16 0 90)
      (effects (font (size 1.27 1.27)))
    )
    (property "Value" "Relay" (at 7.62 0 90)
      (effects (font (size 1.27 1.27)))
    )
    (property "Footprint" "" (at 0 -6.35 0)
      (effects (font (size 1.27 1.27)) hide)
    )
    (property "Datasheet" "" (at 0 -6.35 0)
      (effects (font (size 1.27 1.27)) hide)
    )
    (property "de" "Relais" (at 7.62 0 90)
      (effects (font (size 1.27 1.27) (color 0 0 0 1)) hide)
    )
    (property "Pin1" "A1" (at -3.81 5.08 0)
      (effects (font (size 1.27 1.27) (color 0 0 0 1)))
    )
    (property "Pin2" "A2" (at -3.81 -5.08 0)
      (effects (font (size 1.27 1.27) (color 0 0 0 1)))
    )
    (property "Ausgabe" "${COMMENT2}${REFERENCE}.${Zeile}${Strompfad}" (at -7.62 0 90)
      (effects (font (size 1.27 1.27)))
    )
    (property "Zeile" "" (at 0 0 0)
      (effects (font (size 1.27 1.27)) hide)
    )
    (property "Strompfad" "" (at 0 0 0)
      (effects (font (size 1.27 1.27)) hide)
    )
    (property "ki_keywords" "Relais" (at 0 0 0)
      (effects (font (size 1.27 1.27)) hide)
    )
    (symbol "Relay_2_0_1"
      (rectangle (start -6.35 6.35) (end 6.35 -6.35)
        (stroke (width 0.001) (type dot) (color 255 255 255 1))
        (fill (type background))
      )
    )
    (symbol "Relay_2_1_1"
      (rectangle (start -3.175 1.905) (end 3.175 -1.905)
        (stroke (width 0.3) (type default) (color 0 0 0 1))
        (fill (type none))
      )
      (circle (center 0 -6.35) (radius 0.284)
        (stroke (width 0.3) (type default) (color 0 0 0 1))
        (fill (type color) (color 0 0 0 1))
      )
      (polyline
        (pts
          (xy -1.905 -1.905)
          (xy 1.905 1.905)
        )
        (stroke (width 0.3) (type default) (color 0 0 0 1))
        (fill (type none))
      )
      (polyline
        (pts
          (xy 0 -6.35)
          (xy 0 -1.905)
        )
        (stroke (width 0.2) (type default) (color 0 0 0 1))
        (fill (type color) (color 0 0 0 1))
      )
      (polyline
        (pts
          (xy 0 1.905)
          (xy 0 6.35)
        )
        (stroke (width 0.2) (type default) (color 0 0 0 1))
        (fill (type color) (color 0 0 0 1))
      )
      (polyline
        (pts
          (xy 0 -3.81)
          (xy 0 -6.35)
          (xy 0 -6.096)
        )
        (stroke (width 0.5) (type default) (color 0 0 0 1))
        (fill (type none))
      )
      (polyline
        (pts
          (xy 0 6.35)
          (xy 0 3.81)
          (xy 0 4.064)
        )
        (stroke (width 0.5) (type default) (color 0 0 0 1))
        (fill (type none))
      )
      (polyline
        (pts
          (xy -1.3716 -1.6764)
          (xy 2.0066 1.6764)
          (xy 2.9464 1.6764)
          (xy 2.9464 -1.6764)
          (xy -1.3716 -1.6764)
          (xy 2.0066 1.6764)
        )
        (stroke (width 0.001) (type default) (color 255 255 255 1))
        (fill (type color) (color 255 255 255 1))
      )
      (polyline
        (pts
          (xy 1.3716 1.6764)
          (xy -2.0066 -1.6764)
          (xy -2.9464 -1.6764)
          (xy -2.9464 1.6764)
          (xy 1.3716 1.6764)
          (xy -2.0066 -1.6764)
        )
        (stroke (width 0.001) (type default) (color 255 255 255 1))
        (fill (type color) (color 255 255 255 1))
      )
      (circle (center 0 6.35) (radius 0.284)
        (stroke (width 0.3) (type default) (color 0 0 0 1))
        (fill (type color) (color 0 0 0 1))
      )
      (pin input line (at 0 -6.35 90) (length 2.54)
        (name "" (effects (font (size 1.27 1.27))))
        (number "1" (effects (font (size 1.27 1.27))))
      )
      (pin input line (at 0 6.35 270) (length 2.54)
        (name "" (effects (font (size 1.27 1.27))))
        (number "2" (effects (font (size 1.27 1.27))))
      )
    )
  )
)
