(kicad_symbol_lib (version 20220914) (generator kicad_symbol_editor)
  (symbol "Relay Reed1" (pin_numbers hide) (pin_names (offset 0) hide) (in_bom yes) (on_board yes)
    (property "Reference" "K" (at -10.16 0 90)
      (effects (font (size 1.27 1.27)))
    )
    (property "Value" "Reed Relay" (at 7.62 0 90)
      (effects (font (size 1.27 1.27)))
    )
    (property "Footprint" "" (at -6.35 0 90)
      (effects (font (size 1.27 1.27)) hide)
    )
    (property "Datasheet" "" (at -6.35 0 90)
      (effects (font (size 1.27 1.27)) hide)
    )
    (property "de" "Reed-Relais" (at 7.62 0 90)
      (effects (font (size 1.27 1.27) (color 0 0 0 1)) hide)
    )
    (property "Pin1" "A1" (at -3.81 -2.54 0)
      (effects (font (size 1.27 1.27) (color 0 0 0 1)))
    )
    (property "Pin2" "A2" (at 5.08 -2.54 0)
      (effects (font (size 1.27 1.27) (color 0 0 0 1)))
    )
    (property "Ausgabe" "${COMMENT2}${REFERENCE}.${Zeile}${Strompfad}" (at -7.62 0 90)
      (effects (font (size 1.27 1.27)))
    )
    (property "Zeile" "" (at 0 0 0)
      (effects (font (size 1.27 1.27)) hide)
    )
    (property "Strompfad" "" (at 0 0 0)
      (effects (font (size 1.27 1.27)) hide)
    )
    (property "ki_keywords" "Reed;Relais" (at 0 0 0)
      (effects (font (size 1.27 1.27)) hide)
    )
    (symbol "Relay Reed1_0_1"
      (rectangle (start -6.35 6.35) (end 6.35 -6.35)
        (stroke (width 0.001) (type dot) (color 255 255 255 1))
        (fill (type background))
      )
      (arc (start -1.3484 1.27) (mid -2.5911 0) (end -1.3484 -1.27)
        (stroke (width 0.2) (type default) (color 0 0 0 1))
        (fill (type none))
      )
      (polyline
        (pts
          (xy -0.8636 0)
          (xy 1.2192 0.762)
          (xy 1.1684 0.762)
        )
        (stroke (width 0.2) (type default) (color 0 0 0 1))
        (fill (type none))
      )
      (arc (start 1.4246 -1.27) (mid 2.6673 0) (end 1.4246 1.27)
        (stroke (width 0.2) (type default) (color 0 0 0 1))
        (fill (type none))
      )
    )
    (symbol "Relay Reed1_1_1"
      (circle (center -6.35 0) (radius 0.284)
        (stroke (width 0.3) (type default) (color 0 0 0 1))
        (fill (type color) (color 0 0 0 1))
      )
      (circle (center -1.143 0) (radius 0.284)
        (stroke (width 0.2) (type default) (color 0 0 0 1))
        (fill (type color) (color 255 255 255 1))
      )
      (polyline
        (pts
          (xy -6.35 0)
          (xy -1.524 0)
        )
        (stroke (width 0.2) (type default) (color 0 0 0 1))
        (fill (type color) (color 0 0 0 1))
      )
      (polyline
        (pts
          (xy 1.3716 -1.27)
          (xy -1.27 -1.27)
        )
        (stroke (width 0.2) (type default) (color 0 0 0 1))
        (fill (type color) (color 0 0 0 1))
      )
      (polyline
        (pts
          (xy 1.3716 1.27)
          (xy -1.27 1.27)
        )
        (stroke (width 0.2) (type default) (color 0 0 0 1))
        (fill (type color) (color 0 0 0 1))
      )
      (polyline
        (pts
          (xy 1.6764 0)
          (xy 6.35 0)
        )
        (stroke (width 0.2) (type default) (color 0 0 0 1))
        (fill (type color) (color 0 0 0 1))
      )
      (polyline
        (pts
          (xy -3.81 0)
          (xy -6.35 0)
          (xy -6.096 0)
        )
        (stroke (width 0.5) (type default) (color 0 0 0 1))
        (fill (type none))
      )
      (polyline
        (pts
          (xy 6.35 0)
          (xy 3.81 0)
          (xy 4.064 0)
        )
        (stroke (width 0.5) (type default) (color 0 0 0 1))
        (fill (type none))
      )
      (polyline
        (pts
          (xy -2.4384 0.1524)
          (xy -2.032 0.1524)
          (xy -1.5748 0.1524)
          (xy -1.4732 0.3048)
          (xy -1.3208 0.4064)
          (xy -1.1684 0.4572)
          (xy -0.9652 0.4064)
          (xy -0.8128 0.3048)
          (xy -0.762 0.2032)
          (xy 1.5748 1.0668)
          (xy 1.4732 1.1176)
          (xy -1.2192 1.1176)
          (xy -1.4224 1.1176)
          (xy -1.778 1.016)
          (xy -1.9812 0.9144)
          (xy -2.1844 0.7112)
          (xy -2.3368 0.4572)
          (xy -2.4384 0.2032)
        )
        (stroke (width 0.001) (type default) (color 255 255 255 1))
        (fill (type color) (color 255 255 255 1))
      )
      (polyline
        (pts
          (xy -2.3876 -0.1524)
          (xy -2.032 -0.1524)
          (xy -1.5748 -0.1524)
          (xy -1.4732 -0.3048)
          (xy -1.3208 -0.4064)
          (xy -1.1684 -0.4572)
          (xy -0.9652 -0.4064)
          (xy -0.8128 -0.3048)
          (xy -0.762 -0.2032)
          (xy 0.8636 -0.254)
          (xy 1.4732 -1.1176)
          (xy -1.2192 -1.1176)
          (xy -1.4224 -1.1176)
          (xy -1.778 -1.016)
          (xy -1.9812 -0.9144)
          (xy -2.1844 -0.7112)
          (xy -2.3368 -0.4572)
          (xy -2.4384 -0.1524)
        )
        (stroke (width 0.001) (type default) (color 255 255 255 1))
        (fill (type color) (color 255 255 255 1))
      )
      (polyline
        (pts
          (xy 2.4892 -0.1524)
          (xy 2.1336 -0.1524)
          (xy 1.6764 -0.1524)
          (xy 1.5748 -0.3048)
          (xy 1.4224 -0.4064)
          (xy 1.27 -0.4572)
          (xy 1.0668 -0.4064)
          (xy 0.9144 -0.3048)
          (xy 0.8636 -0.2032)
          (xy -0.762 -0.254)
          (xy -1.3716 -1.1176)
          (xy 1.3208 -1.1176)
          (xy 1.524 -1.1176)
          (xy 1.8796 -1.016)
          (xy 2.0828 -0.9144)
          (xy 2.286 -0.7112)
          (xy 2.4384 -0.4572)
          (xy 2.54 -0.1524)
        )
        (stroke (width 0.001) (type default) (color 255 255 255 1))
        (fill (type color) (color 255 255 255 1))
      )
      (polyline
        (pts
          (xy 2.54 0.1524)
          (xy 2.4384 0.4064)
          (xy 2.286 0.6604)
          (xy 2.1336 0.8636)
          (xy 1.9304 1.016)
          (xy 1.5748 1.1176)
          (xy 1.4224 1.1176)
          (xy 1.1684 0.9144)
          (xy 1.3208 0.9144)
          (xy 1.3716 0.8128)
          (xy 1.3716 0.6604)
          (xy 1.1684 0.5588)
          (xy -0.7112 -0.1016)
          (xy -0.8128 -0.3048)
          (xy 0.8636 -0.2032)
          (xy 0.8128 0)
          (xy 0.8636 0.2032)
          (xy 1.016 0.3556)
          (xy 1.2192 0.4572)
          (xy 1.4732 0.4064)
          (xy 1.5748 0.3048)
          (xy 1.6764 0.1524)
          (xy 2.4892 0.1524)
        )
        (stroke (width 0.001) (type default) (color 255 255 255 1))
        (fill (type color) (color 255 255 255 1))
      )
      (circle (center 1.27 0) (radius 0.284)
        (stroke (width 0.2) (type default) (color 0 0 0 1))
        (fill (type color) (color 255 255 255 1))
      )
      (circle (center 6.35 0) (radius 0.284)
        (stroke (width 0.3) (type default) (color 0 0 0 1))
        (fill (type color) (color 0 0 0 1))
      )
      (pin input line (at -6.35 0 0) (length 2.54)
        (name "" (effects (font (size 1.27 1.27))))
        (number "1" (effects (font (size 1.27 1.27))))
      )
      (pin input line (at 6.35 0 180) (length 2.54)
        (name "" (effects (font (size 1.27 1.27))))
        (number "2" (effects (font (size 1.27 1.27))))
      )
    )
  )
)
