(kicad_symbol_lib (version 20220914) (generator kicad_symbol_editor)
  (symbol "Clamp terminal 4p L1-3 N PE" (power) (pin_numbers hide) (pin_names (offset 0.6)) (in_bom no) (on_board no)
    (property "Reference" "x" (at -22.86 0 90)
      (effects (font (size 1.27 1.27)))
    )
    (property "Value" "Clamp terminal 4p L1-3 N PE" (at 20.32 1.27 90)
      (effects (font (size 1.27 1.27)) hide)
    )
    (property "Footprint" "" (at 9.525 1.905 0)
      (effects (font (size 1.27 1.27)) hide)
    )
    (property "Datasheet" "" (at -3.175 8.89 0)
      (effects (font (size 1.27 1.27)) hide)
    )
    (property "Sim.Enable" "0" (at -3.81 0 0)
      (effects (font (size 1.27 1.27)) hide)
    )
    (property "de" "Haupt-Abzweigklemme 4p 5l" (at 20.32 0 90)
      (effects (font (size 1.27 1.27) (color 0 0 0 1)))
    )
    (property "Ausgabe" "${COMMENT2}${REFERENCE}.${Zeile}${Strompfad}" (at -20.32 0 90)
      (effects (font (size 1.27 1.27)))
    )
    (property "Zeile" "" (at -3.81 0 0)
      (effects (font (size 1.27 1.27)) hide)
    )
    (property "Strompfad" "" (at -3.81 0 0)
      (effects (font (size 1.27 1.27)) hide)
    )
    (property "ki_keywords" "Abzweigklemme 4p 5l" (at 0 0 0)
      (effects (font (size 1.27 1.27)) hide)
    )
    (symbol "Clamp terminal 4p L1-3 N PE_0_0"
      (text "" (at -11.43 -2.54 0)
        (effects (font (size 1.27 1.27)))
      )
    )
    (symbol "Clamp terminal 4p L1-3 N PE_0_1"
      (circle (center -17.78 2.54) (radius 0.3458)
        (stroke (width 0.2) (type default) (color 0 0 0 1))
        (fill (type none))
      )
      (circle (center -15.24 -2.54) (radius 0.3458)
        (stroke (width 0.2) (type default) (color 0 0 0 1))
        (fill (type none))
      )
      (circle (center -15.24 2.54) (radius 0.3458)
        (stroke (width 0.2) (type default) (color 0 0 0 1))
        (fill (type none))
      )
      (circle (center -12.7 2.54) (radius 0.3458)
        (stroke (width 0.2) (type default) (color 0 0 0 1))
        (fill (type none))
      )
      (circle (center -10.16 2.54) (radius 0.3458)
        (stroke (width 0.2) (type default) (color 0 0 0 1))
        (fill (type none))
      )
      (circle (center -7.62 -2.54) (radius 0.3458)
        (stroke (width 0.2) (type default) (color 0 0 0 1))
        (fill (type none))
      )
      (circle (center -7.62 2.54) (radius 0.3458)
        (stroke (width 0.2) (type default) (color 0 0 0 1))
        (fill (type none))
      )
      (circle (center -5.08 2.54) (radius 0.3458)
        (stroke (width 0.2) (type default) (color 0 0 0 1))
        (fill (type none))
      )
      (circle (center -2.54 2.54) (radius 0.3458)
        (stroke (width 0.2) (type default) (color 0 0 0 1))
        (fill (type none))
      )
      (circle (center 0 -2.54) (radius 0.3458)
        (stroke (width 0.2) (type default) (color 0 0 0 1))
        (fill (type none))
      )
      (circle (center 0 2.54) (radius 0.3458)
        (stroke (width 0.2) (type default) (color 0 0 0 1))
        (fill (type none))
      )
      (circle (center 2.54 2.54) (radius 0.3458)
        (stroke (width 0.2) (type default) (color 0 0 0 1))
        (fill (type none))
      )
      (circle (center 5.08 2.54) (radius 0.3458)
        (stroke (width 0.2) (type default) (color 0 0 0 1))
        (fill (type none))
      )
      (circle (center 7.62 -2.54) (radius 0.3458)
        (stroke (width 0.2) (type default) (color 0 0 0 1))
        (fill (type none))
      )
      (circle (center 7.62 2.54) (radius 0.3458)
        (stroke (width 0.2) (type default) (color 0 0 0 1))
        (fill (type none))
      )
      (circle (center 10.16 2.54) (radius 0.3458)
        (stroke (width 0.2) (type default) (color 0 0 0 1))
        (fill (type none))
      )
      (circle (center 12.7 2.54) (radius 0.3458)
        (stroke (width 0.2) (type default) (color 0 0 0 1))
        (fill (type none))
      )
      (circle (center 15.24 -2.54) (radius 0.3458)
        (stroke (width 0.2) (type default) (color 0 0 0 1))
        (fill (type none))
      )
      (circle (center 15.24 2.54) (radius 0.3458)
        (stroke (width 0.2) (type default) (color 0 0 0 1))
        (fill (type none))
      )
      (circle (center 17.78 2.54) (radius 0.3458)
        (stroke (width 0.2) (type default) (color 0 0 0 1))
        (fill (type none))
      )
    )
    (symbol "Clamp terminal 4p L1-3 N PE_1_1"
      (rectangle (start -19.05 2.54) (end 19.05 -2.54)
        (stroke (width 0.001) (type solid) (color 255 255 255 1))
        (fill (type background))
      )
      (polyline
        (pts
          (xy -17.78 2.54)
          (xy -12.7 2.54)
        )
        (stroke (width 0.5) (type default) (color 132 0 0 1))
        (fill (type none))
      )
      (polyline
        (pts
          (xy -10.16 2.54)
          (xy -5.08 2.54)
        )
        (stroke (width 0.5) (type default) (color 0 0 0 1))
        (fill (type none))
      )
      (polyline
        (pts
          (xy -2.54 2.54)
          (xy 2.54 2.54)
        )
        (stroke (width 0.5) (type default) (color 132 132 132 1))
        (fill (type none))
      )
      (polyline
        (pts
          (xy 10.16 2.54)
          (xy 5.08 2.54)
        )
        (stroke (width 0.5) (type default) (color 0 0 255 1))
        (fill (type none))
      )
      (polyline
        (pts
          (xy 17.78 2.54)
          (xy 12.7 2.54)
        )
        (stroke (width 0.5) (type default) (color 0 194 0 1))
        (fill (type none))
      )
      (polyline
        (pts
          (xy -15.24 -2.54)
          (xy -13.97 -2.54)
          (xy -13.97 2.54)
        )
        (stroke (width 0.5) (type default) (color 132 0 0 1))
        (fill (type none))
      )
      (polyline
        (pts
          (xy -7.62 -2.54)
          (xy -6.35 -2.54)
          (xy -6.35 2.54)
        )
        (stroke (width 0.5) (type default) (color 0 0 0 1))
        (fill (type none))
      )
      (polyline
        (pts
          (xy 0 -2.54)
          (xy 1.27 -2.54)
          (xy 1.27 2.54)
        )
        (stroke (width 0.5) (type default) (color 132 132 132 1))
        (fill (type none))
      )
      (polyline
        (pts
          (xy 7.62 -2.54)
          (xy 8.89 -2.54)
          (xy 8.89 2.54)
        )
        (stroke (width 0.5) (type default) (color 0 0 255 1))
        (fill (type none))
      )
      (polyline
        (pts
          (xy 15.24 -2.54)
          (xy 16.51 -2.54)
          (xy 16.51 2.54)
        )
        (stroke (width 0.5) (type default) (color 0 194 0 1))
        (fill (type none))
      )
      (pin bidirectional line (at -15.24 -2.54 90) (length 0.01)
        (name "L1" (effects (font (size 1 1))))
        (number "1" (effects (font (size 1.27 1.27))))
      )
      (pin bidirectional line (at 0 2.54 270) (length 0.01)
        (name "" (effects (font (size 0.8 0.8))))
        (number "10" (effects (font (size 1.27 1.27))))
      )
      (pin bidirectional line (at 0 -2.54 90) (length 0.01)
        (name "L3" (effects (font (size 1 1))))
        (number "11" (effects (font (size 1.27 1.27))))
      )
      (pin bidirectional line (at 2.54 2.54 270) (length 0.01)
        (name "" (effects (font (size 0.8 0.8))))
        (number "12" (effects (font (size 1.27 1.27))))
      )
      (pin bidirectional line (at 5.08 2.54 270) (length 0.01)
        (name "" (effects (font (size 0.8 0.8))))
        (number "13" (effects (font (size 1.27 1.27))))
      )
      (pin bidirectional line (at 12.7 2.54 270) (length 0.01)
        (name "" (effects (font (size 0.8 0.8))))
        (number "14" (effects (font (size 1.27 1.27))))
      )
      (pin bidirectional line (at 7.62 2.54 270) (length 0.01)
        (name "" (effects (font (size 0.8 0.8))))
        (number "15" (effects (font (size 1.27 1.27))))
      )
      (pin bidirectional line (at 15.24 2.54 270) (length 0.01)
        (name "" (effects (font (size 0.8 0.8))))
        (number "16" (effects (font (size 1.27 1.27))))
      )
      (pin bidirectional line (at 7.62 -2.54 90) (length 0.01)
        (name "N" (effects (font (size 1 1))))
        (number "17" (effects (font (size 1.27 1.27))))
      )
      (pin bidirectional line (at 15.24 -2.54 90) (length 0.01)
        (name "PE" (effects (font (size 1 1))))
        (number "18" (effects (font (size 1.27 1.27))))
      )
      (pin bidirectional line (at 10.16 2.54 270) (length 0.01)
        (name "" (effects (font (size 0.8 0.8))))
        (number "19" (effects (font (size 1.27 1.27))))
      )
      (pin bidirectional line (at -17.78 2.54 270) (length 0.01)
        (name "" (effects (font (size 0.8 0.8))))
        (number "2" (effects (font (size 1.27 1.27))))
      )
      (pin bidirectional line (at 17.78 2.54 270) (length 0.01)
        (name "" (effects (font (size 0.8 0.8))))
        (number "20" (effects (font (size 1.27 1.27))))
      )
      (pin bidirectional line (at -15.24 2.54 270) (length 0.01)
        (name "" (effects (font (size 0.8 0.8))))
        (number "3" (effects (font (size 1.27 1.27))))
      )
      (pin bidirectional line (at -12.7 2.54 270) (length 0.01)
        (name "" (effects (font (size 0.8 0.8))))
        (number "4" (effects (font (size 1.27 1.27))))
      )
      (pin bidirectional line (at -10.16 2.54 270) (length 0.01)
        (name "" (effects (font (size 0.8 0.8))))
        (number "5" (effects (font (size 1.27 1.27))))
      )
      (pin bidirectional line (at -7.62 2.54 270) (length 0.01)
        (name "" (effects (font (size 0.8 0.8))))
        (number "6" (effects (font (size 1.27 1.27))))
      )
      (pin bidirectional line (at -7.62 -2.54 90) (length 0.01)
        (name "L2" (effects (font (size 1 1))))
        (number "7" (effects (font (size 1.27 1.27))))
      )
      (pin bidirectional line (at -5.08 2.54 270) (length 0.01)
        (name "" (effects (font (size 0.8 0.8))))
        (number "8" (effects (font (size 1.27 1.27))))
      )
      (pin bidirectional line (at -2.54 2.54 270) (length 0.01)
        (name "" (effects (font (size 0.8 0.8))))
        (number "9" (effects (font (size 1.27 1.27))))
      )
    )
  )
)
