(kicad_symbol_lib (version 20220914) (generator kicad_symbol_editor)
  (symbol "11-17-34" (pin_numbers hide) (pin_names (offset 0) hide) (in_bom no) (on_board no)
    (property "Reference" "#" (at 0 -7.239 0)
      (effects (font (size 1.27 1.27)) hide)
    )
    (property "Value" "Elément droit comprenant trois compartiments séparés" (at 0 4.445 0)
      (effects (font (size 1.27 1.27)) hide)
    )
    (property "Footprint" "" (at 0 -9.525 0)
      (effects (font (size 1.27 1.27)) hide)
    )
    (property "Datasheet" "" (at 0 -9.525 0)
      (effects (font (size 1.27 1.27)) hide)
    )
    (property "Sim.Enable" "0" (at 0 -7.493 0)
      (effects (font (size 1.27 1.27)) hide)
    )
    (property "Nr." "11-17-34" (at 0 -5.08 0)
      (effects (font (size 1.27 1.27) (color 0 0 0 1)))
    )
    (property "de" "Gerader Elektro-Installationskanal, bestehend aus drei getrennten Kammern" (at 0 4.445 0)
      (effects (font (size 1.27 1.27)) hide)
    )
    (property "Ausgabe" "${COMMENT2}${REFERENCE}.${Zeile}${Strompfad}" (at 0.635 6.35 0)
      (effects (font (size 1.27 1.27)) hide)
    )
    (property "Zeile" "" (at 0 2.159 0)
      (effects (font (size 1.27 1.27)) hide)
    )
    (property "Strompfad" "" (at 0 2.159 0)
      (effects (font (size 1.27 1.27)) hide)
    )
    (property "ki_keywords" "Gerader Elektro-Installationskanal, bestehend aus drei getrennten Kammern;11-17-34;Elément droit comprenant trois compartiments séparés" (at 0 0 0)
      (effects (font (size 1.27 1.27)) hide)
    )
    (property "ki_description" "Canalisations préfabriquées" (at 0 0 0)
      (effects (font (size 1.27 1.27)) hide)
    )
    (symbol "11-17-34_1_1"
      (polyline
        (pts
          (xy -3.81 -0.889)
          (xy -3.81 2.794)
        )
        (stroke (width 0.2) (type default) (color 0 0 0 1))
        (fill (type none))
      )
      (polyline
        (pts
          (xy -3.81 0)
          (xy 3.81 0)
        )
        (stroke (width 0.2) (type default) (color 0 0 0 1))
        (fill (type none))
      )
      (polyline
        (pts
          (xy -3.81 2.032)
          (xy 3.81 2.032)
        )
        (stroke (width 0.2) (type default) (color 0 0 0 1))
        (fill (type none))
      )
      (polyline
        (pts
          (xy -2.286 -2.032)
          (xy 2.413 -2.032)
        )
        (stroke (width 0.2) (type default) (color 0 0 0 1))
        (fill (type none))
      )
      (polyline
        (pts
          (xy 3.81 -0.889)
          (xy 3.81 2.794)
        )
        (stroke (width 0.2) (type default) (color 0 0 0 1))
        (fill (type none))
      )
      (polyline
        (pts
          (xy 0.762 -1.016)
          (xy 0.762 -3.048)
          (xy -0.762 -3.048)
          (xy -0.762 -1.016)
          (xy 0.762 -1.016)
          (xy 0.762 -2.032)
          (xy -0.762 -2.032)
        )
        (stroke (width 0.2) (type default) (color 0 0 0 1))
        (fill (type color) (color 255 255 255 1))
      )
      (polyline
        (pts
          (xy 0.762 1.016)
          (xy 0.762 -1.016)
          (xy -0.762 -1.016)
          (xy -0.762 1.016)
          (xy 0.762 1.016)
          (xy 0.762 0)
          (xy -0.762 0)
        )
        (stroke (width 0.2) (type default) (color 0 0 0 1))
        (fill (type color) (color 255 255 255 1))
      )
      (polyline
        (pts
          (xy 0.762 3.048)
          (xy 0.762 1.016)
          (xy -0.762 1.016)
          (xy -0.762 3.048)
          (xy 0.762 3.048)
          (xy 0.762 2.032)
          (xy -0.762 2.032)
        )
        (stroke (width 0.2) (type default) (color 0 0 0 1))
        (fill (type color) (color 255 255 255 1))
      )
      (text "A" (at 1.778 2.667 0)
        (effects (font (face "Arial Rounded MT Bold") (size 1 1) bold (color 0 0 0 1)))
      )
      (text "B" (at 1.778 0.635 0)
        (effects (font (face "Arial Rounded MT Bold") (size 1 1) bold (color 0 0 0 1)))
      )
      (text "C" (at 1.778 -1.397 0)
        (effects (font (face "Arial Rounded MT Bold") (size 1 1) bold (color 0 0 0 1)))
      )
    )
  )
)
