(kicad_symbol_lib (version 20220914) (generator kicad_symbol_editor)
  (symbol "11-17-12" (pin_numbers hide) (pin_names (offset 0) hide) (in_bom no) (on_board no)
    (property "Reference" "#" (at -0.127 -7.239 0)
      (effects (font (size 1.27 1.27)) hide)
    )
    (property "Value" "Élément de dilatation pour conducteurs" (at -0.127 4.826 0)
      (effects (font (size 1.27 1.27)) hide)
    )
    (property "Footprint" "" (at -0.127 -9.525 0)
      (effects (font (size 1.27 1.27)) hide)
    )
    (property "Datasheet" "" (at -0.127 -9.525 0)
      (effects (font (size 1.27 1.27)) hide)
    )
    (property "Sim.Enable" "0" (at -0.127 -7.493 0)
      (effects (font (size 1.27 1.27)) hide)
    )
    (property "Nr." "11-17-12" (at -0.127 -5.08 0)
      (effects (font (size 1.27 1.27) (color 0 0 0 1)))
    )
    (property "de" "Ausdehnungsstück für Leiter" (at -0.127 4.826 0)
      (effects (font (size 1.27 1.27)) hide)
    )
    (property "Ausgabe" "${COMMENT2}${REFERENCE}.${Zeile}${Strompfad}" (at 0.508 6.731 0)
      (effects (font (size 1.27 1.27)) hide)
    )
    (property "Zeile" "" (at 2.159 1.778 90)
      (effects (font (size 1.27 1.27)) hide)
    )
    (property "Strompfad" "" (at 2.159 1.778 90)
      (effects (font (size 1.27 1.27)) hide)
    )
    (property "ki_keywords" "Ausdehnungsstück für Leiter;11-17-12;Élément de dilatation pour conducteurs" (at 0 0 0)
      (effects (font (size 1.27 1.27)) hide)
    )
    (property "ki_description" "Canalisations préfabriquées" (at 0 0 0)
      (effects (font (size 1.27 1.27)) hide)
    )
    (symbol "11-17-12_1_1"
      (arc (start -0.0123 3.1919) (mid -1.1563 2.3817) (end -0.7743 1.0329)
        (stroke (width 0.2) (type default) (color 0 0 0 1))
        (fill (type none))
      )
      (polyline
        (pts
          (xy -3.81 -0.635)
          (xy -3.81 0.635)
        )
        (stroke (width 0.2) (type default) (color 0 0 0 1))
        (fill (type none))
      )
      (polyline
        (pts
          (xy -3.683 0)
          (xy -0.635 0)
        )
        (stroke (width 0.2) (type default) (color 0 0 0 1))
        (fill (type none))
      )
      (polyline
        (pts
          (xy -0.762 1.016)
          (xy -2.032 1.016)
        )
        (stroke (width 0.2) (type default) (color 0 0 0 1))
        (fill (type none))
      )
      (polyline
        (pts
          (xy -0.635 0)
          (xy 3.683 0)
        )
        (stroke (width 0.2) (type default) (color 0 0 0 1))
        (fill (type none))
      )
      (polyline
        (pts
          (xy 0.762 1.016)
          (xy 2.032 1.016)
        )
        (stroke (width 0.2) (type default) (color 0 0 0 1))
        (fill (type none))
      )
      (polyline
        (pts
          (xy 3.81 0.635)
          (xy 3.81 -0.635)
        )
        (stroke (width 0.2) (type default) (color 0 0 0 1))
        (fill (type none))
      )
      (arc (start 0.7787 1.0359) (mid 1.1607 2.3847) (end 0.0167 3.1949)
        (stroke (width 0.2) (type default) (color 0 0 0 1))
        (fill (type none))
      )
    )
  )
)
