(kicad_symbol_lib (version 20220914) (generator kicad_symbol_editor)
  (symbol "11-17-29" (pin_numbers hide) (pin_names (offset 0) hide) (in_bom no) (on_board no)
    (property "Reference" "#" (at 0 -7.239 0)
      (effects (font (size 1.27 1.27)) hide)
    )
    (property "Value" "Élément droit avec dérivation fixe comprenant un coffret d'appareillage" (at 0 4.445 0)
      (effects (font (size 1.27 1.27)) hide)
    )
    (property "Footprint" "" (at 0 -9.525 0)
      (effects (font (size 1.27 1.27)) hide)
    )
    (property "Datasheet" "" (at 0 -9.525 0)
      (effects (font (size 1.27 1.27)) hide)
    )
    (property "Sim.Enable" "0" (at 0 -7.493 0)
      (effects (font (size 1.27 1.27)) hide)
    )
    (property "Nr." "11-17-29" (at 0 -5.08 0)
      (effects (font (size 1.27 1.27) (color 0 0 0 1)))
    )
    (property "de" "Gerader Elektro-Installationskanal mit festem Abzweig und Geräte-Einbaukasten" (at 0 4.445 0)
      (effects (font (size 1.27 1.27)) hide)
    )
    (property "Ausgabe" "${COMMENT2}${REFERENCE}.${Zeile}${Strompfad}" (at 0.635 6.35 0)
      (effects (font (size 1.27 1.27)) hide)
    )
    (property "Zeile" "" (at 0 2.667 0)
      (effects (font (size 1.27 1.27)) hide)
    )
    (property "Strompfad" "" (at 0 2.667 0)
      (effects (font (size 1.27 1.27)) hide)
    )
    (property "ki_keywords" "Gerader Elektro-Installationskanal mit festem Abzweig und Geräte-Einbaukasten;11-17-29;Élément droit avec dérivation fixe comprenant un coffret d'appareillage" (at 0 0 0)
      (effects (font (size 1.27 1.27)) hide)
    )
    (property "ki_description" "Canalisations préfabriquées" (at 0 0 0)
      (effects (font (size 1.27 1.27)) hide)
    )
    (symbol "11-17-29_1_1"
      (rectangle (start -1.016 0.127) (end 0.889 -1.651)
        (stroke (width 0.2) (type default) (color 0 0 0 1))
        (fill (type color) (color 255 255 255 1))
      )
      (polyline
        (pts
          (xy -3.81 2.032)
          (xy -3.81 3.302)
        )
        (stroke (width 0.2) (type default) (color 0 0 0 1))
        (fill (type none))
      )
      (polyline
        (pts
          (xy -3.81 2.667)
          (xy 3.81 2.667)
        )
        (stroke (width 0.2) (type default) (color 0 0 0 1))
        (fill (type none))
      )
      (polyline
        (pts
          (xy 0 -1.778)
          (xy 0 -3.556)
        )
        (stroke (width 0.2) (type default) (color 0 0 0 1))
        (fill (type color) (color 255 255 255 1))
      )
      (polyline
        (pts
          (xy 0 0.254)
          (xy 0 1.524)
        )
        (stroke (width 0.2) (type default) (color 0 0 0 1))
        (fill (type none))
      )
      (polyline
        (pts
          (xy 0.635 -3.556)
          (xy -0.635 -3.556)
        )
        (stroke (width 0.2) (type default) (color 0 0 0 1))
        (fill (type none))
      )
      (polyline
        (pts
          (xy 3.81 2.032)
          (xy 3.81 3.302)
        )
        (stroke (width 0.2) (type default) (color 0 0 0 1))
        (fill (type none))
      )
      (polyline
        (pts
          (xy -0.9652 2.54)
          (xy -0.9144 2.3622)
          (xy -0.8636 2.2098)
          (xy -0.7874 2.0828)
          (xy -0.6604 1.9558)
          (xy -0.5588 1.8796)
          (xy -0.4572 1.8034)
          (xy -0.2794 1.7272)
          (xy -0.127 1.7018)
          (xy 0 1.7018)
          (xy 0.1778 1.7272)
          (xy 0.254 1.7526)
          (xy 0.381 1.8034)
          (xy 0.508 1.8542)
          (xy 0.635 1.9304)
          (xy 0.7366 2.032)
          (xy 0.8128 2.159)
          (xy 0.8636 2.2606)
          (xy 0.9144 2.3876)
          (xy 0.9652 2.5654)
        )
        (stroke (width 0.0001) (type default) (color 255 255 255 1))
        (fill (type color) (color 255 255 255 1))
      )
      (polyline
        (pts
          (xy -0.9398 2.7686)
          (xy -0.889 2.9464)
          (xy -0.8382 3.0988)
          (xy -0.762 3.2258)
          (xy -0.635 3.3528)
          (xy -0.5334 3.429)
          (xy -0.4318 3.5052)
          (xy -0.254 3.5814)
          (xy -0.1016 3.6068)
          (xy 0.0254 3.6068)
          (xy 0.2032 3.5814)
          (xy 0.2794 3.556)
          (xy 0.4064 3.5052)
          (xy 0.5334 3.4544)
          (xy 0.6604 3.3782)
          (xy 0.762 3.2766)
          (xy 0.8382 3.1496)
          (xy 0.889 3.048)
          (xy 0.9398 2.921)
          (xy 0.9906 2.7432)
        )
        (stroke (width 0.0001) (type default) (color 255 255 255 1))
        (fill (type color) (color 255 255 255 1))
      )
      (circle (center 0 2.667) (radius 1.0851)
        (stroke (width 0.2) (type default) (color 0 0 0 1))
        (fill (type none))
      )
      (text "*" (at 0 -1.27 0)
        (effects (font (size 1.5 1.5) (color 0 0 0 1)))
      )
    )
  )
)
