(kicad_symbol_lib (version 20220914) (generator kicad_symbol_editor)
  (symbol "11-17-11" (pin_numbers hide) (pin_names (offset 0) hide) (in_bom no) (on_board no)
    (property "Reference" "#" (at -0.127 -7.239 0)
      (effects (font (size 1.27 1.27)) hide)
    )
    (property "Value" "Élément de dilatation pour enveloppe" (at -0.127 4.826 0)
      (effects (font (size 1.27 1.27)) hide)
    )
    (property "Footprint" "" (at -0.127 -9.525 0)
      (effects (font (size 1.27 1.27)) hide)
    )
    (property "Datasheet" "" (at -0.127 -9.525 0)
      (effects (font (size 1.27 1.27)) hide)
    )
    (property "Sim.Enable" "0" (at -0.127 -7.493 0)
      (effects (font (size 1.27 1.27)) hide)
    )
    (property "Nr." "11-17-11" (at -0.127 -5.08 0)
      (effects (font (size 1.27 1.27) (color 0 0 0 1)))
    )
    (property "de" "Ausdehnungsstück für Gehäuse" (at -0.127 4.826 0)
      (effects (font (size 1.27 1.27)) hide)
    )
    (property "Ausgabe" "${COMMENT2}${REFERENCE}.${Zeile}${Strompfad}" (at 0.508 6.731 0)
      (effects (font (size 1.27 1.27)) hide)
    )
    (property "Zeile" "" (at 2.159 1.778 90)
      (effects (font (size 1.27 1.27)) hide)
    )
    (property "Strompfad" "" (at 2.159 1.778 90)
      (effects (font (size 1.27 1.27)) hide)
    )
    (property "ki_keywords" "Ausdehnungsstück für Gehäuse;11-17-11;Élément de dilatation pour enveloppe" (at 0 0 0)
      (effects (font (size 1.27 1.27)) hide)
    )
    (property "ki_description" "Canalisations préfabriquées" (at 0 0 0)
      (effects (font (size 1.27 1.27)) hide)
    )
    (symbol "11-17-11_1_1"
      (polyline
        (pts
          (xy -3.81 -0.635)
          (xy -3.81 0.635)
        )
        (stroke (width 0.2) (type default) (color 0 0 0 1))
        (fill (type none))
      )
      (polyline
        (pts
          (xy -3.81 0)
          (xy -0.762 0)
        )
        (stroke (width 0.2) (type default) (color 0 0 0 1))
        (fill (type none))
      )
      (polyline
        (pts
          (xy 0.808 0)
          (xy 3.683 0)
        )
        (stroke (width 0.2) (type default) (color 0 0 0 1))
        (fill (type none))
      )
      (polyline
        (pts
          (xy 3.81 0.635)
          (xy 3.81 -0.635)
        )
        (stroke (width 0.2) (type default) (color 0 0 0 1))
        (fill (type none))
      )
      (arc (start 0 2.159) (mid -1.144 1.3488) (end -0.762 0)
        (stroke (width 0.2) (type default) (color 0 0 0 1))
        (fill (type none))
      )
      (arc (start 0.791 0.003) (mid 1.173 1.3518) (end 0.029 2.162)
        (stroke (width 0.2) (type default) (color 0 0 0 1))
        (fill (type none))
      )
    )
  )
)
