(kicad_symbol_lib (version 20220914) (generator kicad_symbol_editor)
  (symbol "02-12-06" (pin_numbers hide) (pin_names (offset 0) hide) (in_bom yes) (on_board yes)
    (property "Reference" "SW" (at -3.048 -5.08 0)
      (effects (font (size 1.27 1.27)))
    )
    (property "Value" "Delayed effect" (at -10.16 0 90)
      (effects (font (size 1.27 1.27)) hide)
    )
    (property "Footprint" "" (at 10.16 -5.08 0)
      (effects (font (size 1.27 1.27)) hide)
    )
    (property "Datasheet" "" (at 10.16 -5.08 0)
      (effects (font (size 1.27 1.27)) hide)
    )
    (property "de" "Verzögerte Wirkung" (at 0 -7.366 0)
      (effects (font (size 1 1) (color 0 0 0 1)))
    )
    (property "ki_keywords" "Delayed effect;Verzögerte Wirkung" (at 0 0 0)
      (effects (font (size 1.27 1.27)) hide)
    )
    (property "ki_description" "Wirkung ist verzögert, wenn die Bewegung vom Bogen zu dessen Mittelpunkt gerichtet ist (Fallschirmwirkung)." (at 0 0 0)
      (effects (font (size 1.27 1.27)) hide)
    )
    (symbol "02-12-06_0_1"
      (rectangle (start -6.35 6.35) (end 0.762 -6.35)
        (stroke (width 0.001) (type dot) (color 255 255 255 1))
        (fill (type background))
      )
    )
    (symbol "02-12-06_1_1"
      (arc (start -0.7446 1.2229) (mid -1.9826 0.0763) (end -0.897 -1.2155)
        (stroke (width 0.2) (type default) (color 0 0 0 1))
        (fill (type none))
      )
      (polyline
        (pts
          (xy -2.032 -0.2032)
          (xy -4.6228 -0.2032)
        )
        (stroke (width 0.2) (type default) (color 0 0 0 1))
        (fill (type none))
      )
      (polyline
        (pts
          (xy -2.032 0.254)
          (xy -4.6228 0.254)
        )
        (stroke (width 0.2) (type default) (color 0 0 0 1))
        (fill (type none))
      )
    )
  )
)
