(kicad_symbol_lib (version 20220914) (generator kicad_symbol_editor)
  (symbol "02-13-28" (pin_numbers hide) (pin_names (offset 0) hide) (in_bom yes) (on_board yes)
    (property "Reference" "SW" (at -3.048 -5.08 0)
      (effects (font (size 1.27 1.27)))
    )
    (property "Value" "Semiconductor actuator" (at -11.43 -1.27 90)
      (effects (font (size 1.27 1.27)) hide)
    )
    (property "Footprint" "" (at 10.16 -5.08 0)
      (effects (font (size 1.27 1.27)) hide)
    )
    (property "Datasheet" "" (at 10.16 -5.08 0)
      (effects (font (size 1.27 1.27)) hide)
    )
    (property "de" "Halbleiter-Antrieb" (at -3.2004 -7.5438 0)
      (effects (font (size 1 1) (color 0 0 0 1)))
    )
    (property "ki_keywords" "Halbleiter-Antrieb;Semiconductor actuator" (at 0 0 0)
      (effects (font (size 1.27 1.27)) hide)
    )
    (property "ki_description" "Halbleiter-Antrieb" (at 0 0 0)
      (effects (font (size 1.27 1.27)) hide)
    )
    (symbol "02-13-28_0_1"
      (rectangle (start -10.1346 6.35) (end 0.7874 -6.35)
        (stroke (width 0.001) (type dot) (color 255 255 255 1))
        (fill (type background))
      )
    )
    (symbol "02-13-28_1_1"
      (rectangle (start -8.89 1.27) (end -4.572 -1.016)
        (stroke (width 0.2) (type default) (color 0 0 0 1))
        (fill (type none))
      )
      (polyline
        (pts
          (xy -3.81 0)
          (xy -4.572 0)
        )
        (stroke (width 0.2) (type default) (color 0 0 0 1))
        (fill (type none))
      )
      (polyline
        (pts
          (xy -2.286 0)
          (xy -3.048 0)
        )
        (stroke (width 0.2) (type default) (color 0 0 0 1))
        (fill (type none))
      )
      (polyline
        (pts
          (xy -0.762 0)
          (xy -1.524 0)
        )
        (stroke (width 0.2) (type default) (color 0 0 0 1))
        (fill (type none))
      )
      (polyline
        (pts
          (xy -6.7564 0.7112)
          (xy -6.7564 -0.5588)
          (xy -6.7564 0.0762)
          (xy -7.6454 0.0762)
          (xy -6.7564 0.0762)
          (xy -6.7564 0.3302)
          (xy -5.9944 0.7874)
          (xy -6.7564 0.3302)
          (xy -6.7564 -0.1778)
          (xy -5.969 -0.5334)
          (xy -6.3246 -0.508)
          (xy -6.223 -0.254)
          (xy -5.969 -0.5334)
          (xy -6.7564 -0.1778)
        )
        (stroke (width 0.2) (type default) (color 0 0 0 1))
        (fill (type color) (color 0 0 0 1))
      )
      (polyline
        (pts
          (xy -6.8072 0.8382)
          (xy -6.6802 0.8382)
          (xy -6.6294 0.7874)
          (xy -6.604 0.5842)
          (xy -5.9944 0.9398)
          (xy -5.8928 0.889)
          (xy -5.842 0.7874)
          (xy -5.8928 0.6858)
          (xy -6.604 0.254)
          (xy -6.604 -0.0762)
          (xy -6.35 -0.2032)
          (xy -6.2992 -0.127)
          (xy -6.1722 -0.1016)
          (xy -5.969 -0.3048)
          (xy -5.8166 -0.4826)
          (xy -5.842 -0.6096)
          (xy -5.9436 -0.6858)
          (xy -6.35 -0.6604)
          (xy -6.477 -0.5842)
          (xy -6.477 -0.4826)
          (xy -6.604 -0.4064)
          (xy -6.604 -0.6096)
          (xy -6.731 -0.7112)
          (xy -6.8326 -0.7112)
          (xy -6.9088 -0.6096)
          (xy -6.9088 -0.0762)
          (xy -7.6454 -0.0762)
          (xy -8.763 -0.8636)
          (xy -4.7244 -0.8636)
          (xy -4.7244 1.1176)
          (xy -8.7376 1.1176)
          (xy -8.7376 -0.8636)
          (xy -7.6708 -0.0762)
          (xy -7.7978 0)
          (xy -7.7724 0.1778)
          (xy -7.6454 0.2286)
          (xy -6.9088 0.2286)
          (xy -6.9088 0.7112)
          (xy -6.8072 0.8636)
        )
        (stroke (width 0.001) (type default) (color 255 255 255 1))
        (fill (type color) (color 255 255 255 1))
      )
    )
  )
)
