(kicad_symbol_lib (version 20220914) (generator kicad_symbol_editor)
  (symbol "02-12-04" (pin_numbers hide) (pin_names (offset 0) hide) (in_bom yes) (on_board yes)
    (property "Reference" "SW" (at -3.048 -5.08 0)
      (effects (font (size 1.27 1.27)))
    )
    (property "Value" "Lack of space for the circuit symbol" (at -10.16 0 90)
      (effects (font (size 1.27 1.27)) hide)
    )
    (property "Footprint" "" (at 10.16 -5.08 0)
      (effects (font (size 1.27 1.27)) hide)
    )
    (property "Datasheet" "" (at 10.16 -5.08 0)
      (effects (font (size 1.27 1.27)) hide)
    )
    (property "de" "Platzmangel Schaltzeichen" (at 0 -7.366 0)
      (effects (font (size 1 1) (color 0 0 0 1)))
    )
    (property "ki_keywords" "" (at 0 0 0)
      (effects (font (size 1.27 1.27)) hide)
    )
    (property "ki_description" "Dieses Schaltzeichen ist zu verwenden, wenn das Schaltzeichen 02-12-01 aus Platzgründen nicht verwendet werden kann." (at 0 0 0)
      (effects (font (size 1.27 1.27)) hide)
    )
    (symbol "02-12-04_0_1"
      (rectangle (start -6.35 6.35) (end 0.762 -6.35)
        (stroke (width 0.001) (type dot) (color 255 255 255 1))
        (fill (type background))
      )
    )
    (symbol "02-12-04_1_1"
      (polyline
        (pts
          (xy -0.8128 -0.2032)
          (xy -4.6228 -0.2032)
        )
        (stroke (width 0.2) (type default) (color 0 0 0 1))
        (fill (type none))
      )
      (polyline
        (pts
          (xy -0.8128 0.254)
          (xy -4.6228 0.254)
        )
        (stroke (width 0.2) (type default) (color 0 0 0 1))
        (fill (type none))
      )
    )
  )
)
