(kicad_symbol_lib (version 20220914) (generator kicad_symbol_editor)
  (symbol "02-13-21" (pin_numbers hide) (pin_names (offset 0) hide) (in_bom yes) (on_board yes)
    (property "Reference" "SW" (at -3.048 -5.08 0)
      (effects (font (size 1.27 1.27)))
    )
    (property "Value" "Actuated by pneumatic or hydraulic power, single acting" (at -12.7 -1.27 90)
      (effects (font (size 1.27 1.27)) hide)
    )
    (property "Footprint" "" (at 10.16 -5.08 0)
      (effects (font (size 1.27 1.27)) hide)
    )
    (property "Datasheet" "" (at 10.16 -5.08 0)
      (effects (font (size 1.27 1.27)) hide)
    )
    (property "de" "Ausgelöst durch pneumatische oder hydraulische Kraft in Pfeilrichtung" (at 0 -7.366 0)
      (effects (font (size 1 1) (color 0 0 0 1)))
    )
    (property "ki_keywords" "Ausgelöst durch pneumatische oder hydraulische Kraft in Pfeilrichtung;Actuated by pneumatic or hydraulic power, single acting" (at 0 0 0)
      (effects (font (size 1.27 1.27)) hide)
    )
    (property "ki_description" "Ausgelöst durch pneumatische oder hydraulische Kraft in Pfeilrichtung" (at 0 0 0)
      (effects (font (size 1.27 1.27)) hide)
    )
    (symbol "02-13-21_0_1"
      (rectangle (start -11.43 6.35) (end 0.762 -6.35)
        (stroke (width 0.001) (type dot) (color 255 255 255 1))
        (fill (type background))
      )
      (polyline
        (pts
          (xy -5.08 1.27)
          (xy -5.08 -1.27)
          (xy -7.62 -1.27)
          (xy -7.62 1.27)
          (xy -5.08 1.27)
        )
        (stroke (width 0.2) (type default) (color 0 0 0 1))
        (fill (type none))
      )
    )
    (symbol "02-13-21_1_1"
      (polyline
        (pts
          (xy -6.604 0)
          (xy -7.366 0)
        )
        (stroke (width 0.2) (type default) (color 0 0 0 1))
        (fill (type none))
      )
      (polyline
        (pts
          (xy -5.334 0)
          (xy -6.096 0)
        )
        (stroke (width 0.2) (type default) (color 0 0 0 1))
        (fill (type none))
      )
      (polyline
        (pts
          (xy -3.81 0)
          (xy -4.572 0)
        )
        (stroke (width 0.2) (type default) (color 0 0 0 1))
        (fill (type none))
      )
      (polyline
        (pts
          (xy -2.286 0)
          (xy -3.048 0)
        )
        (stroke (width 0.2) (type default) (color 0 0 0 1))
        (fill (type none))
      )
      (polyline
        (pts
          (xy -0.762 0)
          (xy -1.524 0)
        )
        (stroke (width 0.2) (type default) (color 0 0 0 1))
        (fill (type none))
      )
      (polyline
        (pts
          (xy -10.16 2.54)
          (xy -5.08 2.54)
          (xy -6.604 3.048)
          (xy -6.604 2.032)
          (xy -5.08 2.54)
        )
        (stroke (width 0.2) (type default) (color 0 0 0 1))
        (fill (type color) (color 0 0 0 1))
      )
      (polyline
        (pts
          (xy -7.62 1.27)
          (xy -7.62 -1.27)
          (xy -10.16 -1.27)
          (xy -10.16 1.27)
          (xy -7.62 1.27)
        )
        (stroke (width 0.2) (type default) (color 0 0 0 1))
        (fill (type color) (color 255 255 255 1))
      )
      (polyline
        (pts
          (xy -6.2484 0)
          (xy -6.4516 0)
          (xy -6.477 -0.0762)
          (xy -6.5532 -0.1524)
          (xy -7.366 -0.1524)
          (xy -7.4676 -0.1016)
          (xy -7.493 0.0254)
          (xy -7.4676 -1.1176)
          (xy -5.2324 -1.1176)
          (xy -5.2324 0.0254)
          (xy -5.2324 -0.1524)
          (xy -5.4102 -0.1524)
          (xy -5.9944 -0.1524)
          (xy -6.1722 -0.1524)
          (xy -6.2484 -0.0508)
        )
        (stroke (width 0.001) (type default) (color 255 255 255 1))
        (fill (type color) (color 255 255 255 1))
      )
      (polyline
        (pts
          (xy -6.2484 0)
          (xy -6.4516 0)
          (xy -6.477 0.0762)
          (xy -6.5532 0.1524)
          (xy -7.366 0.1524)
          (xy -7.4676 0.1016)
          (xy -7.493 -0.0254)
          (xy -7.4676 1.1176)
          (xy -5.2324 1.1176)
          (xy -5.2324 -0.0254)
          (xy -5.2324 0.1524)
          (xy -5.4102 0.1524)
          (xy -5.9944 0.1524)
          (xy -6.1722 0.1524)
          (xy -6.2484 0.0508)
        )
        (stroke (width 0.001) (type default) (color 255 255 255 1))
        (fill (type color) (color 255 255 255 1))
      )
    )
  )
)
