(kicad_symbol_lib (version 20220914) (generator kicad_symbol_editor)
  (symbol "02-13-16" (pin_numbers hide) (pin_names (offset 0) hide) (in_bom yes) (on_board yes)
    (property "Reference" "SW" (at -3.048 -5.08 0)
      (effects (font (size 1.27 1.27)))
    )
    (property "Value" "Operated by cam" (at -7.62 -1.27 90)
      (effects (font (size 1.27 1.27)) hide)
    )
    (property "Footprint" "" (at 10.16 -5.08 0)
      (effects (font (size 1.27 1.27)) hide)
    )
    (property "Datasheet" "" (at 10.16 -5.08 0)
      (effects (font (size 1.27 1.27)) hide)
    )
    (property "de" "Bestätigng durch Nocken" (at 0 -7.366 0)
      (effects (font (size 1 1) (color 0 0 0 1)))
    )
    (property "ki_keywords" "Bestätigng durch Nocken;Operated by cam" (at 0 0 0)
      (effects (font (size 1.27 1.27)) hide)
    )
    (property "ki_description" "Nocken und Nockenscheibe dürfen im Profil detailliert dargestellt sein. If desired, amore detailed drawing of the cam may be show. This applies also to a profile plate." (at 0 0 0)
      (effects (font (size 1.27 1.27)) hide)
    )
    (symbol "02-13-16_0_1"
      (rectangle (start -6.35 6.35) (end 0.762 -6.35)
        (stroke (width 0.001) (type dot) (color 255 255 255 1))
        (fill (type background))
      )
      (arc (start -4.445 -1.143) (mid -3.5435 -0.8676) (end -3.175 0)
        (stroke (width 0.2) (type default) (color 0 0 0 1))
        (fill (type none))
      )
      (arc (start -4.318 1.143) (mid -5.4429 0.059) (end -4.445 -1.143)
        (stroke (width 0.2) (type default) (color 0 0 0 1))
        (fill (type none))
      )
      (polyline
        (pts
          (xy -4.318 0)
          (xy -4.318 1.143)
        )
        (stroke (width 0.2) (type default) (color 0 0 0 1))
        (fill (type none))
      )
      (polyline
        (pts
          (xy -3.175 0)
          (xy -4.318 0)
        )
        (stroke (width 0.2) (type default) (color 0 0 0 1))
        (fill (type none))
      )
      (polyline
        (pts
          (xy -4.318 -0.1524)
          (xy -4.4196 -0.127)
          (xy -4.4704 -0.0508)
          (xy -4.4704 0.1016)
          (xy -4.4704 0.9906)
          (xy -4.6228 0.9398)
          (xy -4.7498 0.889)
          (xy -4.8768 0.8128)
          (xy -4.9784 0.7112)
          (xy -5.08 0.6096)
          (xy -5.207 0.4064)
          (xy -5.2578 0.2286)
          (xy -5.3086 0.0508)
          (xy -5.2832 -0.2286)
          (xy -5.207 -0.4318)
          (xy -5.1054 -0.6096)
          (xy -4.953 -0.762)
          (xy -4.826 -0.8636)
          (xy -4.572 -0.9652)
          (xy -4.2418 -1.016)
          (xy -3.937 -0.9398)
          (xy -3.7338 -0.8382)
          (xy -3.5814 -0.6858)
          (xy -3.4544 -0.5334)
          (xy -3.3528 -0.2794)
          (xy -3.3274 -0.1524)
          (xy -4.318 -0.1524)
        )
        (stroke (width 0.001) (type default) (color 255 255 255 1))
        (fill (type color) (color 255 255 255 1))
      )
    )
    (symbol "02-13-16_1_1"
      (polyline
        (pts
          (xy -2.286 0)
          (xy -3.048 0)
        )
        (stroke (width 0.2) (type default) (color 0 0 0 1))
        (fill (type none))
      )
      (polyline
        (pts
          (xy -0.762 0)
          (xy -1.524 0)
        )
        (stroke (width 0.2) (type default) (color 0 0 0 1))
        (fill (type none))
      )
    )
  )
)
