(kicad_symbol_lib (version 20220914) (generator kicad_symbol_editor)
  (symbol "02-12-15" (pin_numbers hide) (pin_names (offset 0) hide) (in_bom yes) (on_board yes)
    (property "Reference" "SW" (at -3.048 -5.08 0)
      (effects (font (size 1.27 1.27)))
    )
    (property "Value" "Blocking device engaged movement to left blocked" (at -7.62 0 90)
      (effects (font (size 1.27 1.27)) hide)
    )
    (property "Footprint" "" (at 10.16 -5.08 0)
      (effects (font (size 1.27 1.27)) hide)
    )
    (property "Datasheet" "" (at 10.16 -5.08 0)
      (effects (font (size 1.27 1.27)) hide)
    )
    (property "de" "Blockiereinrichtung, verklinkt Bewegung nach links ist blockiert." (at 0 -7.366 0)
      (effects (font (size 1 1) (color 0 0 0 1)))
    )
    (property "ki_keywords" "Blockiereinrichtung, verlinkt Bewegung nach links ist blockiert.;Blocking device engaged movement to left blocked" (at 0 0 0)
      (effects (font (size 1.27 1.27)) hide)
    )
    (property "ki_description" "Blockiereinrichtung, verlinkt Bewegung nach links ist blockiert." (at 0 0 0)
      (effects (font (size 1.27 1.27)) hide)
    )
    (symbol "02-12-15_0_1"
      (rectangle (start -6.35 6.35) (end 0.762 -6.35)
        (stroke (width 0.001) (type dot) (color 255 255 255 1))
        (fill (type background))
      )
    )
    (symbol "02-12-15_1_1"
      (polyline
        (pts
          (xy -5.334 0)
          (xy -6.096 0)
        )
        (stroke (width 0.2) (type default) (color 0 0 0 1))
        (fill (type none))
      )
      (polyline
        (pts
          (xy -4.4704 0.5588)
          (xy -4.4704 1.3208)
        )
        (stroke (width 0.2) (type default) (color 255 0 0 1))
        (fill (type none))
      )
      (polyline
        (pts
          (xy -3.81 0)
          (xy -4.572 0)
        )
        (stroke (width 0.2) (type default) (color 0 0 0 1))
        (fill (type none))
      )
      (polyline
        (pts
          (xy -2.286 0)
          (xy -3.048 0)
        )
        (stroke (width 0.2) (type default) (color 0 0 0 1))
        (fill (type none))
      )
      (polyline
        (pts
          (xy -0.762 0)
          (xy -1.524 0)
        )
        (stroke (width 0.2) (type default) (color 0 0 0 1))
        (fill (type none))
      )
      (polyline
        (pts
          (xy -4.0132 0.0254)
          (xy -4.0132 0.762)
          (xy -2.6162 0.762)
          (xy -2.6162 0)
          (xy -3.9878 0)
        )
        (stroke (width 0.2) (type default) (color 0 0 0 1))
        (fill (type color) (color 255 255 255 1))
      )
    )
  )
)
