(kicad_symbol_lib (version 20220914) (generator kicad_symbol_editor)
  (symbol "02-13-09" (pin_numbers hide) (pin_names (offset 0) hide) (in_bom yes) (on_board yes)
    (property "Reference" "SW" (at -3.048 -5.08 0)
      (effects (font (size 1.27 1.27)))
    )
    (property "Value" "Operated bei handwheel" (at -7.62 0 90)
      (effects (font (size 1.27 1.27)) hide)
    )
    (property "Footprint" "" (at 10.16 -5.08 0)
      (effects (font (size 1.27 1.27)) hide)
    )
    (property "Datasheet" "" (at 10.16 -5.08 0)
      (effects (font (size 1.27 1.27)) hide)
    )
    (property "de" "Bestätigung durch Handrad" (at 0 -7.366 0)
      (effects (font (size 1 1) (color 0 0 0 1)))
    )
    (property "ki_keywords" "Bestätigung durch Handrad;Operated bei handwheel" (at 0 0 0)
      (effects (font (size 1.27 1.27)) hide)
    )
    (symbol "02-13-09_0_1"
      (rectangle (start -6.35 6.35) (end 0.762 -6.35)
        (stroke (width 0.001) (type dot) (color 255 255 255 1))
        (fill (type background))
      )
      (circle (center -4.572 0) (radius 1.3678)
        (stroke (width 0.2) (type default) (color 0 0 0 1))
        (fill (type none))
      )
      (polyline
        (pts
          (xy -4.572 0)
          (xy -5.588 -0.762)
        )
        (stroke (width 0.2) (type default) (color 0 0 0 1))
        (fill (type none))
      )
      (polyline
        (pts
          (xy -4.572 0)
          (xy -4.572 1.27)
        )
        (stroke (width 0.2) (type default) (color 0 0 0 1))
        (fill (type none))
      )
      (polyline
        (pts
          (xy -4.572 0)
          (xy -3.556 -0.762)
        )
        (stroke (width 0.2) (type default) (color 0 0 0 1))
        (fill (type none))
      )
    )
    (symbol "02-13-09_1_1"
      (polyline
        (pts
          (xy -2.286 0)
          (xy -3.048 0)
        )
        (stroke (width 0.2) (type default) (color 0 0 0 1))
        (fill (type none))
      )
      (polyline
        (pts
          (xy -0.762 0)
          (xy -1.524 0)
        )
        (stroke (width 0.2) (type default) (color 0 0 0 1))
        (fill (type none))
      )
      (polyline
        (pts
          (xy -5.4864 -0.8382)
          (xy -5.3594 -0.9398)
          (xy -5.207 -1.0414)
          (xy -5.0038 -1.143)
          (xy -4.8006 -1.1938)
          (xy -4.5974 -1.2192)
          (xy -4.3688 -1.1938)
          (xy -4.1402 -1.143)
          (xy -3.937 -1.0414)
          (xy -3.81 -0.9398)
          (xy -3.683 -0.8636)
          (xy -4.572 -0.1778)
          (xy -5.4356 -0.8382)
        )
        (stroke (width 0.001) (type default) (color 255 255 255 1))
        (fill (type color) (color 255 255 255 1))
      )
      (polyline
        (pts
          (xy -3.5052 -0.5842)
          (xy -3.429 -0.4318)
          (xy -3.3782 -0.2286)
          (xy -3.3528 0)
          (xy -3.3782 0.3048)
          (xy -3.4798 0.5588)
          (xy -3.6322 0.762)
          (xy -3.7592 0.9144)
          (xy -3.9624 1.0668)
          (xy -4.1402 1.143)
          (xy -4.3688 1.1938)
          (xy -4.4196 1.2192)
          (xy -4.445 0.0762)
          (xy -3.5052 -0.6096)
        )
        (stroke (width 0.001) (type default) (color 255 255 255 1))
        (fill (type color) (color 255 255 255 1))
      )
      (polyline
        (pts
          (xy -4.8006 1.1938)
          (xy -4.9276 1.1684)
          (xy -5.1308 1.0668)
          (xy -5.3086 0.9652)
          (xy -5.4356 0.8382)
          (xy -5.5372 0.7112)
          (xy -5.6642 0.5334)
          (xy -5.715 0.381)
          (xy -5.7658 0.2286)
          (xy -5.7912 0)
          (xy -5.7658 -0.127)
          (xy -5.7658 -0.2286)
          (xy -5.715 -0.4064)
          (xy -5.6388 -0.5842)
          (xy -4.7244 0.0762)
          (xy -4.7244 1.2192)
        )
        (stroke (width 0.001) (type default) (color 255 255 255 1))
        (fill (type color) (color 255 255 255 1))
      )
    )
  )
)
