(kicad_symbol_lib (version 20220914) (generator kicad_symbol_editor)
  (symbol "Oscilloscope" (pin_numbers hide) (pin_names (offset 0) hide) (in_bom no) (on_board no)
    (property "Reference" "M" (at -10.16 0 90)
      (effects (font (size 1.27 1.27)))
    )
    (property "Value" "Oscilloscope" (at -7.62 0 90)
      (effects (font (size 1.27 1.27)) hide)
    )
    (property "Footprint" "" (at 8.89 7.493 0)
      (effects (font (size 1.27 1.27)) hide)
    )
    (property "Datasheet" "" (at 8.89 7.493 0)
      (effects (font (size 1.27 1.27)) hide)
    )
    (property "Sim.Enable" "0" (at 0 0 0)
      (effects (font (size 1.27 1.27)) hide)
    )
    (property "de" "Oszilloskop" (at -7.62 0 90)
      (effects (font (size 1.27 1.27) (color 0 0 0 1)))
    )
    (property "Pin1" "1" (at -1.016 6.096 0)
      (effects (font (size 1 1) bold (color 0 132 132 1)))
    )
    (property "Pin2" "2" (at -1.016 -6.35 0)
      (effects (font (size 1 1) bold (color 0 132 132 1)))
    )
    (property "Ausgabe" "${COMMENT2}${REFERENCE}.${Zeile}${Strompfad}" (at -5.08 0 90)
      (effects (font (size 1.27 1.27)))
    )
    (property "Zeile" "" (at 0 -7.62 0)
      (effects (font (size 1.27 1.27)) hide)
    )
    (property "Strompfad" "" (at 0 -7.62 0)
      (effects (font (size 1.27 1.27)) hide)
    )
    (property "ki_keywords" "Oszilloskop" (at 0 0 0)
      (effects (font (size 1.27 1.27)) hide)
    )
    (symbol "Oscilloscope_0_1"
      (circle (center 0 -7.62) (radius 0.3458)
        (stroke (width 0.2) (type default) (color 0 0 0 1))
        (fill (type none))
      )
      (polyline
        (pts
          (xy 0 -5.207)
          (xy 0 -3.302)
          (xy 0 -4.445)
        )
        (stroke (width 0.2) (type default) (color 0 0 0 1))
        (fill (type none))
      )
      (polyline
        (pts
          (xy 0 4.953)
          (xy 0 3.048)
          (xy 0 4.191)
        )
        (stroke (width 0.2) (type default) (color 0 0 0 1))
        (fill (type none))
      )
      (circle (center 0 7.62) (radius 0.3458)
        (stroke (width 0.2) (type default) (color 0 0 0 1))
        (fill (type none))
      )
    )
    (symbol "Oscilloscope_1_1"
      (rectangle (start -3.81 7.62) (end 3.81 -7.62)
        (stroke (width 0.001) (type dot) (color 255 255 255 1))
        (fill (type background))
      )
      (circle (center 0 -0.127) (radius 3.0819)
        (stroke (width 0.2) (type default) (color 0 0 0 1))
        (fill (type none))
      )
      (polyline
        (pts
          (xy 0 -5.08)
          (xy 0 -7.62)
          (xy 0 -7.366)
        )
        (stroke (width 0.5) (type default) (color 0 0 0 1))
        (fill (type none))
      )
      (polyline
        (pts
          (xy 0 7.62)
          (xy 0 5.08)
          (xy 0 5.334)
        )
        (stroke (width 0.5) (type default) (color 0 0 0 1))
        (fill (type none))
      )
      (polyline
        (pts
          (xy -1.778 -0.5588)
          (xy -0.0254 1.016)
          (xy -0.0254 -1.016)
          (xy 1.6764 0.508)
        )
        (stroke (width 0.4) (type default) (color 0 0 0 1))
        (fill (type color) (color 255 255 255 1))
      )
      (polyline
        (pts
          (xy -2.2606 -1.8542)
          (xy -1.9558 -0.8128)
          (xy -2.0574 -0.7112)
          (xy -2.0574 -0.4826)
          (xy -1.8288 -0.6096)
          (xy -0.127 0.9144)
          (xy 0.0762 0.9652)
          (xy 0.1524 1.2192)
          (xy 0.1778 0.762)
          (xy 0.2286 -0.7874)
          (xy 1.7018 0.508)
          (xy 1.7018 0.7874)
          (xy 1.905 0.508)
          (xy 2.3368 1.6764)
          (xy 2.1844 1.8288)
          (xy 2.0574 1.9558)
          (xy 1.8796 2.1336)
          (xy 1.651 2.286)
          (xy 1.4986 2.3876)
          (xy 1.2954 2.5146)
          (xy 1.016 2.6162)
          (xy 0.8128 2.6924)
          (xy 0.6096 2.7432)
          (xy 0.4064 2.7686)
          (xy 0.254 2.794)
          (xy 0.0254 2.8194)
          (xy -0.127 2.794)
          (xy -0.254 2.794)
          (xy -0.4572 2.7686)
          (xy -0.6604 2.7432)
          (xy -0.8128 2.6924)
          (xy -0.9144 2.667)
          (xy -1.0414 2.6162)
          (xy -1.2446 2.54)
          (xy -1.4224 2.4384)
          (xy -1.5748 2.3368)
          (xy -1.8034 2.1844)
          (xy -1.9558 2.0574)
          (xy -2.159 1.8796)
          (xy -2.2606 1.7272)
          (xy -2.413 1.524)
          (xy -2.5095 1.3841)
          (xy -2.6309 1.1748)
          (xy -2.7178 0.9652)
          (xy -2.8194 0.6604)
          (xy -2.8956 0.4064)
          (xy -2.921 0.1524)
          (xy -2.9464 -0.1524)
          (xy -2.921 -0.4572)
          (xy -2.8702 -0.762)
          (xy -2.794 -1.0414)
          (xy -2.6924 -1.2954)
          (xy -2.5908 -1.4732)
          (xy -2.54 -1.6002)
          (xy -2.4638 -1.7018)
          (xy -2.3368 -1.9304)
        )
        (stroke (width 0.0001) (type default) (color 255 255 255 1))
        (fill (type color) (color 255 255 255 1))
      )
      (polyline
        (pts
          (xy 2.3876 1.524)
          (xy 1.6764 0.7112)
          (xy 1.8288 0.635)
          (xy 1.8796 0.5334)
          (xy 1.8288 0.3556)
          (xy 0.127 -1.1684)
          (xy -0.0762 -1.2192)
          (xy -0.2032 -1.143)
          (xy -0.2286 -1.016)
          (xy -0.2286 0.5334)
          (xy -1.7018 -0.762)
          (xy -1.8542 -0.762)
          (xy -1.9812 -0.635)
          (xy -2.3368 -1.9304)
          (xy -2.1844 -2.0828)
          (xy -2.0574 -2.2098)
          (xy -1.8796 -2.3876)
          (xy -1.651 -2.54)
          (xy -1.4986 -2.6416)
          (xy -1.2954 -2.7686)
          (xy -1.016 -2.8702)
          (xy -0.8128 -2.9464)
          (xy -0.6096 -2.9972)
          (xy -0.4064 -3.0226)
          (xy -0.254 -3.048)
          (xy -0.0254 -3.0734)
          (xy 0.127 -3.048)
          (xy 0.254 -3.048)
          (xy 0.4572 -3.0226)
          (xy 0.6604 -2.9972)
          (xy 0.8128 -2.9464)
          (xy 0.9144 -2.921)
          (xy 1.0414 -2.8702)
          (xy 1.2446 -2.794)
          (xy 1.4224 -2.6924)
          (xy 1.5748 -2.5908)
          (xy 1.8034 -2.4384)
          (xy 1.9558 -2.3114)
          (xy 2.159 -2.1336)
          (xy 2.2606 -1.9812)
          (xy 2.413 -1.778)
          (xy 2.5095 -1.6381)
          (xy 2.6309 -1.4288)
          (xy 2.7178 -1.2192)
          (xy 2.8194 -0.9144)
          (xy 2.8956 -0.6604)
          (xy 2.921 -0.4064)
          (xy 2.9464 -0.1016)
          (xy 2.921 0.2032)
          (xy 2.8702 0.508)
          (xy 2.794 0.7874)
          (xy 2.6924 1.0414)
          (xy 2.5908 1.2192)
          (xy 2.54 1.3462)
          (xy 2.4638 1.4478)
          (xy 2.3876 1.5494)
        )
        (stroke (width 0.0001) (type default) (color 255 255 255 1))
        (fill (type color) (color 255 255 255 1))
      )
      (pin input line (at 0 7.62 270) (length 2.54)
        (name "L" (effects (font (size 1.27 1.27))))
        (number "1" (effects (font (size 1.27 1.27))))
      )
      (pin input line (at 0 -7.62 90) (length 2.54)
        (name "N" (effects (font (size 1.27 1.27))))
        (number "2" (effects (font (size 1.27 1.27))))
      )
    )
  )
)
