(kicad_symbol_lib (version 20220914) (generator kicad_symbol_editor)
  (symbol "Telemetry transmitter" (pin_numbers hide) (pin_names (offset 0) hide) (in_bom no) (on_board no)
    (property "Reference" "M" (at -10.16 0 90)
      (effects (font (size 1.27 1.27)))
    )
    (property "Value" "Telemetry transmitter" (at -7.62 0 90)
      (effects (font (size 1.27 1.27)) hide)
    )
    (property "Footprint" "" (at 8.89 7.493 0)
      (effects (font (size 1.27 1.27)) hide)
    )
    (property "Datasheet" "" (at 8.89 7.493 0)
      (effects (font (size 1.27 1.27)) hide)
    )
    (property "Sim.Enable" "0" (at 0 0 0)
      (effects (font (size 1.27 1.27)) hide)
    )
    (property "de" "Fernmesssender" (at -7.62 0 90)
      (effects (font (size 1.27 1.27) (color 0 0 0 1)))
    )
    (property "Pin1" "1" (at -1.016 6.096 0)
      (effects (font (size 1 1) bold (color 0 132 132 1)))
    )
    (property "Pin2" "2" (at -1.016 -6.35 0)
      (effects (font (size 1 1) bold (color 0 132 132 1)))
    )
    (property "M" "" (at 0 0 90)
      (effects (font (face "Raleway Black") (size 2.7 2.7) bold (color 0 0 0 1)))
    )
    (property "Ausgabe" "${COMMENT2}${REFERENCE}.${Zeile}${Strompfad}" (at -5.08 0 90)
      (effects (font (size 1.27 1.27)))
    )
    (property "Zeile" "" (at 0 -7.62 0)
      (effects (font (size 1.27 1.27)) hide)
    )
    (property "Strompfad" "" (at 0 -7.62 0)
      (effects (font (size 1.27 1.27)) hide)
    )
    (property "ki_keywords" "Fernmesssender" (at 0 0 0)
      (effects (font (size 1.27 1.27)) hide)
    )
    (symbol "Telemetry transmitter_0_1"
      (rectangle (start -3.81 7.62) (end 5.08 -7.62)
        (stroke (width 0.001) (type dot) (color 255 255 255 1))
        (fill (type background))
      )
      (circle (center 0 -7.62) (radius 0.3458)
        (stroke (width 0.2) (type default) (color 0 0 0 1))
        (fill (type none))
      )
      (polyline
        (pts
          (xy 0 -5.207)
          (xy 0 -2.286)
          (xy 0 -4.445)
        )
        (stroke (width 0.2) (type default) (color 0 0 0 1))
        (fill (type none))
      )
      (polyline
        (pts
          (xy 0 4.953)
          (xy 0 2.286)
          (xy 0 4.191)
        )
        (stroke (width 0.2) (type default) (color 0 0 0 1))
        (fill (type none))
      )
      (circle (center 0 7.62) (radius 0.3458)
        (stroke (width 0.2) (type default) (color 0 0 0 1))
        (fill (type none))
      )
    )
    (symbol "Telemetry transmitter_1_1"
      (rectangle (start -2.286 2.286) (end 2.159 -2.159)
        (stroke (width 0.2) (type default) (color 0 0 0 1))
        (fill (type none))
      )
      (polyline
        (pts
          (xy -2.159 -2.032)
          (xy 2.159 2.159)
        )
        (stroke (width 0.2) (type default) (color 0 0 0 1))
        (fill (type none))
      )
      (polyline
        (pts
          (xy 2.159 0)
          (xy 4.572 0)
        )
        (stroke (width 0.2) (type default) (color 0 0 0 1))
        (fill (type none))
      )
      (polyline
        (pts
          (xy -2.1336 2.1082)
          (xy 1.8796 2.1082)
          (xy -2.159 -1.8034)
        )
        (stroke (width 0.0001) (type default) (color 255 255 255 1))
        (fill (type color) (color 255 255 255 1))
      )
      (polyline
        (pts
          (xy 0 -5.08)
          (xy 0 -7.62)
          (xy 0 -7.366)
        )
        (stroke (width 0.5) (type default) (color 0 0 0 1))
        (fill (type none))
      )
      (polyline
        (pts
          (xy 0 7.62)
          (xy 0 5.08)
          (xy 0 5.334)
        )
        (stroke (width 0.5) (type default) (color 0 0 0 1))
        (fill (type none))
      )
      (polyline
        (pts
          (xy 2.032 -2.032)
          (xy -1.9812 -2.032)
          (xy 2.0574 1.8796)
        )
        (stroke (width 0.0001) (type default) (color 255 255 255 1))
        (fill (type color) (color 255 255 255 1))
      )
      (polyline
        (pts
          (xy 3.937 0)
          (xy 3.175 0.381)
          (xy 3.175 -0.381)
          (xy 3.937 0)
        )
        (stroke (width 0.2) (type default) (color 0 0 0 1))
        (fill (type color) (color 0 0 0 1))
      )
      (pin input line (at 0 7.62 270) (length 2.54)
        (name "1" (effects (font (size 1.27 1.27))))
        (number "1" (effects (font (size 1.27 1.27))))
      )
      (pin input line (at 0 -7.62 90) (length 2.54)
        (name "2" (effects (font (size 1.27 1.27))))
        (number "2" (effects (font (size 1.27 1.27))))
      )
    )
  )
)
