(kicad_symbol_lib (version 20220914) (generator kicad_symbol_editor)
  (symbol "Thermometer Fahrenheit " (pin_numbers hide) (pin_names (offset 0) hide) (in_bom no) (on_board no)
    (property "Reference" "M" (at -10.16 0 90)
      (effects (font (size 1.27 1.27)))
    )
    (property "Value" "Thermometer Fahrenheit " (at -7.62 0 90)
      (effects (font (size 1.27 1.27)) hide)
    )
    (property "Footprint" "" (at 8.89 7.493 0)
      (effects (font (size 1.27 1.27)) hide)
    )
    (property "Datasheet" "" (at 8.89 7.493 0)
      (effects (font (size 1.27 1.27)) hide)
    )
    (property "Sim.Enable" "0" (at 0 0 0)
      (effects (font (size 1.27 1.27)) hide)
    )
    (property "de" "Wärmemesser Fahrenheit " (at -7.62 0 90)
      (effects (font (size 1.27 1.27) (color 0 0 0 1)))
    )
    (property "Pin1" "1" (at -1.016 6.096 0)
      (effects (font (size 1 1) bold (color 0 132 132 1)))
    )
    (property "Pin2" "2" (at -1.016 -6.35 0)
      (effects (font (size 1 1) bold (color 0 132 132 1)))
    )
    (property "M" "°F" (at 0 -0.508 0)
      (effects (font (face "Arial Narrow") (size 2.7 2.7) bold (color 0 0 0 1)))
    )
    (property "Ausgabe" "${COMMENT2}${REFERENCE}.${Zeile}${Strompfad}" (at -5.08 0 90)
      (effects (font (size 1.27 1.27)))
    )
    (property "Zeile" "" (at 0 -7.62 0)
      (effects (font (size 1.27 1.27)) hide)
    )
    (property "Strompfad" "" (at 0 -7.62 0)
      (effects (font (size 1.27 1.27)) hide)
    )
    (property "ki_keywords" "Wärmemesser;Fahrenheit " (at 0 0 0)
      (effects (font (size 1.27 1.27)) hide)
    )
    (symbol "Thermometer Fahrenheit _0_1"
      (rectangle (start -3.81 7.62) (end 3.81 -7.62)
        (stroke (width 0.001) (type dot) (color 255 255 255 1))
        (fill (type background))
      )
      (circle (center 0 -7.62) (radius 0.3458)
        (stroke (width 0.2) (type default) (color 0 0 0 1))
        (fill (type none))
      )
      (polyline
        (pts
          (xy 0 -5.207)
          (xy 0 -3.302)
          (xy 0 -4.445)
        )
        (stroke (width 0.2) (type default) (color 0 0 0 1))
        (fill (type none))
      )
      (polyline
        (pts
          (xy 0 4.953)
          (xy 0 3.048)
          (xy 0 4.191)
        )
        (stroke (width 0.2) (type default) (color 0 0 0 1))
        (fill (type none))
      )
      (circle (center 0 7.62) (radius 0.3458)
        (stroke (width 0.2) (type default) (color 0 0 0 1))
        (fill (type none))
      )
    )
    (symbol "Thermometer Fahrenheit _1_1"
      (circle (center 0 -0.127) (radius 3.0819)
        (stroke (width 0.2) (type default) (color 0 0 0 1))
        (fill (type color) (color 255 255 255 1))
      )
      (polyline
        (pts
          (xy 0 -5.08)
          (xy 0 -7.62)
          (xy 0 -7.366)
        )
        (stroke (width 0.5) (type default) (color 0 0 0 1))
        (fill (type none))
      )
      (polyline
        (pts
          (xy 0 7.62)
          (xy 0 5.08)
          (xy 0 5.334)
        )
        (stroke (width 0.5) (type default) (color 0 0 0 1))
        (fill (type none))
      )
      (pin input line (at 0 7.62 270) (length 2.54)
        (name "L" (effects (font (size 1.27 1.27))))
        (number "1" (effects (font (size 1.27 1.27))))
      )
      (pin input line (at 0 -7.62 90) (length 2.54)
        (name "N" (effects (font (size 1.27 1.27))))
        (number "2" (effects (font (size 1.27 1.27))))
      )
    )
  )
)
