(kicad_symbol_lib (version 20220914) (generator kicad_symbol_editor)
  (symbol "Timer" (pin_numbers hide) (pin_names (offset 0) hide) (in_bom no) (on_board no)
    (property "Reference" "M" (at -10.16 0 90)
      (effects (font (size 1.27 1.27)))
    )
    (property "Value" "Timer" (at -7.62 0 90)
      (effects (font (size 1.27 1.27)) hide)
    )
    (property "Footprint" "" (at 8.89 7.493 0)
      (effects (font (size 1.27 1.27)) hide)
    )
    (property "Datasheet" "" (at 8.89 7.493 0)
      (effects (font (size 1.27 1.27)) hide)
    )
    (property "Sim.Enable" "0" (at 0 0 0)
      (effects (font (size 1.27 1.27)) hide)
    )
    (property "de" "Schaltuhr" (at -7.62 0 90)
      (effects (font (size 1.27 1.27) (color 0 0 0 1)))
    )
    (property "Pin1" "1" (at -1.27 6.35 0)
      (effects (font (size 1 1) bold (color 0 132 132 1)))
    )
    (property "Pin2" "2" (at -1.27 -6.35 0)
      (effects (font (size 1 1) bold (color 0 132 132 1)))
    )
    (property "Pin3" "3" (at 3.937 6.223 0)
      (effects (font (size 1 1) bold (color 0 132 132 1)))
    )
    (property "Pin4" "4" (at 3.937 -6.35 0)
      (effects (font (size 1 1) bold (color 0 132 132 1)))
    )
    (property "Min" "I" (at 0 1.016 0)
      (effects (font (size 2 2) bold (color 0 0 0 1)))
    )
    (property "Hour" "I" (at 1.1168 -0.3851 90)
      (effects (font (size 2 2) bold italic (color 0 0 0 1)))
    )
    (property "Ausgabe" "${COMMENT2}${REFERENCE}.${Zeile}${Strompfad}" (at -5.08 0 90)
      (effects (font (size 1.27 1.27)))
    )
    (property "Zeile" "" (at 0 -7.62 0)
      (effects (font (size 1.27 1.27)) hide)
    )
    (property "Strompfad" "" (at 0 -7.62 0)
      (effects (font (size 1.27 1.27)) hide)
    )
    (property "ki_keywords" "Uhr;Schaltuhr" (at 0 0 0)
      (effects (font (size 1.27 1.27)) hide)
    )
    (symbol "Timer_0_1"
      (rectangle (start -3.81 7.62) (end 6.35 -7.62)
        (stroke (width 0.001) (type dot) (color 255 255 255 1))
        (fill (type background))
      )
      (circle (center 0 -7.62) (radius 0.3458)
        (stroke (width 0.2) (type default) (color 0 0 0 1))
        (fill (type none))
      )
      (polyline
        (pts
          (xy 0 -5.207)
          (xy 0 -3.0988)
          (xy 0 -4.445)
        )
        (stroke (width 0.2) (type default) (color 0 0 0 1))
        (fill (type none))
      )
      (polyline
        (pts
          (xy 0 4.953)
          (xy 0 3.2004)
          (xy 0 4.191)
        )
        (stroke (width 0.2) (type default) (color 0 0 0 1))
        (fill (type none))
      )
      (polyline
        (pts
          (xy 5.08 -5.207)
          (xy 5.08 -1.905)
          (xy 5.08 -4.445)
        )
        (stroke (width 0.2) (type default) (color 0 0 0 1))
        (fill (type none))
      )
      (polyline
        (pts
          (xy 5.08 5.207)
          (xy 5.08 1.27)
          (xy 5.08 4.445)
        )
        (stroke (width 0.2) (type default) (color 0 0 0 1))
        (fill (type none))
      )
      (circle (center 0 7.62) (radius 0.3458)
        (stroke (width 0.2) (type default) (color 0 0 0 1))
        (fill (type none))
      )
      (circle (center 5.08 -7.62) (radius 0.3458)
        (stroke (width 0.2) (type default) (color 0 0 0 1))
        (fill (type none))
      )
      (circle (center 5.08 7.62) (radius 0.3458)
        (stroke (width 0.2) (type default) (color 0 0 0 1))
        (fill (type none))
      )
    )
    (symbol "Timer_1_1"
      (polyline
        (pts
          (xy 3.175 0)
          (xy 3.556 0)
        )
        (stroke (width 0.2) (type default) (color 0 0 0 1))
        (fill (type none))
      )
      (polyline
        (pts
          (xy 4.191 0)
          (xy 4.826 0)
        )
        (stroke (width 0.2) (type default) (color 0 0 0 1))
        (fill (type none))
      )
      (polyline
        (pts
          (xy 5.08 -1.905)
          (xy 4.318 1.651)
        )
        (stroke (width 0.2) (type default) (color 0 0 0 1))
        (fill (type none))
      )
      (polyline
        (pts
          (xy 0 -5.08)
          (xy 0 -7.62)
          (xy 0 -7.366)
        )
        (stroke (width 0.5) (type default) (color 0 0 0 1))
        (fill (type none))
      )
      (polyline
        (pts
          (xy 0 7.62)
          (xy 0 5.08)
          (xy 0 5.334)
        )
        (stroke (width 0.5) (type default) (color 0 0 0 1))
        (fill (type none))
      )
      (polyline
        (pts
          (xy 5.08 -5.08)
          (xy 5.08 -7.62)
          (xy 5.08 -7.366)
        )
        (stroke (width 0.5) (type default) (color 0 0 0 1))
        (fill (type none))
      )
      (polyline
        (pts
          (xy 5.08 5.08)
          (xy 5.08 7.62)
          (xy 5.08 7.366)
        )
        (stroke (width 0.5) (type default) (color 0 0 0 1))
        (fill (type none))
      )
      (circle (center 0 0) (radius 3.0819)
        (stroke (width 0.2) (type default) (color 0 0 0 1))
        (fill (type color) (color 255 255 255 1))
      )
      (pin input line (at 0 7.62 270) (length 2.54)
        (name "L" (effects (font (size 1.27 1.27))))
        (number "1" (effects (font (size 1.27 1.27))))
      )
      (pin input line (at 0 -7.62 90) (length 2.54)
        (name "2" (effects (font (size 1.27 1.27))))
        (number "2" (effects (font (size 1.27 1.27))))
      )
      (pin input line (at 5.08 7.62 270) (length 2.54)
        (name "3" (effects (font (size 1.27 1.27))))
        (number "3" (effects (font (size 1.27 1.27))))
      )
      (pin input line (at 5.08 -7.62 90) (length 2.54)
        (name "4" (effects (font (size 1.27 1.27))))
        (number "4" (effects (font (size 1.27 1.27))))
      )
    )
  )
)
