(kicad_symbol_lib (version 20220914) (generator kicad_symbol_editor)
  (symbol "Network IT systems" (pin_numbers hide) (pin_names (offset 0)) (in_bom no) (on_board no)
    (property "Reference" "#PWR" (at -16.51 -0.635 90)
      (effects (font (size 1.27 1.27)) hide)
    )
    (property "Value" "Netz" (at -7.62 7.239 0)
      (effects (font (size 1.27 1.27)) hide)
    )
    (property "Footprint" "" (at -37.719 -1.016 0)
      (effects (font (size 1.27 1.27)) hide)
    )
    (property "Datasheet" "" (at -37.719 -1.016 0)
      (effects (font (size 1.27 1.27)) hide)
    )
    (property "Sim.Enable" "0" (at 0 -0.381 0)
      (effects (font (size 1.27 1.27)) hide)
    )
    (property "de" "Erzeuger" (at -10.795 -0.381 90)
      (effects (font (size 1 1) (color 0 0 0 1)))
    )
    (property "ger" "Verbraucheranlage" (at 10.795 0.889 90)
      (effects (font (size 1 1) (color 0 0 0 1)))
    )
    (property "en" "Generator network" (at -10.795 0.889 90)
      (effects (font (size 1 1) (color 0 0 0 1)) hide)
    )
    (property "us" "Consumer facility" (at 10.795 0.254 90)
      (effects (font (size 1 1) (color 0 0 0 1)) hide)
    )
    (property "Ausgabe" "${COMMENT2}/${Zeile}${Strompfad}" (at -13.97 -0.635 90)
      (effects (font (size 1.27 1.27)))
    )
    (property "Zeile" "" (at -3.175 -0.381 0)
      (effects (font (size 1.27 1.27)) hide)
    )
    (property "Strompfad" "" (at -3.175 -0.381 0)
      (effects (font (size 1.27 1.27)) hide)
    )
    (property "ki_keywords" "TN-S;System;Netz" (at 0 0 0)
      (effects (font (size 1.27 1.27)) hide)
    )
    (symbol "Network IT systems_0_1"
      (circle (center -1.27 9.525) (radius 0.3458)
        (stroke (width 0.2) (type default) (color 0 0 0 1))
        (fill (type none))
      )
      (circle (center 1.27 9.525) (radius 0.3458)
        (stroke (width 0.2) (type default) (color 0 0 0 1))
        (fill (type none))
      )
    )
    (symbol "Network IT systems_1_1"
      (rectangle (start -12.7 9.525) (end 12.7 -9.525)
        (stroke (width 0.1) (type dash_dot) (color 93 93 93 1))
        (fill (type none))
      )
      (rectangle (start -12.3036 9.1055) (end -3.4136 -9.1912)
        (stroke (width 0.1) (type dash_dot_dot) (color 255 0 0 1))
        (fill (type background))
      )
      (circle (center -8.89 -0.635) (radius 0.1481)
        (stroke (width 0.2) (type default) (color 0 0 0 1))
        (fill (type outline))
      )
      (circle (center -8.89 1.905) (radius 0.1481)
        (stroke (width 0.2) (type default) (color 0 0 0 1))
        (fill (type outline))
      )
      (rectangle (start -6.8834 -0.0254) (end -4.3434 -1.2954)
        (stroke (width 0.2) (type default) (color 0 0 0 1))
        (fill (type outline))
      )
      (rectangle (start -6.8834 2.5146) (end -4.3434 1.2446)
        (stroke (width 0.2) (type default) (color 0 0 0 1))
        (fill (type outline))
      )
      (rectangle (start -6.8834 5.0546) (end -4.3434 3.7846)
        (stroke (width 0.2) (type default) (color 0 0 0 1))
        (fill (type outline))
      )
      (rectangle (start -3.4394 9.1611) (end 12.3261 -9.114)
        (stroke (width 0.1) (type dash_dot_dot) (color 255 0 0 1))
        (fill (type none))
      )
      (polyline
        (pts
          (xy -8.89 -0.635)
          (xy -6.858 -0.635)
        )
        (stroke (width 0.2) (type default) (color 0 0 0 1))
        (fill (type none))
      )
      (polyline
        (pts
          (xy -8.89 1.905)
          (xy -6.858 1.905)
        )
        (stroke (width 0.2) (type default) (color 0 0 0 1))
        (fill (type none))
      )
      (polyline
        (pts
          (xy -8.89 4.445)
          (xy -8.89 -3.175)
        )
        (stroke (width 0.2) (type default) (color 0 0 0 1))
        (fill (type none))
      )
      (polyline
        (pts
          (xy -8.89 4.445)
          (xy -6.858 4.445)
        )
        (stroke (width 0.2) (type default) (color 0 0 0 1))
        (fill (type none))
      )
      (polyline
        (pts
          (xy -1.27 4.445)
          (xy -4.445 4.445)
        )
        (stroke (width 0.2) (type default) (color 0 0 0 1))
        (fill (type none))
      )
      (polyline
        (pts
          (xy -1.27 4.445)
          (xy -1.27 6.985)
        )
        (stroke (width 0.2) (type default) (color 0 0 0 1))
        (fill (type none))
      )
      (polyline
        (pts
          (xy 1.27 1.905)
          (xy -4.445 1.905)
        )
        (stroke (width 0.2) (type default) (color 0 0 0 1))
        (fill (type none))
      )
      (polyline
        (pts
          (xy 1.27 1.905)
          (xy 1.27 9.525)
        )
        (stroke (width 0.2) (type default) (color 0 0 0 1))
        (fill (type none))
      )
      (polyline
        (pts
          (xy 3.81 -0.635)
          (xy -4.572 -0.635)
        )
        (stroke (width 0.2) (type default) (color 0 0 0 1))
        (fill (type none))
      )
      (polyline
        (pts
          (xy 3.81 -0.635)
          (xy 3.81 9.525)
        )
        (stroke (width 0.2) (type default) (color 0 0 0 1))
        (fill (type none))
      )
      (polyline
        (pts
          (xy 6.35 -3.175)
          (xy -8.89 -3.175)
        )
        (stroke (width 0.2) (type default) (color 0 0 255 1))
        (fill (type none))
      )
      (polyline
        (pts
          (xy 6.35 -3.175)
          (xy 6.35 6.985)
        )
        (stroke (width 0.2) (type default) (color 0 0 255 1))
        (fill (type none))
      )
      (polyline
        (pts
          (xy 7.62 -6.985)
          (xy 10.16 -6.985)
        )
        (stroke (width 0.2) (type default) (color 0 0 0 1))
        (fill (type none))
      )
      (polyline
        (pts
          (xy 8.128 -7.493)
          (xy 9.652 -7.493)
        )
        (stroke (width 0.2) (type default) (color 0 0 0 1))
        (fill (type none))
      )
      (polyline
        (pts
          (xy 8.509 -8.001)
          (xy 9.271 -8.001)
        )
        (stroke (width 0.2) (type default) (color 0 0 0 1))
        (fill (type none))
      )
      (polyline
        (pts
          (xy 8.763 -8.509)
          (xy 9.017 -8.509)
        )
        (stroke (width 0.2) (type default) (color 0 0 0 1))
        (fill (type none))
      )
      (polyline
        (pts
          (xy 8.89 -6.985)
          (xy 8.89 -5.715)
        )
        (stroke (width 0.3) (type default) (color 0 0 0 1))
        (fill (type none))
      )
      (polyline
        (pts
          (xy 8.89 -5.715)
          (xy 8.89 6.985)
        )
        (stroke (width 0.2) (type default) (color 0 132 0 1))
        (fill (type none))
      )
      (polyline
        (pts
          (xy -1.27 9.525)
          (xy -1.27 6.985)
          (xy -1.27 7.239)
        )
        (stroke (width 0.5) (type default) (color 0 0 0 1))
        (fill (type none))
      )
      (polyline
        (pts
          (xy 1.27 9.525)
          (xy 1.27 6.985)
          (xy 1.27 7.239)
        )
        (stroke (width 0.5) (type default) (color 0 0 0 1))
        (fill (type none))
      )
      (polyline
        (pts
          (xy 3.81 9.525)
          (xy 3.81 6.985)
          (xy 3.81 7.239)
        )
        (stroke (width 0.5) (type default) (color 0 0 0 1))
        (fill (type none))
      )
      (polyline
        (pts
          (xy 6.35 9.525)
          (xy 6.35 6.985)
          (xy 6.35 7.239)
        )
        (stroke (width 0.5) (type default) (color 0 0 0 1))
        (fill (type none))
      )
      (polyline
        (pts
          (xy 8.89 9.525)
          (xy 8.89 6.985)
          (xy 8.89 7.239)
        )
        (stroke (width 0.5) (type default) (color 0 0 0 1))
        (fill (type none))
      )
      (circle (center 3.81 9.525) (radius 0.3458)
        (stroke (width 0.2) (type default) (color 0 0 0 1))
        (fill (type none))
      )
      (circle (center 6.35 9.525) (radius 0.3458)
        (stroke (width 0.2) (type default) (color 0 0 0 1))
        (fill (type none))
      )
      (circle (center 8.89 9.525) (radius 0.3458)
        (stroke (width 0.2) (type default) (color 0 0 0 1))
        (fill (type none))
      )
      (text "IT-Netz" (at -2.794 -7.62 0)
        (effects (font (size 1.27 1.27) (color 0 0 0 1)))
      )
      (pin output line (at -1.27 9.525 270) (length 2.54)
        (name "L1" (effects (font (size 1 1))))
        (number "1" (effects (font (size 1.27 1.27))))
      )
      (pin output line (at 1.27 9.525 270) (length 2.54)
        (name "L2" (effects (font (size 1 1))))
        (number "2" (effects (font (size 1.27 1.27))))
      )
      (pin output line (at 3.81 9.525 270) (length 2.54)
        (name "L3" (effects (font (size 1 1))))
        (number "3" (effects (font (size 1.27 1.27))))
      )
      (pin output line (at 6.35 9.525 270) (length 2.54)
        (name "N" (effects (font (size 1 1))))
        (number "4" (effects (font (size 1.27 1.27))))
      )
      (pin input line (at 8.89 9.525 270) (length 2.54)
        (name "PE" (effects (font (size 1 1))))
        (number "5" (effects (font (size 1.27 1.27))))
      )
    )
  )
)
