(kicad_symbol_lib (version 20220914) (generator kicad_symbol_editor)
  (symbol "PV storage" (power) (pin_numbers hide) (pin_names (offset 0)) (in_bom no) (on_board no)
    (property "Reference" "#PWR" (at -10.16 0 90)
      (effects (font (size 1.27 1.27)) hide)
    )
    (property "Value" "PV storage" (at 7.62 -0.635 90)
      (effects (font (size 1.27 1.27)))
    )
    (property "Footprint" "" (at -0.508 2.286 0)
      (effects (font (size 1.27 1.27)) hide)
    )
    (property "Datasheet" "" (at -0.508 2.286 0)
      (effects (font (size 1.27 1.27)) hide)
    )
    (property "Sim.Enable" "0" (at 0 0 0)
      (effects (font (size 1.27 1.27)) hide)
    )
    (property "Ausgabe" "${COMMENT2}/${Zeile}${Strompfad}" (at -8.255 -0.635 90)
      (effects (font (size 1.27 1.27)))
    )
    (property "Zeile" "" (at 0 0 0)
      (effects (font (size 1.27 1.27)) hide)
    )
    (property "Strompfad" "" (at 0 0 0)
      (effects (font (size 1.27 1.27)) hide)
    )
    (symbol "PV storage_0_1"
      (rectangle (start -6.985 6.35) (end 6.35 -6.35)
        (stroke (width 0.001) (type dot) (color 255 255 255 1))
        (fill (type background))
      )
      (text "=" (at -2.032 2.032 0)
        (effects (font (size 2 2) bold (color 0 0 0 1)))
      )
    )
    (symbol "PV storage_1_1"
      (rectangle (start -5.08 -2.54) (end 5.08 -3.81)
        (stroke (width 0) (type default) (color 0 0 0 1))
        (fill (type color) (color 0 0 0 1))
      )
      (rectangle (start -3.81 3.556) (end 3.81 -2.54)
        (stroke (width 0.5) (type default) (color 0 0 0 1))
        (fill (type none))
      )
      (circle (center -1.27 6.35) (radius 0.3458)
        (stroke (width 0.2) (type default) (color 0 0 0 1))
        (fill (type none))
      )
      (polyline
        (pts
          (xy -1.0922 0.127)
          (xy 0.4318 2.667)
          (xy 1.3208 3.0734)
          (xy -1.0922 0.127)
        )
        (stroke (width 0) (type default) (color 255 0 0 1))
        (fill (type color) (color 255 0 0 1))
      )
      (polyline
        (pts
          (xy 0.9398 1.143)
          (xy -1.2954 -1.905)
          (xy 1.6002 1.397)
          (xy 0.9398 1.143)
        )
        (stroke (width 0) (type default) (color 255 0 0 1))
        (fill (type color) (color 255 0 0 1))
      )
      (polyline
        (pts
          (xy -1.0922 0.127)
          (xy 0.9398 0.889)
          (xy 0.9398 1.143)
          (xy -0.8382 0.381)
          (xy -1.0922 0.127)
        )
        (stroke (width 0) (type default) (color 255 0 0 1))
        (fill (type color) (color 255 0 0 1))
      )
      (polyline
        (pts
          (xy 2.032 1.27)
          (xy 2.032 -1.778)
          (xy 1.778 -1.016)
          (xy 2.032 -1.778)
          (xy 2.286 -1.016)
        )
        (stroke (width 0) (type default) (color 0 0 0 1))
        (fill (type none))
      )
      (polyline
        (pts
          (xy 2.794 -1.778)
          (xy 2.794 1.27)
          (xy 3.048 0.508)
          (xy 2.794 1.27)
          (xy 2.54 0.508)
        )
        (stroke (width 0) (type default) (color 0 0 0 1))
        (fill (type none))
      )
      (polyline
        (pts
          (xy -1.3716 -0.9652)
          (xy -1.3716 -1.9812)
          (xy -0.3302 -1.778)
          (xy -0.1016 -1.4732)
          (xy -1.3716 -1.9812)
          (xy -1.1176 -0.7112)
          (xy -1.3716 -0.9652)
        )
        (stroke (width 0) (type default) (color 255 0 0 1))
        (fill (type color) (color 255 0 0 1))
      )
      (circle (center 1.27 6.35) (radius 0.3458)
        (stroke (width 0.2) (type default) (color 0 0 0 1))
        (fill (type none))
      )
      (pin bidirectional line (at -1.27 6.35 270) (length 2.54)
        (name "P+" (effects (font (size 1 1))))
        (number "6" (effects (font (size 1.27 1.27))))
      )
      (pin bidirectional line (at 1.27 6.35 270) (length 2.54)
        (name "P-" (effects (font (size 1 1))))
        (number "9" (effects (font (size 1.27 1.27))))
      )
    )
  )
)
