(kicad_symbol_lib (version 20220914) (generator kicad_symbol_editor)
  (symbol "Horn" (pin_numbers hide) (pin_names (offset 0) hide) (in_bom no) (on_board no)
    (property "Reference" "H" (at -10.16 0 90)
      (effects (font (size 1.27 1.27)))
    )
    (property "Value" "Horn" (at 7.62 0 90)
      (effects (font (size 1.27 1.27)) hide)
    )
    (property "Footprint" "" (at 0 -5.08 0)
      (effects (font (size 1.27 1.27)) hide)
    )
    (property "Datasheet" "" (at 0 -5.08 0)
      (effects (font (size 1.27 1.27)) hide)
    )
    (property "Sim.Enable" "0" (at 0 0 0)
      (effects (font (size 1.27 1.27)) hide)
    )
    (property "de" "Horn" (at 7.62 0 90)
      (effects (font (size 1.27 1.27) (color 0 0 0 1)))
    )
    (property "Pin1" "A1" (at -2.54 -4.445 0)
      (effects (font (size 1.27 1.27) (color 0 0 0 1)))
    )
    (property "Pin2" "A2" (at -2.54 4.445 0)
      (effects (font (size 1.27 1.27) (color 0 0 0 1)))
    )
    (property "Ausgabe" "${COMMENT2}${REFERENCE}.${Zeile}${Strompfad}" (at -7.62 0 90)
      (effects (font (size 1.27 1.27)))
    )
    (property "Zeile" "" (at 0 0 0)
      (effects (font (size 1.27 1.27)) hide)
    )
    (property "Strompfad" "" (at 0 0 0)
      (effects (font (size 1.27 1.27)) hide)
    )
    (property "ki_keywords" "Sirene;Horn" (at 0 0 0)
      (effects (font (size 1.27 1.27)) hide)
    )
    (property "ki_description" "Announciators" (at 0 0 0)
      (effects (font (size 1.27 1.27)) hide)
    )
    (symbol "Horn_0_1"
      (rectangle (start -6.35 6.35) (end 6.35 -6.35)
        (stroke (width 0.001) (type dot) (color 255 255 255 1))
        (fill (type background))
      )
      (polyline
        (pts
          (xy 0 -6.35)
          (xy 0 -1.905)
        )
        (stroke (width 0.2) (type solid) (color 0 0 0 1))
        (fill (type none))
      )
      (polyline
        (pts
          (xy 0 6.35)
          (xy 0 1.8542)
        )
        (stroke (width 0.2) (type solid) (color 0 0 0 1))
        (fill (type none))
      )
      (polyline
        (pts
          (xy 0 -3.81)
          (xy 0 -6.35)
          (xy 0 -6.096)
        )
        (stroke (width 0.5) (type default) (color 0 0 0 1))
        (fill (type none))
      )
      (polyline
        (pts
          (xy 0 6.35)
          (xy 0 3.81)
          (xy 0 4.064)
        )
        (stroke (width 0.5) (type default) (color 0 0 0 1))
        (fill (type none))
      )
      (circle (center 0 6.35) (radius 0.3458)
        (stroke (width 0.2) (type default) (color 0 0 0 1))
        (fill (type none))
      )
    )
    (symbol "Horn_1_1"
      (circle (center 0 -6.35) (radius 0.3458)
        (stroke (width 0.2) (type default) (color 0 0 0 1))
        (fill (type none))
      )
      (polyline
        (pts
          (xy 0 -1.905)
          (xy 1.27 -1.905)
        )
        (stroke (width 0.3) (type default) (color 0 0 0 1))
        (fill (type none))
      )
      (polyline
        (pts
          (xy 0 1.905)
          (xy 1.27 1.905)
        )
        (stroke (width 0.3) (type default) (color 0 0 0 1))
        (fill (type none))
      )
      (polyline
        (pts
          (xy 1.27 3.175)
          (xy 1.27 -3.175)
        )
        (stroke (width 0.3) (type default) (color 0 0 0 1))
        (fill (type none))
      )
      (polyline
        (pts
          (xy 1.6256 2.8956)
          (xy 1.9304 2.8194)
          (xy 2.4384 2.6416)
          (xy 2.8702 2.413)
          (xy 3.302 2.032)
          (xy 3.556 1.7526)
          (xy 3.7846 1.397)
          (xy 3.9878 0.9652)
          (xy 4.1148 0.5334)
          (xy 4.1656 0.0762)
          (xy 4.1402 -0.381)
          (xy 4.0132 -0.9144)
          (xy 3.7846 -1.4478)
          (xy 3.4544 -1.905)
          (xy 3.0226 -2.286)
          (xy 2.54 -2.5908)
          (xy 2.1336 -2.7432)
          (xy 1.5748 -2.8956)
          (xy 1.5494 2.8956)
        )
        (stroke (width 0.2) (type default) (color 255 255 255 1))
        (fill (type color) (color 255 255 255 1))
      )
      (arc (start 1.2952 -3.175) (mid 4.4451 0) (end 1.2952 3.175)
        (stroke (width 0.3) (type default) (color 0 0 0 1))
        (fill (type none))
      )
      (pin input line (at 0 -6.35 90) (length 2.54)
        (name "" (effects (font (size 1.27 1.27))))
        (number "1" (effects (font (size 1.27 1.27))))
      )
      (pin input line (at 0 6.35 270) (length 2.54)
        (name "" (effects (font (size 1.27 1.27))))
        (number "2" (effects (font (size 1.27 1.27))))
      )
    )
    (symbol "Horn_2_1"
      (rectangle (start -1.905 1.905) (end 1.905 -1.905)
        (stroke (width 0.3) (type default) (color 0 0 0 1))
        (fill (type color) (color 255 255 255 1))
      )
      (circle (center 0 -6.35) (radius 0.3458)
        (stroke (width 0.2) (type default) (color 0 0 0 1))
        (fill (type none))
      )
      (polyline
        (pts
          (xy 1.905 -0.635)
          (xy 4.572 -1.651)
          (xy 4.572 1.778)
          (xy 1.905 0.635)
          (xy 1.905 -0.635)
        )
        (stroke (width 0.3) (type default) (color 0 0 0 1))
        (fill (type color) (color 255 255 255 1))
      )
      (pin input line (at 0 -6.35 90) (length 2.54)
        (name "" (effects (font (size 1.27 1.27))))
        (number "1" (effects (font (size 1.27 1.27))))
      )
      (pin input line (at 0 6.35 270) (length 2.54)
        (name "" (effects (font (size 1.27 1.27))))
        (number "2" (effects (font (size 1.27 1.27))))
      )
    )
    (symbol "Horn_3_1"
      (rectangle (start -1.905 1.905) (end 1.905 -1.905)
        (stroke (width 0.3) (type default) (color 0 0 0 1))
        (fill (type color) (color 255 255 255 1))
      )
      (circle (center 0 -6.35) (radius 0.3458)
        (stroke (width 0.2) (type default) (color 0 0 0 1))
        (fill (type none))
      )
      (polyline
        (pts
          (xy 1.905 -0.635)
          (xy 5.08 -0.635)
          (xy 6.096 1.778)
          (xy 1.905 0.635)
          (xy 1.905 -0.635)
        )
        (stroke (width 0.3) (type default) (color 0 0 0 1))
        (fill (type color) (color 255 255 255 1))
      )
      (pin input line (at 0 -6.35 90) (length 2.54)
        (name "" (effects (font (size 1.27 1.27))))
        (number "1" (effects (font (size 1.27 1.27))))
      )
      (pin input line (at 0 6.35 270) (length 2.54)
        (name "" (effects (font (size 1.27 1.27))))
        (number "2" (effects (font (size 1.27 1.27))))
      )
    )
  )
)
