(kicad_symbol_lib (version 20220914) (generator kicad_symbol_editor)
  (symbol "Neutral conductor with PEN protection function" (pin_numbers hide) (pin_names (offset 0) hide) (in_bom no) (on_board no)
    (property "Reference" "#PWR" (at 0 5.588 0)
      (effects (font (size 1.27 1.27)) hide)
    )
    (property "Value" "" (at 0 4.318 0)
      (effects (font (size 1.27 1.27)) hide)
    )
    (property "Footprint" "" (at 0 4.318 0)
      (effects (font (size 1.27 1.27)) hide)
    )
    (property "Datasheet" "" (at 0 4.318 0)
      (effects (font (size 1.27 1.27)) hide)
    )
    (property "Sim.Enable" "0" (at 0 0 0)
      (effects (font (size 1.27 1.27)) hide)
    )
    (property "de" "Neutralleiter mit Schutzfunktion PEN" (at 0 0 0)
      (effects (font (size 1.27 1.27)) hide)
    )
    (property "ki_keywords" "Neutralleiter mit Schutzfunktion PEN" (at 0 0 0)
      (effects (font (size 1.27 1.27)) hide)
    )
    (symbol "Neutral conductor with PEN protection function_1_1"
      (polyline
        (pts
          (xy -1.524 -1.524)
          (xy 1.778 1.778)
        )
        (stroke (width 0.5) (type default) (color 0 0 0 1))
        (fill (type color) (color 255 255 255 1))
      )
      (polyline
        (pts
          (xy 1.9812 3.8608)
          (xy 4.0132 2.0828)
        )
        (stroke (width 0.5) (type default) (color 0 0 0 1))
        (fill (type color) (color 255 255 255 1))
      )
      (circle (center 2.286 2.286) (radius 0.508)
        (stroke (width 0.5) (type default) (color 0 0 0 1))
        (fill (type color) (color 0 0 0 1))
      )
    )
  )
)
