(kicad_symbol_lib (version 20220914) (generator kicad_symbol_editor)
  (symbol "RCBO 4p" (pin_numbers hide) (pin_names (offset 0)) (in_bom no) (on_board no)
    (property "Reference" "FI" (at -16.51 0 90)
      (effects (font (size 1.27 1.27)))
    )
    (property "Value" "RCBO" (at 13.97 0 90)
      (effects (font (size 1.27 1.27)))
    )
    (property "Footprint" "" (at -4.318 -8.128 0)
      (effects (font (size 1.27 1.27)) hide)
    )
    (property "Datasheet" "" (at -4.318 -8.128 0)
      (effects (font (size 1.27 1.27)) hide)
    )
    (property "Sim.Enable" "0" (at 0 0 0)
      (effects (font (size 1.27 1.27)) hide)
    )
    (property "Ausgabe" "${COMMENT2}${REFERENCE}.${Zeile}${Strompfad}" (at -13.97 1.27 90)
      (effects (font (size 1.27 1.27)))
    )
    (property "Zeile" "" (at 2.032 -11.938 0)
      (effects (font (size 1.27 1.27)) hide)
    )
    (property "Strompfad" "" (at 2.032 -11.938 0)
      (effects (font (size 1.27 1.27)) hide)
    )
    (property "ki_keywords" "FI;RCBO;4p" (at 0 0 0)
      (effects (font (size 1.27 1.27)) hide)
    )
    (symbol "RCBO 4p_0_1"
      (rectangle (start -12.7 8.89) (end 12.7 -7.62)
        (stroke (width 0.001) (type dot) (color 255 255 255 1))
        (fill (type background))
      )
      (rectangle (start -9.525 0) (end -8.255 -2.54)
        (stroke (width 0.2) (type default) (color 0 0 0 1))
        (fill (type none))
      )
      (rectangle (start -6.35 3.2512) (end 7.9502 3.2004)
        (stroke (width 0.2) (type default) (color 0 0 0 1))
        (fill (type none))
      )
      (circle (center -6.0854 2.3777) (radius 0.1481)
        (stroke (width 0.2) (type default) (color 0 0 0 1))
        (fill (type outline))
      )
      (rectangle (start -4.4196 -0.1524) (end -3.1496 -2.6924)
        (stroke (width 0.2) (type default) (color 0 0 0 1))
        (fill (type outline))
      )
      (circle (center -3.81 -7.62) (radius 0.3458)
        (stroke (width 0.2) (type default) (color 0 0 0 1))
        (fill (type none))
      )
      (circle (center -3.81 8.89) (radius 0.3458)
        (stroke (width 0.2) (type default) (color 0 0 0 1))
        (fill (type none))
      )
      (circle (center -3.7769 2.431) (radius 0.1481)
        (stroke (width 0.2) (type default) (color 0 0 0 1))
        (fill (type outline))
      )
      (rectangle (start -1.8796 -0.1524) (end -0.6096 -2.6924)
        (stroke (width 0.2) (type default) (color 0 0 0 1))
        (fill (type outline))
      )
      (circle (center -1.27 -7.62) (radius 0.3458)
        (stroke (width 0.2) (type default) (color 0 0 0 1))
        (fill (type none))
      )
      (circle (center -1.27 8.89) (radius 0.3458)
        (stroke (width 0.2) (type default) (color 0 0 0 1))
        (fill (type none))
      )
      (circle (center -1.2546 2.4098) (radius 0.1481)
        (stroke (width 0.2) (type default) (color 0 0 0 1))
        (fill (type outline))
      )
      (polyline
        (pts
          (xy -11.176 2.794)
          (xy -11.176 3.8862)
        )
        (stroke (width 0.2) (type default) (color 0 0 0 1))
        (fill (type none))
      )
      (polyline
        (pts
          (xy -10.3875 3.3303)
          (xy -11.0225 3.3303)
        )
        (stroke (width 0.2) (type default) (color 0 0 0 1))
        (fill (type none))
      )
      (polyline
        (pts
          (xy -10.16 5.08)
          (xy -8.636 2.3114)
        )
        (stroke (width 0.2) (type default) (color 0 0 0 1))
        (fill (type none))
      )
      (polyline
        (pts
          (xy -9.1694 3.3274)
          (xy -9.8044 3.3274)
        )
        (stroke (width 0.2) (type default) (color 0 0 0 1))
        (fill (type none))
      )
      (polyline
        (pts
          (xy -8.89 2.794)
          (xy -8.89 0)
        )
        (stroke (width 0.2) (type default) (color 0 0 0 1))
        (fill (type none))
      )
      (polyline
        (pts
          (xy -7.62 5.08)
          (xy -6.096 2.3114)
        )
        (stroke (width 0.2) (type default) (color 0 0 0 1))
        (fill (type none))
      )
      (polyline
        (pts
          (xy -6.35 5.08)
          (xy -6.35 6.35)
        )
        (stroke (width 0.2) (type default) (color 0 0 0 1))
        (fill (type none))
      )
      (polyline
        (pts
          (xy -5.08 5.08)
          (xy -3.7562 2.3591)
        )
        (stroke (width 0.2) (type default) (color 0 0 0 1))
        (fill (type none))
      )
      (polyline
        (pts
          (xy -3.81 -7.62)
          (xy -3.81 -2.54)
        )
        (stroke (width 0.2) (type default) (color 0 0 0 1))
        (fill (type none))
      )
      (polyline
        (pts
          (xy -3.81 5.08)
          (xy -3.81 8.89)
        )
        (stroke (width 0.2) (type default) (color 0 0 0 1))
        (fill (type none))
      )
      (polyline
        (pts
          (xy -3.7846 -0.1524)
          (xy -3.7846 2.3876)
        )
        (stroke (width 0.2) (type default) (color 0 0 0 1))
        (fill (type none))
      )
      (polyline
        (pts
          (xy -2.54 5.08)
          (xy -1.2552 2.4015)
        )
        (stroke (width 0.2) (type default) (color 0 0 0 1))
        (fill (type none))
      )
      (polyline
        (pts
          (xy -1.27 -7.62)
          (xy -1.27 -2.54)
        )
        (stroke (width 0.2) (type default) (color 0 0 0 1))
        (fill (type none))
      )
      (polyline
        (pts
          (xy -1.27 5.08)
          (xy -1.27 8.89)
        )
        (stroke (width 0.2) (type default) (color 0 0 0 1))
        (fill (type none))
      )
      (polyline
        (pts
          (xy -1.2446 -0.1524)
          (xy -1.2446 2.3876)
        )
        (stroke (width 0.2) (type default) (color 0 0 0 1))
        (fill (type none))
      )
      (polyline
        (pts
          (xy 0 5.08)
          (xy 1.3095 2.4439)
        )
        (stroke (width 0.2) (type default) (color 0 0 0 1))
        (fill (type none))
      )
      (polyline
        (pts
          (xy 1.27 -7.62)
          (xy 1.27 -2.54)
        )
        (stroke (width 0.2) (type default) (color 0 0 0 1))
        (fill (type none))
      )
      (polyline
        (pts
          (xy 1.27 5.08)
          (xy 1.27 8.89)
        )
        (stroke (width 0.2) (type default) (color 0 0 0 1))
        (fill (type none))
      )
      (polyline
        (pts
          (xy 1.2954 -0.1524)
          (xy 1.2954 2.3876)
        )
        (stroke (width 0.2) (type default) (color 0 0 0 1))
        (fill (type none))
      )
      (polyline
        (pts
          (xy 2.54 5.08)
          (xy 3.7788 2.4634)
        )
        (stroke (width 0.2) (type default) (color 0 0 0 1))
        (fill (type none))
      )
      (polyline
        (pts
          (xy 3.81 -7.62)
          (xy 3.81 -2.54)
        )
        (stroke (width 0.2) (type default) (color 0 0 0 1))
        (fill (type none))
      )
      (polyline
        (pts
          (xy 3.81 5.08)
          (xy 3.81 8.89)
        )
        (stroke (width 0.2) (type default) (color 0 0 0 1))
        (fill (type none))
      )
      (polyline
        (pts
          (xy 3.8354 -0.1524)
          (xy 3.8354 2.3876)
        )
        (stroke (width 0.2) (type default) (color 0 0 0 1))
        (fill (type none))
      )
      (polyline
        (pts
          (xy 5.1054 -0.1524)
          (xy 5.1054 -2.6924)
        )
        (stroke (width 0.2) (type default) (color 0 0 0 1))
        (fill (type none))
      )
      (polyline
        (pts
          (xy 8.0264 3.2766)
          (xy 10.6172 3.2766)
        )
        (stroke (width 0.2) (type default) (color 0 0 0 1))
        (fill (type none))
      )
      (polyline
        (pts
          (xy -8.89 5.08)
          (xy -8.89 6.35)
          (xy -6.35 6.35)
        )
        (stroke (width 0.2) (type default) (color 0 0 0 1))
        (fill (type none))
      )
      (polyline
        (pts
          (xy 2.794 4.826)
          (xy 3.302 5.08)
          (xy 2.794 4.826)
        )
        (stroke (width 0.2) (type default) (color 0 0 0 1))
        (fill (type none))
      )
      (polyline
        (pts
          (xy 3.81 -3.81)
          (xy -8.89 -3.81)
          (xy -8.89 -2.54)
        )
        (stroke (width 0.2) (type default) (color 0 0 0 1))
        (fill (type none))
      )
      (polyline
        (pts
          (xy 9.271 0.9652)
          (xy 9.271 4.6228)
          (xy 9.271 1.27)
        )
        (stroke (width 0.2) (type default) (color 0 0 0 1))
        (fill (type none))
      )
      (polyline
        (pts
          (xy 1.3208 1.1176)
          (xy -6.096 1.1176)
          (xy -6.096 2.413)
          (xy -6.096 2.4384)
        )
        (stroke (width 0.2) (type default) (color 0 0 0 1))
        (fill (type none))
      )
      (rectangle (start 0.6604 -0.1524) (end 1.9304 -2.6924)
        (stroke (width 0.2) (type default) (color 0 0 0 1))
        (fill (type outline))
      )
      (circle (center 1.27 -7.62) (radius 0.3458)
        (stroke (width 0.2) (type default) (color 0 0 0 1))
        (fill (type none))
      )
      (circle (center 1.27 8.89) (radius 0.3458)
        (stroke (width 0.2) (type default) (color 0 0 0 1))
        (fill (type none))
      )
      (circle (center 1.2812 1.1233) (radius 0.1481)
        (stroke (width 0.2) (type default) (color 0 0 0 1))
        (fill (type outline))
      )
      (circle (center 1.3101 2.431) (radius 0.1481)
        (stroke (width 0.2) (type default) (color 0 0 0 1))
        (fill (type outline))
      )
      (rectangle (start 3.2004 -0.1524) (end 4.4704 -2.6924)
        (stroke (width 0.2) (type default) (color 0 0 0 1))
        (fill (type outline))
      )
      (circle (center 3.81 -7.62) (radius 0.3458)
        (stroke (width 0.2) (type default) (color 0 0 0 1))
        (fill (type none))
      )
      (circle (center 3.81 -3.81) (radius 0.1481)
        (stroke (width 0.2) (type default) (color 0 0 0 1))
        (fill (type outline))
      )
      (circle (center 3.81 8.89) (radius 0.3458)
        (stroke (width 0.2) (type default) (color 0 0 0 1))
        (fill (type none))
      )
      (circle (center 3.8324 2.4522) (radius 0.1481)
        (stroke (width 0.2) (type default) (color 0 0 0 1))
        (fill (type outline))
      )
      (rectangle (start 5.7404 -0.1524) (end 7.0104 -2.6924)
        (stroke (width 0.2) (type default) (color 0 0 0 1))
        (fill (type outline))
      )
      (rectangle (start 5.7404 -0.1524) (end 11.4554 -2.6924)
        (stroke (width 0.2) (type default) (color 0 0 0 1))
        (fill (type none))
      )
      (rectangle (start 7.9502 4.6482) (end 10.6426 1.8542)
        (stroke (width 0.2) (type default) (color 0 0 0 1))
        (fill (type none))
      )
      (rectangle (start 8.3566 0.9652) (end 10.1854 -1.2446)
        (stroke (width 0.2) (type default) (color 0 0 0 1))
        (fill (type outline))
      )
      (text "RCBO" (at 9.525 -5.715 0)
        (effects (font (size 1.5 1.5) bold (color 0 0 0 1)))
      )
      (text "T" (at -10.1497 1.6178 0)
        (effects (font (size 1.27 1.27) (color 0 0 0 1)))
      )
    )
    (symbol "RCBO 4p_1_1"
      (polyline
        (pts
          (xy -3.81 -5.08)
          (xy -3.81 -7.62)
          (xy -3.81 -7.366)
        )
        (stroke (width 0.5) (type default) (color 0 0 0 1))
        (fill (type none))
      )
      (polyline
        (pts
          (xy -3.81 8.89)
          (xy -3.81 6.35)
          (xy -3.81 6.604)
        )
        (stroke (width 0.5) (type default) (color 0 0 0 1))
        (fill (type none))
      )
      (polyline
        (pts
          (xy -1.27 -5.08)
          (xy -1.27 -7.62)
          (xy -1.27 -7.366)
        )
        (stroke (width 0.5) (type default) (color 0 0 0 1))
        (fill (type none))
      )
      (polyline
        (pts
          (xy -1.27 8.89)
          (xy -1.27 6.35)
          (xy -1.27 6.604)
        )
        (stroke (width 0.5) (type default) (color 0 0 0 1))
        (fill (type none))
      )
      (polyline
        (pts
          (xy 1.27 -5.08)
          (xy 1.27 -7.62)
          (xy 1.27 -7.366)
        )
        (stroke (width 0.5) (type default) (color 0 0 0 1))
        (fill (type none))
      )
      (polyline
        (pts
          (xy 1.27 8.89)
          (xy 1.27 6.35)
          (xy 1.27 6.604)
        )
        (stroke (width 0.5) (type default) (color 0 0 0 1))
        (fill (type none))
      )
      (polyline
        (pts
          (xy 3.81 -5.08)
          (xy 3.81 -7.62)
          (xy 3.81 -7.366)
        )
        (stroke (width 0.5) (type default) (color 0 0 0 1))
        (fill (type none))
      )
      (polyline
        (pts
          (xy 3.81 8.89)
          (xy 3.81 6.35)
          (xy 3.81 6.604)
        )
        (stroke (width 0.5) (type default) (color 0 0 0 1))
        (fill (type none))
      )
      (pin input line (at -3.81 -7.62 90) (length 2.54)
        (name "L1" (effects (font (size 1.27 1.27))))
        (number "1" (effects (font (size 1.27 1.27))))
      )
      (pin input line (at -3.81 8.89 270) (length 2.54)
        (name "L1'" (effects (font (size 1.27 1.27))))
        (number "2" (effects (font (size 1.27 1.27))))
      )
      (pin input line (at -1.27 -7.62 90) (length 2.54)
        (name "L2" (effects (font (size 1.27 1.27))))
        (number "3" (effects (font (size 1.27 1.27))))
      )
      (pin input line (at -1.27 8.89 270) (length 2.54)
        (name "L2'" (effects (font (size 1.27 1.27))))
        (number "4" (effects (font (size 1.27 1.27))))
      )
      (pin input line (at 1.27 -7.62 90) (length 2.54)
        (name "L3" (effects (font (size 1.27 1.27))))
        (number "5" (effects (font (size 1.27 1.27))))
      )
      (pin input line (at 1.27 8.89 270) (length 2.54)
        (name "L3'" (effects (font (size 1.27 1.27))))
        (number "6" (effects (font (size 1.27 1.27))))
      )
      (pin input line (at 3.81 -7.62 90) (length 2.54)
        (name "N" (effects (font (size 1.27 1.27))))
        (number "7" (effects (font (size 1.27 1.27))))
      )
      (pin input line (at 3.81 8.89 270) (length 2.54)
        (name "N'" (effects (font (size 1.27 1.27))))
        (number "8" (effects (font (size 1.27 1.27))))
      )
    )
  )
)
