(kicad_symbol_lib (version 20220914) (generator kicad_symbol_editor)
  (symbol "Switch thermal " (pin_numbers hide) (pin_names (offset 0) hide) (in_bom no) (on_board no)
    (property "Reference" "SW" (at -12.7 0 90)
      (effects (font (size 1.27 1.27)))
    )
    (property "Value" "Thermal switch" (at -7.62 0 90)
      (effects (font (size 1.27 1.27)) hide)
    )
    (property "Footprint" "" (at 10.16 -5.08 0)
      (effects (font (size 1.27 1.27)) hide)
    )
    (property "Datasheet" "" (at 10.16 -5.08 0)
      (effects (font (size 1.27 1.27)) hide)
    )
    (property "Sim.Enable" "0" (at 0 0 0)
      (effects (font (size 1.27 1.27)) hide)
    )
    (property "de" "Temperaturschalter" (at -7.62 0 90)
      (effects (font (size 1.27 1.27) (color 0 0 0 1)))
    )
    (property "Pin1" "1" (at -1.27 -4.826 0)
      (effects (font (size 1 1) (color 0 0 0 1)))
    )
    (property "Pin2" "2" (at -1.27 4.826 0)
      (effects (font (size 1 1) (color 0 0 0 1)))
    )
    (property "Ausgabe" "${COMMENT2}${REFERENCE}.${Zeile}${Strompfad}" (at -10.16 0 90)
      (effects (font (size 1.27 1.27)))
    )
    (property "Zeile" "" (at -1.27 0 0)
      (effects (font (size 1.27 1.27)) hide)
    )
    (property "Strompfad" "" (at -1.27 0 0)
      (effects (font (size 1.27 1.27)) hide)
    )
    (property "ki_keywords" "Temperatur:Schalter;" (at 0 0 0)
      (effects (font (size 1.27 1.27)) hide)
    )
    (property "ki_description" "Self operating thermal switch" (at 0 0 0)
      (effects (font (size 1.27 1.27)) hide)
    )
    (symbol "Switch thermal _0_1"
      (rectangle (start -6.35 6.35) (end 0.762 -6.35)
        (stroke (width 0.001) (type dot) (color 255 255 255 1))
        (fill (type background))
      )
      (circle (center 0 -6.35) (radius 0.284)
        (stroke (width 0.3) (type default) (color 0 0 0 1))
        (fill (type color) (color 0 0 0 1))
      )
      (polyline
        (pts
          (xy -1.27 0)
          (xy -0.635 0)
        )
        (stroke (width 0.2) (type solid) (color 0 0 0 1))
        (fill (type none))
      )
      (polyline
        (pts
          (xy 0 -6.35)
          (xy 0 -1.905)
        )
        (stroke (width 0.2) (type default) (color 0 0 0 1))
        (fill (type color) (color 0 0 0 1))
      )
      (polyline
        (pts
          (xy 0 1.905)
          (xy 0 6.35)
        )
        (stroke (width 0.2) (type default) (color 0 0 0 1))
        (fill (type color) (color 0 0 0 1))
      )
      (polyline
        (pts
          (xy 0 -3.81)
          (xy 0 -6.35)
          (xy 0 -6.096)
        )
        (stroke (width 0.5) (type default) (color 0 0 0 1))
        (fill (type none))
      )
      (polyline
        (pts
          (xy 0 6.35)
          (xy 0 3.81)
          (xy 0 4.064)
        )
        (stroke (width 0.5) (type default) (color 0 0 0 1))
        (fill (type none))
      )
      (polyline
        (pts
          (xy -1.905 0)
          (xy -3.175 0)
          (xy -3.175 1.27)
          (xy -4.445 1.27)
          (xy -4.445 0)
          (xy -5.715 0)
        )
        (stroke (width 0.2) (type default) (color 0 0 0 1))
        (fill (type none))
      )
      (circle (center 0 6.35) (radius 0.284)
        (stroke (width 0.3) (type default) (color 0 0 0 1))
        (fill (type color) (color 0 0 0 1))
      )
    )
    (symbol "Switch thermal _1_1"
      (polyline
        (pts
          (xy 0 -1.905)
          (xy 0.635 1.905)
        )
        (stroke (width 0.2) (type default) (color 0 0 0 1))
        (fill (type color) (color 0 0 0 1))
      )
      (polyline
        (pts
          (xy 0 0)
          (xy 0.635 0)
        )
        (stroke (width 0.2) (type solid) (color 0 0 0 1))
        (fill (type none))
      )
      (polyline
        (pts
          (xy 0 1.905)
          (xy 0.635 1.905)
        )
        (stroke (width 0.2) (type default) (color 0 0 0 1))
        (fill (type color) (color 0 0 0 1))
      )
      (pin input line (at 0 -6.35 90) (length 2.54)
        (name "" (effects (font (size 1.27 1.27))))
        (number "1-UB" (effects (font (size 1.27 1.27))))
      )
      (pin input line (at 0 6.35 270) (length 2.54)
        (name "" (effects (font (size 1.27 1.27))))
        (number "2-UB" (effects (font (size 1.27 1.27))))
      )
    )
    (symbol "Switch thermal _2_1"
      (polyline
        (pts
          (xy 0 -1.905)
          (xy -0.635 1.905)
        )
        (stroke (width 0.2) (type default) (color 0 0 0 1))
        (fill (type color) (color 0 0 0 1))
      )
    )
  )
)
